﻿capital = 399
#Uses default RSs
2000.1.1 = {
	set_variable = { gdp_per_capita = 5.529 }
	capital = 399
	#oob = "ARA_2000"


	add_ideas = {
		shia
		Non_State_Actor
		fossil_fuel_industry
		landowners
		international_bankers
	}

	# Starting tech
	set_technology = {
		#Kowsar
		L_Strike_fighter1 = 1
		L_Strike_fighter2 = 1

		MR_Fighter2 = 1

		AA_upgrade_1 = 1
		Anti_Air_1 = 1
		SP_Anti_Air_1 = 1
		AA_upgrade_3 = 1
		Anti_Air_2 = 1
		SP_Anti_Air_2 = 1

		AT_upgrade_2 = 1
		Anti_tank_2 = 1
		Heavy_Anti_tank_2 = 1

		SP_arty_2 = 1
		SP_R_arty_2 = 1

		artillery_1 = 1
		Arty_upgrade_3 = 1

		util_vehicle_1 = 1
		util_vehicle_2 = 1
		util_vehicle_3 = 1

		IFV_2 = 1
		APC_2 = 1
		APC_3 = 1

		land_Drone_equipment2 = 1 #2005

		infantry_weapons2 = 1
		infantry_weapons3 = 1
		support_weapons2 = 1
		tandem_charge_warheads = 1
		squad_automatic_weapon = 1
		special_forces2 = 1

		night_vision_3 = 1

		command_control_equipment3 = 1

		Rec_tank_1 = 1

		Air_UAV1 = 1

		body_armor_2000 = 1

		microprocessors = 1
		computing2 = 1
		decryption2 = 1
		encryption2 = 1

		internet1 = 1 	#1G
		internet2 = 1 	#2G
	}
	if = {
		limit = {
			not = { has_dlc = "Man the Guns" }
		}
		set_technology = {
			diesel_attack_submarine_2 = 1
			diesel_attack_submarine_3 = 1
			diesel_attack_submarine_4 = 1

			#Khalije Fars-Class
			destroyer_1 = 1
			destroyer_2 = 1
			missile_destroyer_1 = 1

			corvette_2 = 1
			missile_corvette_1 = 1

			attack_helicopter2 = 1
		}
	}
	if = {
		limit = {
			has_dlc = "Man the Guns"
		}
		set_technology = {
			corvette_hull_1 = 1
			corvette_hull_2 = 1
			corvette_hull_3 = 1
			corvette_hull_3 = 1

			frigate_hull_1 = 1
			frigate_hull_2 = 1
			frigate_hull_3 = 1
			frigate_hull_3 = 1

			destroyer_hull_1 = 1

			helicopter_operator_hull_1 = 1

			attack_submarine_hull_1 = 1
			attack_submarine_hull_2 = 1
			attack_submarine_hull_3 = 1

			aircraft_carrier_engineering = 1
			aircraft_heli_engineering_1 = 1

			tech_submarine_engineering = 1

			tech_naval_systems_engineering = 1
			tech_power_systems = 1
			tech_power_systems_1 = 1

			tech_combat_support_systems = 1
			tech_fire_control = 1
			tech_fire_control_1 = 1
			tech_combat_radar = 1
			tech_combat_radar_1 = 1
			tech_combat_radar_2 = 1
			tech_combat_sonar = 1
			tech_combat_sonar_1 = 1
			tech_combat_sonar_2 = 1

			tech_naval_weapon_systems = 1
			tech_light_guns = 1
			tech_light_guns_1 = 1

			tech_point_defense_system = 1

			tech_turret_missiles_surface = 1
			tech_turret_missiles_surface_1 = 1

			tech_turret_missiles_aa = 1
			tech_turret_missiles_aa_1 = 1

			tech_vls_surface = 1
			tech_vls_surface_1 = 1
			tech_vls_surface_2 = 1

			tech_vls_aa = 1
			tech_vls_aa_1 = 1
			tech_vls_aa_2 = 1

			tech_torpedoes = 1
			tech_torpedoes_1 = 1

			tech_mtg_landing_craft = 1
		}
	}

	set_popularities = {
		democratic = 15.0
		communism = 15.0
		fascism = 5.0
		neutrality = 20.0
		nationalist = 45.0
	}
	set_politics = {
		ruling_party = nationalist
		last_election = "1999.4.30"
		election_frequency = 48
		elections_allowed = yes
	}

	start_politics_input = yes

	#Influence system
	init_influence = yes
	set_variable = { domestic_influence_amount = 50 }
	add_to_array = { influence_array = SAU.id }
	add_to_array = { influence_array_val = 50 }
	startup_influence = yes

	set_variable = { var = corporate_tax_rate value = 25 }
	set_variable = { var = population_tax_rate value = 25 }

	### Party Popularities
	set_variable = { party_pop_array^0 = 0 } #Western_Autocracy
	set_variable = { party_pop_array^1 = 0.15 } #conservatism
	set_variable = { party_pop_array^2 = 0 } #liberalism
	set_variable = { party_pop_array^3 = 0 } #socialism
	set_variable = { party_pop_array^4 = 0 } #Communist-State
	set_variable = { party_pop_array^5 = 0 } #anarchist_communism
	set_variable = { party_pop_array^6 = 0 } #Conservative
	set_variable = { party_pop_array^7 = 0 } #Autocracy
	set_variable = { party_pop_array^8 = 0.15 } #Mod_Vilayat_e_Faqih
	set_variable = { party_pop_array^9 = 0 } #Vilayat_e_Faqih
	set_variable = { party_pop_array^10 = 0 } #Kingdom
	set_variable = { party_pop_array^11 = 0.05 } #Caliphate
	set_variable = { party_pop_array^12 = 0.20 } #Neutral_Muslim_Brotherhood
	set_variable = { party_pop_array^13 = 0 } #Neutral_Autocracy
	set_variable = { party_pop_array^14 = 0 } #Neutral_conservatism
	set_variable = { party_pop_array^15 = 0 } #oligarchism
	set_variable = { party_pop_array^16 = 0 } #Neutral_Libertarian
	set_variable = { party_pop_array^17 = 0 } #Neutral_green
	set_variable = { party_pop_array^18 = 0 } #neutral_Social
	set_variable = { party_pop_array^19 = 0 } #Neutral_Communism
	set_variable = { party_pop_array^20 = 0.45 } #Nat_Populism
	set_variable = { party_pop_array^21 = 0 } #Nat_Fascism
	set_variable = { party_pop_array^22 = 0 } #Nat_Autocracy
	set_variable = { party_pop_array^23 = 0 } #Monarchist

	### Ruling Party
	add_to_array = { ruling_party = 20 }

	startup_politics = yes

	create_country_leader = {
		name = "Habib Jabor"
		picture = "habib_jabor.dds"
		ideology = Nat_Populism
		traits = {
			nationalist_Nat_Populism
			ruthless
		}
	}

	recruit_character = ARA_khazaal_hashemi
	recruit_character = ARA_air_chief
}

2017.1.1 = {
	set_technology = {
		microprocessors = 1
		computing2 = 1
		decryption2 = 1
		encryption2 = 1
		computing3 = 1
		decryption3 = 1
		encryption3 = 1
		computing4 = 1
		decryption4 = 1
		encryption4 = 1
		neural_networks_revival = 1
		data_mining = 1
		industrial_electrospun_polymeric_nanofibers = 1
		stereolitography = 1
		DNA_fingerprinting = 1
		modern_gmo = 1
		gene_therapy = 1
		internet1 = 1 	#1G
	}
}