﻿capital = 955
2000.1.1 = {
	set_variable = { gdp_per_capita = 38.855 }


	add_ideas = {
		#Economic Cycle
		stable_growth
		#Corruption
		medium_corruption
		#Faction 1
		international_bankers
		#Faction 2
		defense_industry
		#Faction 3
		intelligence_community

		#Bureacracy
		bureau_02
		#Military Spending
		defence_02
		#Internal Security
		police_03
		#Education budget
		edu_04
		#Health budget
		health_05
		#Social spending
		social_05

		#Trade Law
		consumption_economy
		#Conscription Law
		volunteer_army
		#Women in the military
		volunteer_women
		#Foreign Intervention Law
		intervention_regional_interventionism

		officer_international_education
	}

	set_technology = {
		integrated_transportation_system = 1
		post_conventional_rail = 1
		early_freight_locomotive = 1

		legacy_doctrines = 1
		superior_firepower = 1

		infantry_weapons = 1
		infantry_weapons1 = 1
		infantry_weapons2 = 1
		infantry_weapons3 = 1
		support_weapons = 1
		support_weapons2 = 1
		squad_automatic_weapon = 1
		tandem_charge_warheads = 1
		support_weapons3 = 1
		special_forces = 1
		special_forces2 = 1

		camouflage = 1
		camouflage2 = 1

		command_control_equipment = 1
		command_control_equipment1 = 1
		command_control_equipment2 = 1
		command_control_equipment3 = 1

		land_Drone_equipment = 1
		land_Drone_equipment1 = 1
		land_Drone_equipment2 = 1

		Anti_tank_0 = 1
		AT_upgrade_1 = 1
		Anti_tank_1 = 1
		AT_upgrade_2 = 1
		Anti_tank_2 = 1

		Heavy_Anti_tank_0 = 1
		Heavy_Anti_tank_1 = 1
		Heavy_Anti_tank_2 = 1

		combat_eng_equipment = 1

		util_vehicle_0 = 1
		util_vehicle_1 = 1
		util_vehicle_2 = 1
		util_vehicle_3 = 1
		util_vehicle_4 = 1


		transport_helicopter1 = 1
		transport_helicopter2 = 1 #Westland WG-13 Lynx

		night_vision_1 = 1
		night_vision_2 = 1
		night_vision_3 = 1

		landing_craft = 1

		body_armor_1980 = 1
		body_armor_2000 = 1

		basic_computing = 1
		integrated_circuit = 1
		computing1 = 1
		decryption1 = 1
		encryption1 = 1
		microprocessors = 1
		computing2 = 1
		decryption2 = 1
		encryption2 = 1
		radar = 1
		internet1 = 1 	#1G
		internet2 = 1 	#2G
		gprs = 1
		fuel_silos = 1

		industrial_electrospun_polymeric_nanofibers = 1
		multiwalled_carbon_nanotubes = 1
		modern_electrospinning = 1
		stereolitography = 1
		early_3D_printers = 1
		t3D_wax_printer = 1
		DNA_fingerprinting = 1
		modern_gmo = 1
		fuel_refining = 1
		fuel_refining2 = 1
		energy_efficiency = 1
		energy_efficiency2 = 1
		fuel_efficiency = 1
		early_renewables = 1
		renewables = 1
		electrification_1 = 1
		construction1 = 1
		stronghold_building_1 = 1
		land_fort_building_1 = 1
		construction2 = 1
	}

		complete_special_project = sp:sp_helicopter_project

	if = {
		limit = { has_dlc = "By Blood Alone" }

		set_technology = {
			early_airframe_designs = 1
			gen_3_light = 1
			gen_3_medium = 1
			early_weapons = 1
			ag_weapons_1 = 1
		}
		else = {
			set_technology = {
				early_fighter = 1
				MR_Fighter1 = 1 #Hawker Siddeley Harrier
				MR_Fighter2 = 1 #BAE Harrier GR7
				MR_upgrade_1 = 1
				MR_Fighter3 = 1

				AS_Fighter1 = 1
				AS_Fighter2 = 1
				AS_upgrade_1 = 1
				AS_Fighter3 = 1 #4.5gen - Eurofighter Typhoon

				CV_MR_Fighter1 = 1
				CV_MR_Fighter2 = 1

				Strike_fighter1 = 1
				Strike_fighter2 = 1 #Panavia Tornado
				Strike_upgrade_1 = 1
				Strike_fighter3 = 1

				L_Strike_fighter1 = 1
				L_Strike_fighter2 = 1
				L_Strike_fighter3 = 1 #BAE Hawk 200

				CV_L_Strike_Fighter1 = 1
				CV_L_Strike_Fighter2 = 1

				early_bomber = 1
				strategic_bomber1 = 1

				transport_plane1 = 1
				transport_plane2 = 1 #Lockheed TriStar

				naval_plane1 = 1
				naval_plane2 = 1
			}
		}
	}
	if = {
		limit = { has_dlc = "No Step Back" }

		set_technology = {
			mbt_tech = 1
			mbt_tech_1 = 1
			mbt_tech_2 = 1
			tank_components_tech = 1
			tank_components_tech_2 = 1
			tank_components_tech_3 = 1
			small_medium_gun_tech = 1
			small_medium_gun_tech_2 = 1
			medium_gun_tech = 1
			medium_gun_tech_2 = 1
			armor_tech = 1
			armor_tech_2 = 1
			era_tech = 1
			era_tech_2 = 1
			diesel_engine_tech = 1
			diesel_engine_tech_2 = 1
			diesel_engine_tech_3 = 1
			diesel_engine_tech_4 = 1
			turbine_engine_tech = 1
			turbine_engine_tech_2 = 1
			afv_tech = 1
			afv_tech_1 = 1
			small_autocannon_tech = 1
			small_autocannon_tech_2 = 1
			nsb_SP_arty_1 = 1
			nsb_SP_arty_2 = 1 #AS-90
			nsb_artillery_0 = 1
			nsb_artillery_1 = 1 #L118 Light Gun
			nsb_Arty_upgrade_1 = 1
			nsb_Arty_upgrade_3 = 1

			nsb_SP_Anti_Air_0 = 1
			nsb_SP_Anti_Air_0 = 1
			nsb_SP_Anti_Air_1 = 1

			light_tank_tech = 1
			light_tank_tech_1 = 1
			light_tank_tech_2 = 1 #FV107 Scimitar

			nsb_Anti_Air_0 = 1
			nsb_Anti_Air_1 = 1
			nsb_AA_upgrade_1 = 1
			nsb_attack_helicopter_tech_1 = 1
			nsb_attack_helicopter_tech_2 = 1
		}
		#complete_special_project = sp:sp_21stcentury_thermal

		else = {
			set_technology = {
				MBT_1 = 1
				MBT_2 = 1
				MBT_3 = 1
				MBT_4 = 1
				Early_APC = 1
				IFV_1 = 1
				IFV_2 = 1
				IFV_3 = 1
				IFV_4 = 1 #FV510 Warrior
				APC_1 = 1
				APC_2 = 1
				APC_3 = 1 #FV103 Spartan
				SP_arty_0 = 1
				SP_arty_1 = 1
				SP_arty_2 = 1 #AS-90
				artillery_0 = 1
				artillery_1 = 1 #L118 Light Gun
				Arty_upgrade_1 = 1
				Arty_upgrade_3 = 1
				SP_R_arty_0 = 1
				SP_R_arty_1 = 1 #M270 MLRS jointly devloped by the UK
				Anti_Air_0 = 1
				Anti_Air_1 = 1
				Anti_Air_2 = 1
				AA_upgrade_1 = 1
				AA_upgrade_3 = 1
				attack_helicopter1 = 1
				attack_helicopter2 = 1
			}
		}
	}

	# Naval Technology
	if = {
		limit = {
			has_dlc = "Man the Guns"
		}
		set_technology = {
			corvette_hull_1 = 1
			corvette_hull_2 = 1
			corvette_hull_3 = 1

			frigate_hull_1 = 1
			frigate_hull_2 = 1
			frigate_hull_3 = 1

			destroyer_hull_1 = 1
			destroyer_hull_2 = 1

			cruiser_hull_1 = 1
			cruiser_hull_2 = 1

			battleship_hull_1 = 1

			helicopter_operator_hull_1 = 1
			helicopter_operator_hull_2 = 1

			carrier_hull_1 = 1
			carrier_hull_2 = 1
			carrier_hull_3 = 1

			attack_submarine_hull_1 = 1
			attack_submarine_hull_2 = 1
			attack_submarine_hull_3 = 1

			missile_submarine_hull_1 = 1
			missile_submarine_hull_2 = 1
			missile_submarine_hull_3 = 1

			aircraft_carrier_engineering = 1
			aircraft_heli_engineering_1 = 1
			aircraft_heli_engineering_2 = 1

			tech_submarine_engineering = 1
			tech_submarine_engineering_1 = 1
			tech_submarine_engineering_2 = 1

			tech_naval_systems_engineering = 1
			tech_power_systems = 1
			tech_power_systems_1 = 1
			tech_nuclear_power_systems = 1
			tech_nuclear_power_systems_1 = 1

			tech_combat_support_systems = 1
			tech_fire_control = 1
			tech_fire_control_1 = 1
			tech_combat_radar = 1
			tech_combat_radar_1 = 1
			tech_combat_radar_2 = 1
			tech_combat_sonar = 1
			tech_combat_sonar_1 = 1
			tech_combat_sonar_2 = 1

			tech_early_naval_weapon_systems = 1
			tech_naval_weapon_systems = 1
			tech_naval_weapon_systems = 1
			tech_light_guns = 1
			tech_light_guns_1 = 1

			tech_point_defense_system = 1
			tech_point_defense_system_1 = 1
			tech_point_defense_system_2 = 1
			tech_point_defense_system_3 = 1

			tech_turret_missiles_surface = 1
			tech_turret_missiles_surface_1 = 1
			tech_turret_missiles_aa = 1
			tech_turret_missiles_aa_1 = 1
			tech_turret_missiles_aa_2 = 1
			tech_vls_surface = 1
			tech_vls_surface_1 = 1
			tech_vls_surface_2 = 1
			tech_vls_aa = 1
			tech_vls_aa_1 = 1
			tech_vls_aa_2 = 1

			tech_torpedoes = 1
			tech_torpedoes_1 = 1

			tech_mtg_landing_craft = 1
			tech_mtg_amphibious_assault_ship = 1
		}

		else = {
			set_technology = {
				modern_carrier_0 = 1
				modern_carrier_1 = 1
				modern_carrier_2 = 1
				modern_carrier_3 = 1 #Invincible-class aircraft carrier

				destroyer_1 = 1
				destroyer_2 = 1 #Type 42 Sheffield-Class

				frigate_1 = 1
				frigate_2 = 1
				missile_frigate_1 = 1 #Type 23 class

				#F-2000 Corvette
				corvette_1 = 1
				corvette_2 = 1
				missile_corvette_1 = 1
				missile_corvette_2 = 1
				missile_corvette_3 = 1

				submarine_1 = 1
				attack_submarine_1 = 1
				attack_submarine_2 = 1
				attack_submarine_3 = 1 #Trafalgar-class
				missile_submarine_1 = 1
				missile_submarine_2 = 1
				missile_submarine_3 = 1 #Vanguard-class submarine
				attack_submarine_4 = 1 #Astute-class

				LPD_0 = 1
				LPD_1 = 1
				LPD_2 = 1 #HMS Ocean

			}
		}
	}

	set_popularities = {
		democratic = 90.0
		communism = 2.0
		fascism = 0.0
		neutrality = 4.0
		nationalist = 4.0
	}
	set_politics = {
		ruling_party = democratic
		last_election = "1997.5.1"
		election_frequency = 60
		elections_allowed = yes
	}

	start_politics_input = yes

	set_variable = { party_pop_array^0 = 0 } #Western_Autocracy
	set_variable = { party_pop_array^1 = 0.31 } #conservatism
	set_variable = { party_pop_array^2 = 0.183 } #liberalism
	set_variable = { party_pop_array^3 = 0.407 } #socialism
	set_variable = { party_pop_array^4 = 0.01 } #Communist-State
	set_variable = { party_pop_array^5 = 0.01 } #anarchist_communism
	set_variable = { party_pop_array^6 = 0 } #Conservative
	set_variable = { party_pop_array^7 = 0 } #Autocracy
	set_variable = { party_pop_array^8 = 0 } #Mod_Vilayat_e_Faqih
	set_variable = { party_pop_array^9 = 0 } #Vilayat_e_Faqih
	set_variable = { party_pop_array^10 = 0 } #Kingdom
	set_variable = { party_pop_array^11 = 0 } #Caliphate
	set_variable = { party_pop_array^12 = 0 } #Neutral_Muslim_Brotherhood
	set_variable = { party_pop_array^13 = 0 } #Neutral_Autocracy
	set_variable = { party_pop_array^14 = 0 } #Neutral_conservatism
	set_variable = { party_pop_array^15 = 0 } #oligarchism
	set_variable = { party_pop_array^16 = 0.01 } #Neutral_Libertarian
	set_variable = { party_pop_array^17 = 0.02 } #Neutral_green
	set_variable = { party_pop_array^18 = 0 } #neutral_Social
	set_variable = { party_pop_array^19 = 0.01 } #Neutral_Communism
	set_variable = { party_pop_array^20 = 0.03 } #Nat_Populism
	set_variable = { party_pop_array^21 = 0.01 } #Nat_Fascism
	set_variable = { party_pop_array^22 = 0 } #Nat_Autocracy
	set_variable = { party_pop_array^23 = 0 } #Monarchist
	add_to_array = { ruling_party = 3 }
	startup_politics = yes

	recruit_character = IOM_air_chief
}

2017.1.1 = {
	add_ideas = {
		medium_corruption
		pluralist
		stable_growth
		defence_02
		consumption_economy
		edu_04
		health_05
		social_05
		bureau_02
		police_03
		volunteer_army
		volunteer_women
		international_bankers
		defense_industry
		intelligence_community
		intervention_regional_interventionism
		officer_international_education
	}
	set_technology = {
		early_high_speed_rail = 1
		high_speed_rail = 1
		modern_high_speed_rail = 1
		freight_locomotive = 1

		command_control_equipment4 = 1

		combat_eng_equipment = 1

		artillery_2 = 1

		util_vehicle_5 = 1

		Rec_tank_3 = 1

		transport_helicopter3 = 1

		attack_helicopter3 = 1 #AW159 Wildcat

		MR_Fighter4 = 1 #F-35A Lightning II

		CV_L_strike_fighter3 = 1  #F-35B Lightning II

		body_armor_2010 = 1
		camouflage3 = 1

		computing3 = 1
		decryption3 = 1
		encryption3 = 1
		computing4 = 1
		decryption4 = 1
		encryption4 = 1
		computing5 = 1
		decryption5 = 1
		encryption5 = 1
		neural_networks_revival = 1
		data_mining = 1
		machine_learning = 1
		sociable_machines = 1
		industrial_electrospun_polymeric_nanofibers = 1
		multiwalled_carbon_nanotubes = 1
		modern_electrospinning = 1
		stereolitography = 1
		early_3D_printers = 1
		t3D_wax_printer = 1
		DNA_fingerprinting = 1
		modern_gmo = 1
		gene_therapy = 1
		genetically_modified_crops = 1
		gene_targeting_pesticides = 1
		human_genome_project = 1
		crispr = 1
		cas9_gene_editing = 1
		wifi = 1
		internet3 = 1	#3G
		edge = 1
		umts = 1
		hsupa = 1
		internet4 = 1	#4G
		lte = 1
		construction1 = 1
		stronghold_building_1 = 1
		land_fort_building_1 = 1
		construction2 = 1
		excavation1 = 1
		excavation2 = 1
	}

	# Naval Technology
	if = {
		limit = {
			has_dlc = "Man the Guns"
		}
		set_technology = {
			corvette_hull_1 = 1
			corvette_hull_2 = 1
			corvette_hull_3 = 1

			frigate_hull_1 = 1
			frigate_hull_2 = 1
			frigate_hull_3 = 1

			destroyer_hull_1 = 1
			destroyer_hull_2 = 1

			cruiser_hull_1 = 1
			cruiser_hull_2 = 1
			cruiser_hull_3 = 1

			battleship_hull_1 = 1

			helicopter_operator_hull_1 = 1

			carrier_hull_1 = 1

			attack_submarine_hull_1 = 1
			attack_submarine_hull_2 = 1
			attack_submarine_hull_3 = 1
			attack_submarine_hull_4 = 1

			missile_submarine_hull_1 = 1
			missile_submarine_hull_2 = 1
			missile_submarine_hull_3 = 1
			missile_submarine_hull_4 = 1

			aircraft_heli_engineering_1 = 1
			aircraft_heli_engineering_2 = 1
			aircraft_heli_engineering_3 = 1

			tech_submarine_engineering = 1
			tech_submarine_engineering_1 = 1
			tech_submarine_engineering_2 = 1
			tech_submarine_engineering_3 = 1
			tech_submarine_engineering_4 = 1

			tech_naval_systems_engineering = 1
			tech_power_systems = 1
			tech_power_systems_1 = 1
			tech_nuclear_power_systems = 1
			tech_nuclear_power_systems_1 = 1
			tech_nuclear_power_systems_2 = 1

			tech_combat_support_systems = 1
			tech_fire_control = 1
			tech_fire_control_1 = 1
			tech_fire_control_2 = 1
			tech_combat_radar = 1
			tech_combat_radar_1 = 1
			tech_combat_radar_2 = 1
			tech_combat_radar_3 = 1
			tech_combat_radar_4 = 1
			tech_combat_sonar = 1
			tech_combat_sonar_1 = 1
			tech_combat_sonar_2 = 1
			tech_combat_sonar_3 = 1
			tech_combat_sonar_4 = 1

			tech_naval_weapon_systems = 1
			tech_light_guns = 1
			tech_light_guns_1 = 1
			tech_light_guns_2 = 1

			tech_point_defense_system = 1
			tech_point_defense_system_1 = 1
			tech_point_defense_system_2 = 1
			tech_point_defense_system_3 = 1
			tech_point_defense_system_4 = 1
			tech_point_defense_system_5 = 1

			tech_turret_missiles_surface = 1
			tech_turret_missiles_surface_1 = 1
			tech_turret_missiles_surface_2 = 1
			tech_turret_missiles_surface_3 = 1

			tech_turret_missiles_aa = 1
			tech_turret_missiles_aa_1 = 1
			tech_turret_missiles_aa_2 = 1
			tech_turret_missiles_aa_3 = 1

			tech_vls_surface = 1
			tech_vls_surface_1 = 1
			tech_vls_surface_2 = 1
			tech_vls_surface_3 = 1

			tech_vls_aa = 1
			tech_vls_aa_1 = 1
			tech_vls_aa_2 = 1
			tech_vls_aa_3 = 1

			tech_torpedoes = 1
			tech_torpedoes_1 = 1
			tech_torpedoes_2 = 1

			tech_mtg_landing_craft = 1
		}

		else = {
			set_technology = {
				modern_carrier_4 = 1 #Queen Elizabeth-class aircraft carrier

				missile_destroyer_1 = 1
				missile_destroyer_2 = 1
				missile_destroyer_3 = 1 #Type 45 class

				missile_frigate_1 = 1 #Type 23 class

				missile_corvette_2 = 1
				missile_corvette_3 = 1 #Khareef-Class
			}
		}
	}

	#Nat focus

	set_popularities = {
		democratic = 89.8
		communism = 0.0
		fascism = 0.0
		neutrality = 4.2
		nationalist = 6.0
	}
	set_politics = {

		ruling_party = democratic
		last_election = "2015.5.7"
		election_frequency = 60
		elections_allowed = yes
	}

	start_politics_input = yes

	set_variable = { party_pop_array^0 = 0 } #Western_Autocracy
	set_variable = { party_pop_array^1 = 0.424 } #conservatism
	set_variable = { party_pop_array^2 = 0.074 } #liberalism
	set_variable = { party_pop_array^3 = 0.4 } #socialism
	set_variable = { party_pop_array^4 = 0 } #Communist-State
	set_variable = { party_pop_array^5 = 0 } #anarchist_communism
	set_variable = { party_pop_array^6 = 0 } #Conservative
	set_variable = { party_pop_array^7 = 0 } #Autocracy
	set_variable = { party_pop_array^8 = 0 } #Mod_Vilayat_e_Faqih
	set_variable = { party_pop_array^9 = 0 } #Vilayat_e_Faqih
	set_variable = { party_pop_array^10 = 0 } #Kingdom
	set_variable = { party_pop_array^11 = 0 } #Caliphate
	set_variable = { party_pop_array^12 = 0 } #Neutral_Muslim_Brotherhood
	set_variable = { party_pop_array^13 = 0 } #Neutral_Autocracy
	set_variable = { party_pop_array^14 = 0 } #Neutral_conservatism
	set_variable = { party_pop_array^15 = 0 } #oligarchism
	set_variable = { party_pop_array^16 = 0 } #Neutral_Libertarian
	set_variable = { party_pop_array^17 = 0.042 } #Neutral_green
	set_variable = { party_pop_array^18 = 0 } #neutral_Social
	set_variable = { party_pop_array^19 = 0 } #Neutral_Communism
	set_variable = { party_pop_array^20 = 0.06 } #Nat_Populism
	set_variable = { party_pop_array^21 = 0 } #Nat_Fascism
	set_variable = { party_pop_array^22 = 0 } #Nat_Autocracy
	set_variable = { party_pop_array^23 = 0 } #Monarchist
	add_to_array = { ruling_party = 1 }
	startup_politics = yes
}