﻿capital = 693
2000.1.1 = {
	set_cosmetic_tag = NOV
	set_variable = { gdp_per_capita = 7.497 }

	add_ideas = {
		unrestrained_corruption
		orthodox_christian
		Non_State_Actor

		stable_growth
		defence_06
		edu_02
		health_02
		social_02
		bureau_03
		police_03
		volunteer_army
		volunteer_women
		the_military
		intelligence_community
		oligarchs
		officer_advanced_training
	}

	set_technology = {
		integrated_transportation_system = 1
		post_conventional_rail = 1
		early_freight_locomotive = 1

		legacy_doctrines = 1
		armoured_mass_assault = 1

		infantry_weapons = 1
		infantry_weapons1 = 1
		infantry_weapons2 = 1
		infantry_weapons3 = 1
		support_weapons = 1
		tandem_charge_warheads = 1
		squad_automatic_weapon = 1
		support_weapons2 = 1
		#2005

		combat_eng_equipment = 1

		night_vision_1 = 1
		night_vision_2 = 1

		command_control_equipment = 1
		command_control_equipment1 = 1
		command_control_equipment2 = 1

		land_Drone_equipment = 1

		util_vehicle_0 = 1
		util_vehicle_1 = 1
		util_vehicle_2 = 1

		Anti_tank_0 = 1
		Heavy_Anti_tank_0 = 1
		AT_upgrade_1 = 1
		Anti_tank_1 = 1
		Heavy_Anti_tank_1 = 1

		basic_computing = 1
		integrated_circuit = 1
		computing1 = 1
		decryption1 = 1
		encryption1 = 1

		radar = 1
		internet1 = 1 	#1G
		fuel_silos = 1

		industrial_electrospun_polymeric_nanofibers = 1
		stereolitography = 1
		fuel_refining = 1
		construction1 = 1
	}
	if = { limit = { has_dlc = "No Step Back" }
		set_technology = {
			mbt_tech = 1
			afv_tech = 1
			diesel_engine_tech = 1
			diesel_engine_tech_2 = 1
			tank_components_tech = 1
			small_autocannon_tech = 1
			nsb_artillery_0 = 1
			nsb_Arty_upgrade_1 = 1
			nsb_artillery_1 = 1
			nsb_SP_arty_1 = 1
			nsb_Arty_upgrade_3 = 1
			nsb_Anti_Air_0 = 1
			nsb_SP_Anti_Air_0 = 1
			nsb_AA_upgrade_1 = 1
			nsb_Anti_Air_1 = 1
			nsb_SP_Anti_Air_1 = 1
			nsb_AA_upgrade_2 = 1
			nsb_SP_Anti_Air_2 = 1
			light_tank_tech = 1 #1965
			light_tank_tech_1 = 1 #1985
		}

		else = {
			set_technology = {
				Early_APC = 1
				APC_1 = 1
				APC_2 = 1
				APC_3 = 1
				MBT_1 = 1
				MBT_2 = 1
				IFV_1 = 1
				IFV_2 = 1
				artillery_0 = 1
				Arty_upgrade_1 = 1
				SP_arty_0 = 1
				SP_R_arty_0 = 1
				artillery_1 = 1
				SP_arty_1 = 1
				SP_R_arty_1 = 1
				SP_R_arty_2 = 1
				Arty_upgrade_3 = 1
				Anti_Air_0 = 1
				SP_Anti_Air_0 = 1
				AA_upgrade_1 = 1
				Anti_Air_1 = 1
				SP_Anti_Air_1 = 1
				AA_upgrade_2 = 1
				Anti_Air_2 = 1
				SP_Anti_Air_2 = 1
				Rec_tank_0 = 1 #1965
				Rec_tank_1 = 1 #1985
			}
		}
	}

	set_variable = { var = treasury value = 5.00 }
	set_variable = { var = corporate_tax_rate value = 20 }
	set_variable = { var = population_tax_rate value = 20 }

	#Influence system
	init_influence = yes
	set_variable = { domestic_influence_amount = 40 }
	add_to_array = { influence_array = SOV.id }
	add_to_array = { influence_array_val = 130 }
	add_to_array = { influence_array = UKR.id }
	add_to_array = { influence_array_val = 10 }
	startup_influence = yes

	set_popularities = {
		democratic = 0.0
		communism = 100.0
		fascism = 0.0
		neutrality = 0.0
		nationalist = 0.0
	}
	set_politics = {
		ruling_party = communism
		last_election = "2016.12.11"
		election_frequency = 60
		elections_allowed = no
	}

	start_politics_input = yes

	### Party Popularities
	set_variable = { party_pop_array^0 = 0 } #Western_Autocracy
	set_variable = { party_pop_array^1 = 0 } #conservatism
	set_variable = { party_pop_array^2 = 0 } #liberalism
	set_variable = { party_pop_array^3 = 0 } #socialism
	set_variable = { party_pop_array^4 = 0 } #Communist-State
	set_variable = { party_pop_array^5 = 0 } #anarchist_communism
	set_variable = { party_pop_array^6 = 0 } #Conservative
	set_variable = { party_pop_array^7 = 1.0 } #Autocracy
	set_variable = { party_pop_array^8 = 0 } #Mod_Vilayat_e_Faqih
	set_variable = { party_pop_array^9 = 0 } #Vilayat_e_Faqih
	set_variable = { party_pop_array^10 = 0 } #Kingdom
	set_variable = { party_pop_array^11 = 0 } #Caliphate
	set_variable = { party_pop_array^12 = 0 } #Neutral_Muslim_Brotherhood
	set_variable = { party_pop_array^13 = 0.0 } #Neutral_Autocracy
	set_variable = { party_pop_array^14 = 0 } #Neutral_conservatism
	set_variable = { party_pop_array^15 = 0 } #oligarchism
	set_variable = { party_pop_array^16 = 0 } #Neutral_Libertarian
	set_variable = { party_pop_array^17 = 0 } #Neutral_green
	set_variable = { party_pop_array^18 = 0 } #neutral_Social
	set_variable = { party_pop_array^19 = 0 } #Neutral_Communism
	set_variable = { party_pop_array^20 = 0 } #Nat_Populism
	set_variable = { party_pop_array^21 = 0 } #Nat_Fascism
	set_variable = { party_pop_array^22 = 0 } #Nat_Autocracy
	set_variable = { party_pop_array^23 = 0 } #Monarchist

	### Ruling Party
	add_to_array = { ruling_party = 7 }

	startup_politics = yes

	#DPR People
	recruit_character = NOV_vladimir_kononov
	recruit_character = NOV_eduard_basurin
	recruit_character = NOV_mikhail_tolstykh
	recruit_character = NOV_akhra_avidzba
	recruit_character = NOV_alexander_khodakovsky
	recruit_character = NOV_igor_bezler
	recruit_character = NOV_arsen_pavlov

	#LPR People
	recruit_character = NOV_aleksey_mozgovoy
	recruit_character = NOV_alexander_bednov
	recruit_character = NOV_nikolai_kozitsyn
	recruit_character = NOV_valery_bolotov

	recruit_character = NOV_air_chief

	every_controlled_state = {
		set_variable = { productivity_state_var = 349 }
	}
	set_variable = { overall_productivity = 349 }

}

2017.1.1 = {
	if = {
		limit = { has_dlc = "No Step Back" }
		set_oob = "NOV_2017_nsb"
		else = {
			set_oob = "NOV_2017_nonnsb"
		}
	}



	diplomatic_relation = {
		country = SOV
		relation = military_access
		active = yes
	}

	add_opinion_modifier = { target = UKR modifier = hostile_status }
	add_opinion_modifier = { target = PMR modifier = russian_proficient }
	reverse_add_opinion_modifier = { target = PMR modifier = russian_proficient }
	add_opinion_modifier = { target = SOO modifier = russian_proficient }
	reverse_add_opinion_modifier = { target = SOO modifier = russian_proficient }
	add_opinion_modifier = { target = ABK modifier = russian_proficient }
	reverse_add_opinion_modifier = { target = ABK modifier = russian_proficient }

	add_ideas = {
		unrestrained_corruption
		orthodox_christian
		stable_growth
		defence_06
		edu_02
		health_02
		social_02
		bureau_03
		police_03
		volunteer_army
		volunteer_women
		the_military
		intelligence_community
		oligarchs
	}

	# Starting tech
	set_technology = {
		legacy_doctrines = 1
		armoured_mass_assault = 1
		night_vision_1 = 1

		#For templates
		infantry_weapons = 1

		combat_eng_equipment = 1
		command_control_equipment = 1
		land_Drone_equipment = 1
		Anti_tank_0 = 1
		Heavy_Anti_tank_0 = 1
		artillery_0 = 1
		SP_arty_0 = 1
		SP_R_arty_0 = 1
		Anti_Air_0 = 1
		util_vehicle_0 = 1
		Rec_tank_0 = 1

		microprocessors = 1
		computing2 = 1
		decryption2 = 1
		encryption2 = 1
		computing3 = 1
		decryption3 = 1
		encryption3 = 1
		DNA_fingerprinting = 1

		internet2 = 1 	#2G
		gprs = 1
		internet3 = 1
		wifi = 1
	}

	set_popularities = {
		democratic = 0.0
		communism = 100.0
		fascism = 0.0
		neutrality = 0.0
		nationalist = 0.0
	}
	set_politics = {
		ruling_party = communism
		last_election = "2016.12.11"
		election_frequency = 60
		elections_allowed = no
	}

	start_politics_input = yes

	### Party Popularities
	set_variable = { party_pop_array^0 = 0 } #Western_Autocracy
	set_variable = { party_pop_array^1 = 0 } #conservatism
	set_variable = { party_pop_array^2 = 0 } #liberalism
	set_variable = { party_pop_array^3 = 0 } #socialism
	set_variable = { party_pop_array^4 = 0 } #Communist-State
	set_variable = { party_pop_array^5 = 0 } #anarchist_communism
	set_variable = { party_pop_array^6 = 0 } #Conservative
	set_variable = { party_pop_array^7 = 1.0 } #Autocracy
	set_variable = { party_pop_array^8 = 0 } #Mod_Vilayat_e_Faqih
	set_variable = { party_pop_array^9 = 0 } #Vilayat_e_Faqih
	set_variable = { party_pop_array^10 = 0 } #Kingdom
	set_variable = { party_pop_array^11 = 0 } #Caliphate
	set_variable = { party_pop_array^12 = 0 } #Neutral_Muslim_Brotherhood
	set_variable = { party_pop_array^13 = 0.0 } #Neutral_Autocracy
	set_variable = { party_pop_array^14 = 0 } #Neutral_conservatism
	set_variable = { party_pop_array^15 = 0 } #oligarchism
	set_variable = { party_pop_array^16 = 0 } #Neutral_Libertarian
	set_variable = { party_pop_array^17 = 0 } #Neutral_green
	set_variable = { party_pop_array^18 = 0 } #neutral_Social
	set_variable = { party_pop_array^19 = 0 } #Neutral_Communism
	set_variable = { party_pop_array^20 = 0 } #Nat_Populism
	set_variable = { party_pop_array^21 = 0 } #Nat_Fascism
	set_variable = { party_pop_array^22 = 0 } #Nat_Autocracy
	set_variable = { party_pop_array^23 = 0 } #Monarchist

	### Ruling Party
	add_to_array = { ruling_party = 7 }

	startup_politics = yes

	create_country_leader = {
		name = "Oleg Tsaryov"
		picture = "oleg_tsaryov.dds"
		ideology = Autocracy
		traits = {
			emerging_Autocracy
			career_politician
			guerrilla_leader
			pro_russia
			cautious
		}
	}

	retire_character = NOV_aleksey_mozgovoy
	retire_character = NOV_alexander_bednov
	retire_character = NOV_igor_bezler
	retire_character = NOV_arsen_pavlov
	retire_character = NOV_valery_bolotov
}