ignore_dockyard_states = {
	allowed = {
		OR = {
			original_tag = AFG
			original_tag = TAL
			original_tag = TAJ
		}
	}
	enable = {
		OR = {
			original_tag = AFG
			original_tag = TAL
		}
	}
	abort_when_not_enabled = yes

	# Bactria
	ai_strategy = {
		type = build_building
		id = dockyard
		target = 410
		value = -100
	}
	# Badakhshan
	ai_strategy = {
		type = build_building
		id = dockyard
		target = 411
		value = -100
	}
	# Tajik Bactria
	ai_strategy = {
		type = build_building
		id = dockyard
		target = 724
		value = -100
	}
}

AFG_NOR_put_all_units_to_fight_taliban = {
	allowed = { original_tag = AFG }

	enable = {
		original_tag = AFG
		has_war_with = TAL
		has_cosmetic_tag = AFG_NOR
		num_divisions < 10
	}

	abort_when_not_enabled = yes

	ai_strategy = {
		type = front_unit_request
		tag = TAL
		value = 200
	}
	ai_strategy = {
		type = garrison
		value = -200
	}
}

AFG_hates_taliban = {
	allowed = { original_tag = AFG }
	enable = {
		country_exists = TAL
	}
	abort_when_not_enabled = yes

	ai_strategy = { type = antagonize id = "TAL" value = 50 }
	ai_strategy = { type = contain id = "TAL" value = 50 }
}

AFG_claim_pashtunistan = {
	allowed = { original_tag = AFG }
	enable = {
		original_tag = AFG
		country_exists = PAK
		has_country_flag = AFG_claimed_pashtunistan
	}
	abort_when_not_enabled = yes

	ai_strategy = { type = antagonize id = "PAK" value = 50 }
}