##Written by Bird
SAF_intervene_in_CAR = {
	allowed = { original_tag = SAF }
	enable = {
		CAR = { has_war = yes }
	}
	abort = {
		has_war_with = CAR
	}

	ai_strategy = { type = befriend id = "CAR" value = 50 }
	ai_strategy = { type = protect id = "CAR" value = 50 }
	ai_strategy = { type = influence id = "CAR" value = 50 }
	ai_strategy = { type = send_volunteers_desire id = "CAR" value = 50 }
	ai_strategy = { type = support id = "CAR" value = 50 }
}

SAF_support_Kabila = {
	allowed = {
		original_tag = SAF
		has_start_date < 2001.1.1
	}
	enable = {
		NOT = { has_war_with = DRC }
		DRC = { has_country_leader = { name = "Laurent-Dsir Kabila" } }
	}
	abort = {
		OR = {
			has_war_with = DRC
			DRC = { NOT = { has_country_leader = { name = "Laurent-Dsir Kabila" } } }
		}
	}

	ai_strategy = { type = befriend id = "DRC" value = 50 }
}

SAF_befriend_BOT = {
	allowed = { original_tag = SAF }

	enable = {
		original_tag = SAF
		BOT = { has_completed_focus = BOT_saf_relations }
	}
	abort = {
		has_war_with = BOT
	}

	ai_strategy = { type = befriend id = "BOT" value = 50 }

}

SAF_protect_the_minors = {
	allowed = { original_tag = SAF }
	enable = {
		original_tag = SAF
	}
	abort_when_not_enabled = yes

	ai_strategy = { type = befriend id = "SWA" value = 50 }
	ai_strategy = { type = protect id = "SWA" value = 50 }
	ai_strategy = { type = influence id = "SWA" value = 50 }
	ai_strategy = { type = befriend id = "LES" value = 50 }
	ai_strategy = { type = protect id = "LES" value = 50 }
	ai_strategy = { type = influence id = "LES" value = 50 }
	ai_strategy = { type = befriend id = "MAD" value = 50 }
	ai_strategy = { type = protect id = "MAD" value = 50 }
	ai_strategy = { type = influence id = "MAD" value = 50 }
}