capital = 255

2000.1.1 = {
	if = {
		limit = { has_dlc = "No Step Back" }
		set_oob = "TNZ_2000_nsb"
		else = {
			set_oob = "TNZ_2000_nonnsb"
		}
	}

	if = {
		limit = { has_dlc = "By Blood Alone" }
		set_air_oob = "TNZ_2000_bba"
		else = {
			set_air_oob = "TNZ_2000_nonbba"
		}
	}


	set_cosmetic_tag = TNZ
	set_country_flag = dynamic_flag
	set_country_flag = dynamic_rebel_flag
	set_variable = { gdp_per_capita = 1.369 }
	add_opinion_modifier = { target = KEN modifier = swahili_speaking }
	reverse_add_opinion_modifier = { target = KEN modifier = swahili_speaking }
	add_opinion_modifier = { target = DRC modifier = swahili_speaking }
	reverse_add_opinion_modifier = { target = DRC modifier = swahili_speaking }

	set_technology = {
		integrated_transportation_system = 1
		post_conventional_rail = 1
		early_freight_locomotive = 1

		legacy_doctrines = 1
		infantry_mass_assault = 1
		infantry_weapons = 1

		command_control_equipment = 1

		land_Drone_equipment = 1

		Anti_tank_0 = 1

		Heavy_Anti_tank_0 = 1

		combat_eng_equipment = 1

		early_helicopter = 1

		SP_Anti_Air_0 = 1

		night_vision_1 = 1

		basic_computing = 1
		integrated_circuit = 1
		computing1 = 1
		decryption1 = 1
		encryption1 = 1
		radar = 1
		fuel_silos = 1
	}
	if = {
		limit = { has_dlc = "By Blood Alone" }

		set_technology = {
			early_airframe_designs = 1
			early_weapons = 1
		}
		else = {
			set_technology = {
				early_fighter = 1
				MR_Fighter1 = 1
			}
		}
	}
	if = {
		limit = { has_dlc = "No Step Back" }
		set_technology = {
			mbt_tech = 1
			afv_tech = 1
			nsb_artillery_0 = 1
			nsb_Arty_upgrade_1 = 1
			nsb_artillery_1 = 1
			nsb_SP_arty_1 = 1
			nsb_Anti_Air_0 = 1
			nsb_SP_Anti_Air_0 = 1
			light_tank_tech = 1
		}

		else = {
			set_technology = {
				Early_APC = 1
				APC_1 = 1
				MBT_1 = 1
				IFV_1 = 1
				SP_arty_0 = 1
				artillery_0 = 1
				Arty_upgrade_1 = 1
				artillery_1 = 1
				SP_R_arty_0 = 1
				Anti_Air_0 = 1
				SP_Anti_Air_0 = 1
				Rec_tank_0 = 1
			}
		}
	}
	if = {
		limit = {
			has_dlc = "By Blood Alone"
		}
		set_technology = {
			early_airframe_designs = 1
			gen_3_medium = 1

			air_weapons_1 = 1
			ag_weapons_1 = 1
			
			redundant_1 = 1
		}
		else = {
			set_technology = {
			early_fighter = 1
			MR_Fighter1 = 1
			}
		}
	}

	add_ideas = {
		rampant_corruption
		christian

		fast_growth
		defence_01
		edu_03
		health_01
		AU_member
		social_01
		bureau_03
		police_04
		volunteer_army
		volunteer_women
		USA_usaid
		commonwealth_of_nations_member
		farmers
		industrial_conglomerates
		small_medium_business_owners
		semi_consumption_economy
		officer_basic_training
	}

	#Influence system
	init_influence = yes
	set_variable = { domestic_influence_amount = 90 }
	add_to_array = { influence_array = RAJ.id }
	add_to_array = { influence_array_val = 30 }
	add_to_array = { influence_array = CHI.id }
	add_to_array = { influence_array_val = 28 }
	add_to_array = { influence_array = USA.id }
	add_to_array = { influence_array_val = 40 }
	add_to_array = { influence_array = ENG.id }
	add_to_array = { influence_array_val = 20 }
	add_to_array = { influence_array = KEN.id }
	add_to_array = { influence_array_val = 10 }
	add_to_array = { influence_array = UGA.id }
	add_to_array = { influence_array_val = 5 }
	startup_influence = yes

	### Economy
	set_variable = { var = debt value = 42 }
	set_variable = { var = treasury value = 1 }
	set_variable = { var = corporate_tax_rate value = 30 }
	set_variable = { var = population_tax_rate value = 30 }
	set_variable = { var = int_investments value = 0 }

	set_popularities = {
		democratic = 25.3
		communism = 9.4
		fascism = 0.0
		neutrality = 65.3
		nationalist = 0.0
	}
	set_politics = {
		ruling_party = neutrality
		last_election = "2000.1.1"
		election_frequency = 48
		elections_allowed = yes
	}

	start_politics_input = yes

	### Party Popularities
	set_variable = { party_pop_array^0 = 0 } #Western_Autocracy
	set_variable = { party_pop_array^1 = 0.044 } #conservatism
	set_variable = { party_pop_array^2 = 0.171 } #liberalism
	set_variable = { party_pop_array^3 = 0.038 } #socialism
	set_variable = { party_pop_array^4 = 0 } #Communist-State
	set_variable = { party_pop_array^5 = 0.094 } #anarchist_communism
	set_variable = { party_pop_array^6 = 0 } #Conservative
	set_variable = { party_pop_array^7 = 0 } #Autocracy
	set_variable = { party_pop_array^8 = 0 } #Mod_Vilayat_e_Faqih
	set_variable = { party_pop_array^9 = 0 } #Vilayat_e_Faqih
	set_variable = { party_pop_array^10 = 0 } #Kingdom
	set_variable = { party_pop_array^11 = 0 } #Caliphate
	set_variable = { party_pop_array^12 = 0 } #Neutral_Muslim_Brotherhood
	set_variable = { party_pop_array^13 = 0 } #Neutral_Autocracy
	set_variable = { party_pop_array^14 = 0 } #Neutral_conservatism
	set_variable = { party_pop_array^15 = 0 } #oligarchism
	set_variable = { party_pop_array^16 = 0 } #Neutral_Libertarian
	set_variable = { party_pop_array^17 = 0 } #Neutral_green
	set_variable = { party_pop_array^18 = 0.653 } #neutral_Social
	set_variable = { party_pop_array^19 = 0 } #Neutral_Communism
	set_variable = { party_pop_array^20 = 0 } #Nat_Populism
	set_variable = { party_pop_array^21 = 0 } #Nat_Fascism
	set_variable = { party_pop_array^22 = 0 } #Nat_Autocracy
	set_variable = { party_pop_array^23 = 0 } #Monarchist

	### Ruling Party
	add_to_array = { ruling_party = 18 }

	startup_politics = yes

	create_country_leader = {
		name = "Benjamin Mkapa"
		picture = "benjamin_mkapa.dds"
		ideology = neutral_Social
		traits = {
			neutrality_neutral_Social
		}
	}
	set_variable = { term_limit = 2 }
	set_variable = { current_term = 1 }

	recruit_character = TNZ_james_mwakibolwa
	recruit_character = TNZ_davis_mwamunyange
	recruit_character = TNZ_william_ingram

	add_to_array = { agri_crop_allocation = 0.575 } # Basic = 0
	add_to_array = { agri_crop_allocation = 0.425 } # Cash = 1

	add_to_array = { agri_crop_price = 15 } # Basic = 0
	add_to_array = { agri_crop_price = 25 } # Cash = 1

	set_variable = { literacy_rate = 0.694 }

	every_controlled_state = {
		set_variable = { productivity_state_var = 463 }
	}
	set_variable = { overall_productivity = 463 }

}

2017.1.1 = {
	capital = 255
	if = {
		limit = { has_dlc = "No Step Back" }
		set_oob = "TNZ_2000_nsb"
		else = {
			set_oob = "TNZ_2017_nonnsb"
		}
	}



	add_ideas = {

		rampant_corruption
		christian
		fast_growth
		defence_01
		edu_03
		health_01
		social_01
		bureau_03
		police_04
		volunteer_army
		volunteer_women
		USA_usaid #https://explorer.usaid.gov/aid-dashboard.html
		farmers
		industrial_conglomerates
		small_medium_business_owners
	}
	set_variable = { farmers_opinion = 40 }

	# Starting tech
	set_technology = {
		infantry_weapons = 1
		infantry_weapons1 = 1
		support_weapons = 1

		command_control_equipment = 1

		land_Drone_equipment = 1

		Anti_tank_0 = 1

		Heavy_Anti_tank_0 = 1

		Anti_Air_0 = 1

		combat_eng_equipment = 1

		Rec_tank_0 = 1

		SP_arty_0 = 1

		artillery_0 = 1
		Arty_upgrade_1 = 1
		artillery_1 = 1

		SP_R_arty_0 = 1

		early_helicopter = 1

		SP_Anti_Air_0 = 1

		early_fighter = 1
		MR_Fighter1 = 1

		night_vision_1 = 1

		microprocessors = 1
		computing2 = 1
		decryption2 = 1
		encryption2 = 1

		internet1 = 1
		internet2 = 1
	}

	### Economy
	set_variable = { var = debt value = 23 }
	set_variable = { var = treasury value = 4 }
	set_variable = { var = int_investments value = 0 }
	set_variable = { var = corporate_tax_rate value = 30 }
	set_variable = { var = population_tax_rate value = 30 }

	set_popularities = {
		democratic = 41.9
		communism = 2.2
		fascism = 0.0
		neutrality = 55.9
		nationalist = 0.0
	}
	set_politics = {
		ruling_party = neutrality
		last_election = "2015.10.25"
		election_frequency = 60
		elections_allowed = yes
	}

	start_politics_input = yes

	### Party Popularities
	set_variable = { party_pop_array^0 = 0 } #Western_Autocracy
	set_variable = { party_pop_array^1 = 0.318 } #conservatism
	set_variable = { party_pop_array^2 = 0.086 } #liberalism
	set_variable = { party_pop_array^3 = 0.015 } #socialism
	set_variable = { party_pop_array^4 = 0 } #Communist-State
	set_variable = { party_pop_array^5 = 0.022 } #anarchist_communism
	set_variable = { party_pop_array^6 = 0 } #Conservative
	set_variable = { party_pop_array^7 = 0 } #Autocracy
	set_variable = { party_pop_array^8 = 0 } #Mod_Vilayat_e_Faqih
	set_variable = { party_pop_array^9 = 0 } #Vilayat_e_Faqih
	set_variable = { party_pop_array^10 = 0 } #Kingdom
	set_variable = { party_pop_array^11 = 0 } #Caliphate
	set_variable = { party_pop_array^12 = 0 } #Neutral_Muslim_Brotherhood
	set_variable = { party_pop_array^13 = 0 } #Neutral_Autocracy
	set_variable = { party_pop_array^14 = 0 } #Neutral_conservatism
	set_variable = { party_pop_array^15 = 0 } #oligarchism
	set_variable = { party_pop_array^16 = 0 } #Neutral_Libertarian
	set_variable = { party_pop_array^17 = 0.001 } #Neutral_green
	set_variable = { party_pop_array^18 = 0.558 } #neutral_Social
	set_variable = { party_pop_array^19 = 0 } #Neutral_Communism
	set_variable = { party_pop_array^20 = 0 } #Nat_Populism
	set_variable = { party_pop_array^21 = 0 } #Nat_Fascism
	set_variable = { party_pop_array^22 = 0 } #Nat_Autocracy
	set_variable = { party_pop_array^23 = 0 } #Monarchist

	### Ruling Party
	add_to_array = { ruling_party = 18 }

	startup_politics = yes

	create_country_leader = {
		name = "John Magufuli"
		picture = "John_Magufuli.dds"
		ideology = neutral_Social
		traits = {
			neutrality_neutral_Social
		}
	}

	retire_character = TNZ_davis_mwamunyange
	recruit_character = TNZ_joseph_cosmas_chengelela

	add_to_array = { agri_crop_allocation = 0.769 } # Basic = 0
	add_to_array = { agri_crop_allocation = 0.231 } # Cash = 1

	add_to_array = { agri_crop_price = 35 } # Basic = 0
	add_to_array = { agri_crop_price = 25 } # Cash = 1

	set_variable = { literacy_rate = 0.779 }

}