# generic_main_battle_tanks = {
# 	category = land

# 	available_for = { FRA }

# 	roles = {
# 		land_modern_tank
# 	}

# 	priority = {
# 		factor = 200
# 		modifier = {
# 			num_of_factories < 15
# 			factor = 0
# 		}
# 	}

# 	# Leclerc
# 	cold_war_tank_default = {
# 		priority = {
# 			factor = 10
# 			modifier = {
# 				factor = 0
# 				has_tech = mbt_tech_3
# 			}
# 		}

# 		target_variant = {
# 			match_value = 1000
# 			type = mbt_hull_1
# 			modules = {
# 				main_armament_slot = {
# 					any_of = {
# 						tank_medium_cannon_3
# 						tank_medium_cannon_2
# 					}
# 				}
# 				turret_type_slot = tank_base_tank_turret
# 				suspension_type_slot = tank_torsion_bar_suspension
# 				armor_type_slot = {
# 					any_of = {
# 						tank_composite_armor_gen3
# 						tank_composite_armor_gen2
# 					}
# 				}
# 				engine_type_slot = {
# 					any_of = {
# 						tank_diesel_engine_gen5
# 						tank_diesel_engine_gen4
# 						tank_diesel_engine_gen3
# 					}
# 				}
# 				reload_type_slot = revolver_magazine
# 				special_type_slot_1 = additional_machine_guns
# 				special_type_slot_2 = {
# 					any_of = {
# 						smoke_launchers_2
# 						smoke_launchers
# 					}
# 				}
# 				special_type_slot_3 = tank_longer_gun
# 				special_type_slot_4 = {
# 					any_of = {
# 						tank_battlestation_4
# 						tank_battlestation_3
# 					}
# 				}
# 				special_type_slot_5 = spaced_armor_gen2
# 			}
# 			upgrades = {
# 				tank_nsb_armor_upgrade = 4
# 			}
# 		}

# 		allowed_modules = {
# 			tank_medium_cannon_3
# 			tank_medium_cannon_2
# 			tank_medium_cannon
# 			tank_small_medium_cannon_3
# 			tank_small_medium_cannon_2
# 			tank_small_medium_cannon
# 			tank_base_tank_turret
# 			tank_soviet_turret
# 			tank_no_turret
# 			tank_oscillating_turret
# 			tank_composite_armor_gen4
# 			tank_composite_armor_gen3
# 			tank_composite_armor_gen2
# 			tank_composite_armor_gen1
# 			manual_loading
# 			automatic_loading
# 			revolver_magazine
# 			smoke_launchers_2
# 			smoke_launchers
# 			tank_battlestation_4
# 			tank_battlestation_3
# 			tank_battlestation_2
# 			tank_battlestation_1
# 			reactive_armor_gen4
# 			reactive_armor_gen3
# 			reactive_armor_gen2
# 			reactive_armor_gen1
# 			spaced_armor_gen2
# 			spaced_armor_gen1
# 			additional_machine_guns
# 			tank_diesel_engine_gen7
# 			tank_diesel_engine_gen6
# 			tank_diesel_engine_gen5
# 			tank_diesel_engine_gen4
# 			tank_gas_turbine_engine_gen6
# 			tank_gas_turbine_engine_gen5
# 			tank_gas_turbine_engine_gen4
# 			tank_gas_turbine_engine_gen3
# 			wet_ammo_storage
# 			tank_longer_gun
# 		}
# 	}

# 	post_cold_war_tank_default = {
# 		priority = {
# 			# no replacement for Leclerc
# 			factor = 0
# 		}

# 		target_variant = {
# 			match_value = 1000
# 			type = mbt_hull_2
# 			modules = {
# 				main_armament_slot = tank_medium_cannon_3
# 				turret_type_slot = tank_base_tank_turret
# 				suspension_type_slot = tank_torsion_bar_suspension
# 				armor_type_slot = tank_composite_armor_gen3
# 				engine_type_slot = tank_diesel_engine_gen5
# 				reload_type_slot = manual_loading
# 				special_type_slot_1 = additional_machine_guns
# 				special_type_slot_2 = smoke_launchers_2
# 				special_type_slot_3 = spaced_armor_gen2
# 				special_type_slot_4 = tank_battlestation_3
# 				special_type_slot_5 = empty
# 			}
# 			upgrades = {
# 				tank_nsb_armor_upgrade = 6
# 			}
# 		}

# 		allowed_modules = {
# 			tank_large_cannon_2
# 			tank_large_cannon
# 			tank_medium_cannon_3
# 			tank_medium_cannon_2
# 			tank_medium_cannon
# 			tank_small_medium_cannon_3
# 			tank_small_medium_cannon_2
# 			tank_small_medium_cannon
# 			tank_base_tank_turret
# 			tank_soviet_turret
# 			tank_no_turret
# 			tank_oscillating_turret
# 			tank_composite_armor_gen4
# 			tank_composite_armor_gen3
# 			tank_composite_armor_gen2
# 			tank_composite_armor_gen1
# 			manual_loading
# 			automatic_loading
# 			smoke_launchers_2
# 			smoke_launchers
# 			tank_battlestation_4
# 			tank_battlestation_3
# 			tank_battlestation_2
# 			tank_battlestation_1
# 			reactive_armor_gen4
# 			reactive_armor_gen3
# 			reactive_armor_gen2
# 			reactive_armor_gen1
# 			spaced_armor_gen2
# 			spaced_armor_gen1
# 			additional_machine_guns
# 			wet_ammo_storage
# 		}
# 	}

# 	modern_tank_default = {
# 		priority = {
# 			factor = 10
# 			modifier = {
# 				factor = 0
# 				has_tech = mbt_tech_4
# 			}
# 		}

# 		target_variant = {
# 			match_value = 1000
# 			type = mbt_hull_3
# 			modules = {
# 				main_armament_slot = {
# 					any_of = {
# 						tank_large_cannon_2
# 						tank_large_cannon
# 						tank_medium_cannon_3
# 					}
# 				}
# 				turret_type_slot = tank_unmanned_turret
# 				suspension_type_slot = tank_torsion_bar_suspension
# 				armor_type_slot = {
# 					any_of = {
# 						tank_composite_armor_gen4
# 						tank_composite_armor_gen3
# 					}
# 				}
# 				engine_type_slot = {
# 					any_of = {
# 						tank_diesel_engine_gen7
# 						tank_diesel_engine_gen6
# 						tank_diesel_engine_gen5
# 					}
# 				}
# 				reload_type_slot = automatic_loading
# 				special_type_slot_1 = additional_machine_guns
# 				special_type_slot_2 = smoke_launchers_2
# 				special_type_slot_3 = {
# 					any_of = {
# 						tank_drones_2
# 						tank_drones
# 						hardkill_system_gen1
# 						spaced_armor_gen2
# 						wet_ammo_storage
# 					}
# 				}
# 				special_type_slot_4 = {
# 					any_of = {
# 						tank_battlestation_4
# 						tank_battlestation_3
# 					}
# 				}
# 				special_type_slot_5 = {
# 					any_of = {
# 						reactive_armor_gen4
# 						reactive_armor_gen3
# 					}
# 				}
# 			}
# 			upgrades = {
# 				tank_nsb_armor_upgrade = 5
# 			}
# 		}

# 		allowed_modules = {
# 			tank_very_large_cannon_2
# 			tank_very_large_cannon
# 			tank_large_cannon_2
# 			tank_large_cannon
# 			tank_medium_cannon_3
# 			tank_medium_cannon_2
# 			tank_medium_cannon
# 			tank_small_medium_cannon_3
# 			tank_small_medium_cannon_2
# 			tank_small_medium_cannon
# 			tank_base_tank_turret
# 			tank_soviet_turret
# 			tank_no_turret
# 			tank_oscillating_turret
# 			tank_unmanned_turret
# 			tank_composite_armor_gen4
# 			tank_composite_armor_gen3
# 			tank_composite_armor_gen2
# 			tank_composite_armor_gen1
# 			manual_loading
# 			automatic_loading
# 			smoke_launchers_2
# 			smoke_launchers
# 			tank_battlestation_4
# 			tank_battlestation_3
# 			tank_battlestation_2
# 			tank_battlestation_1
# 			reactive_armor_gen4
# 			reactive_armor_gen3
# 			reactive_armor_gen2
# 			reactive_armor_gen1
# 			spaced_armor_gen2
# 			spaced_armor_gen1
# 			additional_machine_guns
# 			smoothbore_atgm_gen5
# 			smoothbore_atgm_gen4
# 			smoothbore_atgm_gen3
# 			smoothbore_atgm_gen2
# 			smoothbore_atgm_gen1
# 			hardkill_system_gen2
# 			hardkill_system_gen1
# 			tank_diesel_engine_gen7
# 			tank_diesel_engine_gen6
# 			tank_diesel_engine_gen5
# 			tank_diesel_engine_gen4
# 			tank_gas_turbine_engine_gen6
# 			tank_gas_turbine_engine_gen5
# 			tank_gas_turbine_engine_gen4
# 			tank_gas_turbine_engine_gen3
# 			wet_ammo_storage
# 			tank_drones_2
# 			tank_drones
# 		}
# 	}

# 	future_tank_default = {
# 		priority = {
# 			factor = 10
# 		}

# 		target_variant = {
# 			match_value = 1000
# 			type = mbt_hull_4
# 			modules = {
# 				main_armament_slot = tank_very_large_cannon_2
# 				turret_type_slot = tank_unmanned_turret
# 				suspension_type_slot = tank_torsion_bar_suspension
# 				armor_type_slot = tank_composite_armor_gen4
# 				engine_type_slot = {
# 					any_of = {
# 						tank_gas_turbine_engine_gen6
# 						tank_gas_turbine_engine_gen5
# 						tank_diesel_engine_gen7
# 						tank_diesel_engine_gen6
# 					}
# 				}
# 				reload_type_slot = automatic_loading
# 				special_type_slot_1 = smoke_launchers_2
# 				special_type_slot_2 = tank_drones_2
# 				special_type_slot_3 = hardkill_system_gen2
# 				special_type_slot_4 = tank_battlestation_4
# 				special_type_slot_5 = reactive_armor_gen4
# 			}
# 			upgrades = {
# 				tank_nsb_armor_upgrade = 4
# 			}
# 		}

# 		allowed_modules = {
# 			tank_very_large_cannon_2
# 			tank_very_large_cannon
# 			tank_large_cannon_2
# 			tank_large_cannon
# 			tank_medium_cannon_3
# 			tank_medium_cannon_2
# 			tank_medium_cannon
# 			tank_small_medium_cannon_3
# 			tank_small_medium_cannon_2
# 			tank_small_medium_cannon
# 			tank_base_tank_turret
# 			tank_soviet_turret
# 			tank_no_turret
# 			tank_oscillating_turret
# 			tank_unmanned_turret
# 			tank_composite_armor_gen4
# 			tank_composite_armor_gen3
# 			tank_composite_armor_gen2
# 			tank_composite_armor_gen1
# 			manual_loading
# 			automatic_loading
# 			smoke_launchers_2
# 			smoke_launchers
# 			tank_battlestation_4
# 			tank_battlestation_3
# 			tank_battlestation_2
# 			tank_battlestation_1
# 			reactive_armor_gen4
# 			reactive_armor_gen3
# 			reactive_armor_gen2
# 			reactive_armor_gen1
# 			spaced_armor_gen2
# 			spaced_armor_gen1
# 			additional_machine_guns
# 			smoothbore_atgm_gen5
# 			smoothbore_atgm_gen4
# 			smoothbore_atgm_gen3
# 			smoothbore_atgm_gen2
# 			smoothbore_atgm_gen1
# 			hardkill_system_gen2
# 			hardkill_system_gen1
# 			tank_diesel_engine_gen7
# 			tank_diesel_engine_gen6
# 			tank_diesel_engine_gen5
# 			tank_diesel_engine_gen4
# 			tank_gas_turbine_engine_gen6
# 			tank_gas_turbine_engine_gen5
# 			tank_gas_turbine_engine_gen4
# 			tank_gas_turbine_engine_gen3
# 			tank_electric_engine_gen2
# 			tank_electric_engine_gen1
# 			wet_ammo_storage
# 			tank_drones_2
# 			tank_drones
# 		}
# 	}
# }