oilDeliveryCuts = {
    while_loop_effect = {
        limit = {
            check_variable = {
                currentAvailableoilExport < 0
            }
        }
        for_each_scope_loop = {
            array = Oil_Export_List
            if = {
                limit = {
                    check_variable = { ROOT.currentAvailableoilExport < 0 }
                    check_variable = { ROOT.oilExportTargetAmount^THIS > 0 }
                }
				ROOT = {
					add_political_power = 100
				}
                subtract_from_variable = {
                    ROOT.currentExportedoil = 1
                }
                set_variable = {
                    priorExportTotal = ROOT.oilExportTargetMonthly^THIS
                }
                set_variable = {
                    priorExportCash = ROOT.oilExportTargetAmount^THIS
                }
                divide_variable = {
                    priorExportTotal = priorExportCash
                }
                add_to_variable = {
                    ROOT.currentAvailableoilExport = 1
                }
                add_to_variable = {
                    trade_infrastructure_total_available = 1
                }
                subtract_from_variable = {
                    trade_infrastructure_total_used = 1
                }
                subtract_from_variable = { oilImports = 1 }
                set_variable = { modifiedOilImports = oilImports}
                set_variable = {resource_division = 1}
		        add_to_variable = {resource_division = modifier@local_resources_factor}
                divide_variable = { modifiedOilImports = resource_division }
                subtract_from_variable = {
                    ROOT.oilExportTargetAmount^THIS = 1
                }
                add_to_variable = {
                    oilImportTargetAmount^ROOT = -1
                }

                ###NEED CALCS
                subtract_from_variable = {
                    ROOT.oilExportTargetMonthly^THIS = priorExportTotal
                }
                subtract_from_variable = {
                    oilImportTargetMonthly^ROOT = priorExportTotal
                }
            }
        }
    }
}
steelDeliveryCuts = {
    while_loop_effect = {
        limit = {
            check_variable = {
                currentAvailablesteelExport < 0
            }
        }
        for_each_scope_loop = {
            array = steel_Export_List
            if = {
                limit = {
                    check_variable = { ROOT.currentAvailablesteelExport < 0 }
                    check_variable = { ROOT.steelExportTargetAmount^THIS > 0 }
                }
				ROOT = {
					add_political_power = 100
				}
                subtract_from_variable = {
                    ROOT.currentExportedsteel = 1
                }
                set_variable = {
                    priorExportTotal = ROOT.steelExportTargetMonthly^THIS
                }
                set_variable = {
                    priorExportCash = ROOT.steelExportTargetAmount^THIS
                }
                divide_variable = {
                    priorExportTotal = priorExportCash
                }
                add_to_variable = {
                    ROOT.currentAvailablesteelExport = 1
                }
                add_to_variable = {
                    trade_infrastructure_total_available = 1
                }
                subtract_from_variable = {
                    trade_infrastructure_total_used = 1
                }
                subtract_from_variable = { steelImports = 1 }
                set_variable = { modifiedSteelImports = steelImports}
                set_variable = {resource_division = 1}
	            add_to_variable = {resource_division = modifier@local_resources_factor}
                divide_variable = { modifiedSteelImports = resource_division }
                subtract_from_variable = {
                    ROOT.steelExportTargetAmount^THIS = 1
                }
                add_to_variable = {
                    steelImportTargetAmount^ROOT = -1
                }

                ###NEED CALCS
                subtract_from_variable = {
                    ROOT.steelExportTargetMonthly^THIS = priorExportTotal
                }
                subtract_from_variable = {
                    steelImportTargetMonthly^ROOT = priorExportTotal
                }
            }
        }
    }
}
rareEarthDeliveryCuts = {
    while_loop_effect = {
        limit = {
            check_variable = {
                currentAvailablerareEarthExport < 0
            }
        }
        for_each_scope_loop = {
            array = rareEarth_Export_List
            if = {
                limit = {
                    check_variable = { ROOT.currentAvailablerareEarthExport < 0 }
                    check_variable = { ROOT.rareEarthExportTargetAmount^THIS > 0 }
                }
				ROOT = {
					add_political_power = 100
				}
                subtract_from_variable = {
                    ROOT.currentExportedrareEarth = 1
                }
                set_variable = {
                    priorExportTotal = ROOT.rareEarthExportTargetMonthly^THIS
                }
                set_variable = {
                    priorExportCash = ROOT.rareEarthExportTargetAmount^THIS
                }
                divide_variable = {
                    priorExportTotal = priorExportCash
                }
                add_to_variable = {
                    ROOT.currentAvailablerareEarthExport = 1
                }
                add_to_variable = {
                    trade_infrastructure_total_available = 1
                }
                subtract_from_variable = {
                    trade_infrastructure_total_used = 1
                }
                subtract_from_variable = { rareEarthImports = 1 }
                set_variable = { modifiedRareEarthImports = rareEarthImports}
                set_variable = {resource_division = 1}
                add_to_variable = {resource_division = modifier@local_resources_factor}
                divide_variable = { modifiedRareEarthImports = resource_division }
                subtract_from_variable = {
                    ROOT.rareEarthExportTargetAmount^THIS = 1
                }
                add_to_variable = {
                    rareEarthImportTargetAmount^ROOT = -1
                }

                ###NEED CALCS
                subtract_from_variable = {
                    ROOT.rareEarthExportTargetMonthly^THIS = priorExportTotal
                }
                subtract_from_variable = {
                    rareEarthImportTargetMonthly^ROOT = priorExportTotal
                }
            }
        }
    }
}
aluminiumDeliveryCuts = {
    while_loop_effect = {
        limit = {
            check_variable = {
                currentAvailablealuminiumExport < 0
            }
        }
        for_each_scope_loop = {
            array = aluminium_Export_List
            if = {
                limit = {
                    check_variable = { ROOT.currentAvailablealuminiumExport < 0 }
                    check_variable = { ROOT.aluminiumExportTargetAmount^THIS > 0 }
                }
				ROOT = {
					add_political_power = 100
				}
                subtract_from_variable = {
                    ROOT.currentExportedaluminium = 1
                }
                set_variable = {
                    priorExportTotal = ROOT.aluminiumExportTargetMonthly^THIS
                }
                set_variable = {
                    priorExportCash = ROOT.aluminiumExportTargetAmount^THIS
                }
                divide_variable = {
                    priorExportTotal = priorExportCash
                }
                add_to_variable = {
                    ROOT.currentAvailablealuminiumExport = 1
                }
                add_to_variable = {
                    trade_infrastructure_total_available = 1
                }
                subtract_from_variable = {
                    trade_infrastructure_total_used = 1
                }
                subtract_from_variable = { aluminiumImports = 1 }
                set_variable = { modifiedAluminiumImports = aluminiumImports}
                set_variable = {resource_division = 1}
		        add_to_variable = {resource_division = modifier@local_resources_factor}
                divide_variable = { modifiedAluminiumImports = resource_division }
                subtract_from_variable = {
                    ROOT.aluminiumExportTargetAmount^THIS = 1
                }
                add_to_variable = {
                    aluminiumImportTargetAmount^ROOT = -1
                }

                ###NEED CALCS
                subtract_from_variable = {
                    ROOT.aluminiumExportTargetMonthly^THIS = priorExportTotal
                }
                subtract_from_variable = {
                    aluminiumImportTargetMonthly^ROOT = priorExportTotal
                }
            }
        }
    }
}
chromiumDeliveryCuts = {
    while_loop_effect = {
        limit = {
            check_variable = {
                currentAvailableChromiumExport < 0
            }
        }
        for_each_scope_loop = {
            array = Oil_Export_List
            if = {
                limit = {
                    check_variable = { ROOT.currentAvailableChromiumExport < 0 }
                    check_variable = { ROOT.chromiumExportTargetAmount^THIS > 0 }
                }
				ROOT = {
					add_political_power = 100
				}
                subtract_from_variable = {
                    ROOT.currentExportedChromium = 1
                }
                set_variable = {
                    priorExportTotal = ROOT.chromiumExportTargetMonthly^THIS
                }
                set_variable = {
                    priorExportCash = ROOT.chromiumExportTargetAmount^THIS
                }
                divide_variable = {
                    priorExportTotal = priorExportCash
                }
                add_to_variable = {
                    ROOT.currentAvailableChromiumExport = 1
                }
                add_to_variable = {
                    trade_infrastructure_total_available = 1
                }
                subtract_from_variable = {
                    trade_infrastructure_total_used = 1
                }
                subtract_from_variable = { nuclearImports = 1 }
                set_variable = { modifiedNuclearImports = nuclearImports}
                set_variable = {resource_division = 1}
		        add_to_variable = {resource_division = modifier@local_resources_factor}
                divide_variable = { modifiedNuclearImports = resource_division }
                subtract_from_variable = {
                    ROOT.chromiumExportTargetAmount^THIS = 1
                }
                add_to_variable = {
                    chromiumImportTargetAmount^ROOT = -1
                }

                ###NEED CALCS
                subtract_from_variable = {
                    ROOT.chromiumExportTargetMonthly^THIS = priorExportTotal
                }
                subtract_from_variable = {
                    chromiumImportTargetMonthly^ROOT = priorExportTotal
                }
            }
        }
    }
}
foodDeliveryCuts = {
    while_loop_effect = {
        limit = {
            check_variable = {
                currentAvailablefoodExport < 0
            }
        }
        for_each_scope_loop = {
            array = food_Export_List
            if = {
                limit = {
                    check_variable = { ROOT.currentAvailablefoodExport < 0 }
                    check_variable = { ROOT.foodExportTargetAmount^THIS > 0 }
                }
				ROOT = {
					add_political_power = 100
				}
                subtract_from_variable = {
                    ROOT.currentExportedfood = 1
                }
                set_variable = {
                    priorExportTotal = ROOT.foodExportTargetMonthly^THIS
                }
                set_variable = {
                    priorExportCash = ROOT.foodExportTargetAmount^THIS
                }
                divide_variable = {
                    priorExportTotal = priorExportCash
                }
                add_to_variable = {
                    ROOT.currentAvailablefoodExport = 1
                }
                add_to_variable = {
                    trade_infrastructure_total_available = 1
                }
                subtract_from_variable = {
                    trade_infrastructure_total_used = 1
                }
                subtract_from_variable = { foodImports = 1 }
                set_variable = { modifiedFoodImports = foodImports}
                set_variable = {resource_division = 1}
		        add_to_variable = {resource_division = modifier@local_resources_factor}
                divide_variable = { modifiedFoodImports = resource_division }
                subtract_from_variable = {
                    ROOT.foodExportTargetAmount^THIS = 1
                }
                add_to_variable = {
                    foodImportTargetAmount^ROOT = -1
                }

                ###NEED CALCS
                subtract_from_variable = {
                    ROOT.foodExportTargetMonthly^THIS = priorExportTotal
                }
                subtract_from_variable = {
                    foodImportTargetMonthly^ROOT = priorExportTotal
                }
            }
        }
    }
}
