ideas = {
	religion = {
		law = yes
		use_list_view = yes

		sunni = {
			allowed_civil_war = { always = yes }
			available = { always = no }
			picture = sunni_idea
			modifier = {
				fascism_acceptance = 15
			}
			cancel_if_invalid = no
		}

		shia = {
			allowed_civil_war = { always = yes }
			available = { always = no }
			picture = shia_idea
			modifier = {
				democratic_acceptance = -10
				fascism_acceptance = -10
				fascism_drift = -0.05
			}
			cancel_if_invalid = no
		}

		sufi_islam = {
			allowed_civil_war = { always = yes }
			available = { always = no }
			picture = sufi_islam
			modifier = {
				maximum_radicalization_modifier = -10
				maximum_terror_threat_modifier = -10
				democratic_acceptance = -5
				fascism_acceptance = -10
				fascism_drift = -0.02
			}
			cancel_if_invalid = no
		}

		ibadi = {
			allowed_civil_war = { always = yes }
			available = { always = no }
			picture = ibadi_idea

			modifier = {
				maximum_radicalization_modifier = -10
				maximum_terror_threat_modifier = -10
				communism_acceptance = 5
				democratic_acceptance = 5
				fascism_acceptance = 5
				fascism_drift = -0.02
				neutrality_drift = 0.02
			}
			cancel_if_invalid = no
		}

		christian = {
			allowed_civil_war = { always = yes }
			available = { always = no }
			picture = christian_idea

			modifier = {
				fascism_acceptance = -10
				fascism_drift = -0.05
			}
			cancel_if_invalid = no
		}
		orthodox_christian = {
			allowed_civil_war = { always = yes }
			available = { always = no }
			picture = orthodox_christian_idea
			modifier = {
				fascism_acceptance = -10
				fascism_drift = -0.05
				communism_drift = 0.02 ###Would lead to greece, Ukraine, Romania enivatbly going emerging? Logical? Discuss###
			}
			cancel_if_invalid = no
		}

		pluralist = {
			allowed_civil_war = { always = yes }
			available = { always = no }
			picture = pluralist_religion_idea

			modifier = {
				stability_factor = 0.02
				fascism_acceptance = -10
				fascism_drift = -0.05
			}
			cancel_if_invalid = no
		}
		buddism = {
			allowed_civil_war = { always = yes }
			available = { always = no }
			picture = buddism_idea

			modifier = {
				fascism_acceptance = -10
				fascism_drift = -0.05
			}
			cancel_if_invalid = no
		}
		hindu = {
			allowed_civil_war = { always = yes }
			available = { always = no }
			picture = hindu_idea

			modifier = {
				fascism_acceptance = -10
				fascism_drift = -0.05
			}
			cancel_if_invalid = no
		}
		judaism = {
			allowed_civil_war = { always = yes }
			available = { always = no }
			picture = judaism_idea

			modifier = {
				fascism_acceptance = -10
				democratic_acceptance = 10
				fascism_drift = -0.05
			}
			cancel_if_invalid = no
		}
		shinto = {
			allowed_civil_war = { always = yes }
			available = { always = no }
			picture = shinto_idea

			modifier = {
				fascism_acceptance = -10
				democratic_acceptance = 10
				fascism_drift = -0.05
			}
			cancel_if_invalid = no
		}
		cheondo = {
			allowed_civil_war = { always = yes }
			available = { always = no }
			picture = cheondo_idea

			modifier = {
				fascism_acceptance = -10
				democratic_acceptance = -10
				fascism_drift = -0.05
			}
			cancel_if_invalid = no
		}
		uniate_church = {
			allowed_civil_war = { always = yes }
			available = { always = no }
			picture = uniate_idea

			modifier = {
				fascism_acceptance = -20
				fascism_drift = -0.08
				democratic_acceptance = 5
				communism_acceptance = -5
				communism_drift = -0.01
				democratic_drift = 0.01
			}
			cancel_if_invalid = no
		}
		zoroastrian = {
			allowed_civil_war = { always = yes }
			available = { always = no }
			picture = zoroastrianism_idea

			modifier = {
				fascism_acceptance = -20
				nationalist_acceptance = 10
				nationalist_drift = 0.05
				fascism_drift = -0.10
			}
			cancel_if_invalid = no
		}


		# Country Specific Religious Ideas
		assianism = {
			allowed = { tag = SOO }
			allowed_civil_war = { always = yes }
			available = { always = no }
			picture = assianism_idea

			modifier = {
				fascism_acceptance = -20
				nationalist_acceptance = 10
				nationalist_drift = 0.05
				fascism_drift = -0.10
			}
			cancel_if_invalid = no
		}
		fifty_fifty_divide = {
			allowed = { tag = NIG }
			allowed_civil_war = { always = yes }
			available = { always = no }
			picture = fifty_fifty_religious_divide

			modifier = {
				fascism_acceptance = 10
				neutrality_drift = 0.10
				democratic_acceptance = 10
			}
			cancel_if_invalid = no
		}
		#Islamic Majority
		NIG_islamic_majority_10_idea = {
			picture = sunni_idea
			allowed = { tag = NIG }
			allowed_civil_war = { always = yes }
			available = { always = no }

			modifier = {
				fascism_acceptance = 100
				fascism_drift = 0.20
				political_power_factor = 0.25
				war_support_factor = 0.175
				stability_factor = -0.15
				non_core_manpower = 0.20
				no_supply_grace = 48
				democratic_acceptance = -100
			}
		}
		NIG_islamic_majority_9_idea = {
			picture = sunni_idea
			allowed = { tag = NIG }
			allowed_civil_war = { always = yes }
			available = { always = no }

			modifier = {
				fascism_acceptance = 90
				fascism_drift = 0.15
				political_power_factor = 0.225
				war_support_factor = 0.125
				stability_factor = -0.125
				non_core_manpower = 0.18
				democratic_acceptance = -90
			}
		}
		NIG_islamic_majority_8_idea = {
			picture = sunni_idea
			allowed = { tag = NIG }
			allowed_civil_war = { always = yes }
			available = { always = no }

			modifier = {
				fascism_acceptance = 80
				fascism_drift = 0.125
				political_power_factor = 0.20
				war_support_factor = 0.10
				stability_factor = -0.10
				non_core_manpower = 0.16
				democratic_acceptance = -80
			}
		}
		NIG_islamic_majority_7_idea = {
			picture = sunni_idea
			allowed = { tag = NIG }
			allowed_civil_war = { always = yes }
			available = { always = no }

			modifier = {
				fascism_acceptance = 70
				fascism_drift = 0.10
				political_power_factor = 0.175
				war_support_factor = 0.075
				stability_factor = -0.075
				non_core_manpower = 0.14
				democratic_acceptance = -70
			}
		}
		NIG_islamic_majority_6_idea = {
			picture = sunni_idea
			allowed = { tag = NIG }
			allowed_civil_war = { always = yes }
			available = { always = no }

			modifier = {
				fascism_acceptance = 60
				fascism_drift = 0.075
				political_power_factor = 0.15
				war_support_factor = 0.05
				stability_factor = -0.05
				non_core_manpower = 0.12
				democratic_acceptance = -60
			}
		}
		NIG_islamic_majority_5_idea = {
			picture = sunni_idea
			allowed = { tag = NIG }
			allowed_civil_war = { always = yes }
			available = { always = no }

			modifier = {
				fascism_acceptance = 50
				fascism_drift = 0.05
				political_power_factor = 0.125
				war_support_factor = 0.025
				stability_factor = -0.025
				non_core_manpower = 0.10
				democratic_acceptance = -50
			}
		}
		NIG_islamic_majority_4_idea = {
			picture = sunni_idea
			allowed = { tag = NIG }
			allowed_civil_war = { always = yes }
			available = { always = no }

			modifier = {
				fascism_acceptance = 40
				fascism_drift = 0.025
				political_power_factor = 0.10
				non_core_manpower = 0.075
				democratic_acceptance = -40
			}
		}
		NIG_islamic_majority_3_idea = {
			picture = sunni_idea
			allowed = { tag = NIG }
			allowed_civil_war = { always = yes }
			available = { always = no }
			modifier = {
				fascism_acceptance = 30
				fascism_drift = 0.025
				neutrality_drift = 0.025
				political_power_factor = 0.10
				non_core_manpower = 0.05
				democratic_acceptance = -30
			}
		}
		NIG_islamic_majority_2_idea = {
			picture = sunni_idea
			allowed = { tag = NIG }
			allowed_civil_war = { always = yes }
			available = { always = no }

			modifier = {
				fascism_acceptance = 20
				fascism_drift = 0.025
				neutrality_drift = 0.05
				political_power_factor = 0.05
				non_core_manpower = 0.025
				democratic_acceptance = -20
			}
		}
		NIG_islamic_majority_1_idea = {
			picture = sunni_idea
			allowed = { tag = NIG }
			allowed_civil_war = { always = yes }
			available = { always = no }

			modifier = {
				fascism_acceptance = 10
				fascism_drift = 0.025
				neutrality_drift = 0.075
				democratic_acceptance = -10
			}
		}

		#Christian Majority
		NIG_christian_majority_10_idea = {
			picture = christian_idea
			allowed = { tag = NIG }
			allowed_civil_war = { always = yes }
			available = { always = no }
			modifier = {
				fascism_acceptance = -100
				democratic_acceptance = 100
				political_power_factor = 0.25
				war_support_factor = -0.15
				stability_factor = 0.175
				consumer_goods_factor = -0.10
			}
		}
		NIG_christian_majority_9_idea = {
			picture = christian_idea
			allowed = { tag = NIG }
			allowed_civil_war = { always = yes }
			available = { always = no }
			modifier = {
				fascism_acceptance = -90
				democratic_acceptance = 90
				political_power_factor = 0.225
				war_support_factor = -0.125
				stability_factor = 0.15
				consumer_goods_factor = -0.09
			}
		}
		NIG_christian_majority_8_idea = {
			picture = christian_idea
			allowed = { tag = NIG }
			allowed_civil_war = { always = yes }
			available = { always = no }
			modifier = {
				fascism_acceptance = -80
				democratic_acceptance = 80
				political_power_factor = 0.20
				war_support_factor = -0.10
				stability_factor = 0.125
				consumer_goods_factor = -0.08
			}
		}
		NIG_christian_majority_7_idea = {
			picture = christian_idea
			allowed = { tag = NIG }
			allowed_civil_war = { always = yes }
			available = { always = no }
			modifier = {
				fascism_acceptance = -70
				democratic_acceptance = 70
				political_power_factor = 0.175
				war_support_factor = -0.075
				stability_factor = 0.10
				consumer_goods_factor = -0.07
			}
		}
		NIG_christian_majority_6_idea = {
			picture = christian_idea
			allowed = { tag = NIG }
			allowed_civil_war = { always = yes }
			available = { always = no }
			modifier = {
				fascism_acceptance = -60
				democratic_acceptance = 60
				political_power_factor = 0.15
				war_support_factor = -0.05
				stability_factor = 0.075
				consumer_goods_factor = -0.06
			}
		}
		NIG_christian_majority_5_idea = {
			picture = christian_idea
			allowed = { tag = NIG }
			allowed_civil_war = { always = yes }
			available = { always = no }
			modifier = {
				fascism_acceptance = -50
				democratic_acceptance = 50
				political_power_factor = 0.125
				war_support_factor = -0.025
				stability_factor = 0.05
				consumer_goods_factor = -0.05
			}
		}
		NIG_christian_majority_4_idea = {
			picture = christian_idea
			allowed = { tag = NIG }
			allowed_civil_war = { always = yes }
			available = { always = no }
			modifier = {
				fascism_acceptance = -40
				democratic_acceptance = 40
				political_power_factor = 0.10
				stability_factor = 0.025
				consumer_goods_factor = -0.04
			}
		}
		NIG_christian_majority_3_idea = {
			picture = christian_idea
			allowed = { tag = NIG }
			allowed_civil_war = { always = yes }
			available = { always = no }
			modifier = {
				fascism_acceptance = -30
				democratic_acceptance = 30
				political_power_factor = 0.075
				neutrality_drift = 0.025
				consumer_goods_factor = -0.03
			}
		}
		NIG_christian_majority_2_idea = {
			picture = christian_idea
			allowed = { tag = NIG }
			allowed_civil_war = { always = yes }
			available = { always = no }
			modifier = {
				fascism_acceptance = -20
				democratic_acceptance = 20
				political_power_factor = 0.05
				neutrality_drift = 0.05
				consumer_goods_factor = -0.02
			}
		}
		NIG_christian_majority_1_idea = {
			picture = christian_idea
			allowed = { tag = NIG }
			allowed_civil_war = { always = yes }
			available = { always = no }
			modifier = {
				fascism_acceptance = -10
				democratic_acceptance = 10
				political_power_factor = 0.025
				neutrality_drift = 0.075
				consumer_goods_factor = -0.01
			}
		}
		NIG_nigerian_secularism_idea = {
			allowed = { tag = NIG }
			allowed_civil_war = { always = yes }
			available = { always = no }
			picture = flexible_foreign_policy2
			modifier = {
				stability_factor = 0.05
				fascism_acceptance = -15
				fascism_drift = -0.05
				political_power_factor = 0.15
			}
		}
		NIG_nigerian_land_of_harmony_idea = {
			allowed = { tag = NIG }
			allowed_civil_war = { always = yes }
			available = { always = no }
			picture = flexible_foreign_policy2
			modifier = {
				stability_factor = 0.075
				fascism_acceptance = -20
				fascism_drift = -0.075
				political_power_factor = 0.20
			}
		}
		eastern_church_arm = {
			allowed = { always = no }
			allowed_civil_war = { always = yes }
			picture = eastern_church_arm
			modifier = {
				democratic_acceptance = 5
				communism_acceptance = 5
				communism_drift = 0.01
				fascism_acceptance = -20
				fascism_drift = -0.02
			}
		}
		eastern_church_eth = {
			allowed = { always = no }
			allowed_civil_war = { always = yes }
			picture = idea_eastern_church_eth
			modifier = {
				democratic_acceptance = 5
				communism_acceptance = 5
				communism_drift = 0.01
				fascism_acceptance = -20
				fascism_drift = -0.02
			}
		}
		eastern_church_egy = {
			allowed = { always = no }
			allowed_civil_war = { always = yes }
			picture = eastern_church_eth
			modifier = {
				democratic_acceptance = 5
				communism_acceptance = 5
				neutrality_drift = 0.01
				fascism_acceptance = -20
				fascism_drift = -0.02
			}
		}
		ARM_state_ateism = {
			allowed = { always = no }
			allowed_civil_war = { always = yes }
			picture = communist_cadres
			modifier = {
				research_speed_factor = 0.02
				political_power_gain = 0.10
			}
		}
		ARM_kom_code = {
			allowed = { always = no }
			allowed_civil_war = { always = yes }
			picture = communist_cadres

			modifier = {
				research_speed_factor = 0.2
				political_power_gain = 0.5
				stability_weekly = 0.001
			}
		}
		UKR_idea_orthodox_christian_church = {
			allowed = { always = no }
			allowed_civil_war = { always = yes }
			picture = orthodox_christian_idea
			modifier = {
				fascism_acceptance = -20
				fascism_drift = -0.05
				communism_drift = 0.02
				stability_factor = 0.03
				political_power_factor = 0.15
				production_factory_max_efficiency_factor = 0.05
			}
		}
		DEN_idea_state_atheism = {
			picture = communism3 #REPLACEME
			allowed = { always = no }
			allowed_civil_war = { always = yes }
			modifier = {
				political_power_factor = 0.10
				communism_drift = 0.03
				stability_factor = 0.02
			}
		}
		SOV_russian_orthodox_church_idea = {
			allowed = { always = no }
			allowed_civil_war = { always = yes }
			picture = orthodox_christian_idea
			modifier = {
				fascism_acceptance = -30
				fascism_drift = -0.02
				communism_drift = 0.01
				democratic_drift = -0.01
				political_power_factor = 0.10
				stability_factor = 0.05
			}
		}
		CRM_russian_orthodox_communist_church_idea = {
			allowed = { always = no }
			allowed_civil_war = { always = yes }
			picture = communism9
			modifier = {
				fascism_acceptance = -30
				fascism_drift = -0.02
				communism_drift = 0.02
				nationalist_drift = 0.04
				democratic_drift = -0.04
				political_power_factor = 0.11
				stability_factor = -0.01
			}
		}
		religious_divide = {
			allowed = { tag = ISR }
			allowed_civil_war = { always = yes }
			available = { always = no }
			picture = fifty_fifty_religious_divide

			modifier = {
				fascism_acceptance = 10
				neutrality_drift = 0.10
				democratic_acceptance = 10
			}
			cancel_if_invalid = no
		}
	}
}