ideas = {

	country = {
	
		Basic_Law_HKG = {
		
			picture = international_treaty
			
			
			modifier = {
				stability_factor = 0.1
				Military_Spending_cost_factor = 100
				Conscription_Law_cost_factor = 100
				Foreign_Intervention_Law_cost_factor = 100
			}
			
		}
		
		One_Country_Two_Systems = {
		
			picture = democracy
			
			modifier = {
				democratic_drift = 0.1
				neutrality_drift = 0.04
			}
		
		}
		
		Triads = {
		
			picture = spy_political
		
			modifier = {
				stability_factor = -0.05
				communism_drift = 0.01
			}
			
		}
		
		Localist_Movement = {
		
			picture = propaganda
			
			modifier = {
				nationalist_drift = 0.05
				political_power_factor = -0.1
			}
		
		}
		
		Lacks_Universal_Suffrage = {
		
			picture = political_censorship
			
			modifier = {
				communism_drift = 0.05
				political_power_factor = -0.25
				stability_factor = 0.05
				stability_weekly = -0.002
			}
		}
		
		Limited_Universal_Suffrage = {
		
			picture = political_reform
			
			modifier = {
				communism_drift = 0.02
				political_power_factor = -0.1
				stability_weekly = -0.001
			}
		}
		
		Universal_Suffrage = {
		
			picture = political_freedom
			
			modifier = {
				democratic_drift = 0.1
				stability_factor = -0.05
				stability_weekly = 0.002
			}
		}
		
		Hong_Kong_Protests_01 = {
		
			picture = hk_protests
			
			name = Hong_Kong_Protests
			
			modifier = {
				democratic_drift = 0.01
				nationalist_drift = 0.01
				stability_factor = -0.01
				stability_weekly = -0.001
				political_power_factor = -0.05
				production_speed_buildings_factor = -0.05
				research_speed_factor = -0.05
			}
		}
		
		Hong_Kong_Protests_02 = {
		
			picture = hk_protests
			
			name = Hong_Kong_Protests
			
			modifier = {
				democratic_drift = 0.03
				nationalist_drift = 0.03
				stability_factor = -0.05
				stability_weekly = -0.005
				political_power_factor = -0.1
				production_speed_buildings_factor = -0.1
				research_speed_factor = -0.1
			}
		}
		
		Hong_Kong_Protests_03 = {
		
			picture = hk_protests
			
			name = Hong_Kong_Protests
			
			modifier = {
				democratic_drift = 0.05
				nationalist_drift = 0.05
				stability_factor = -0.1
				stability_weekly = -0.01
				political_power_factor = -0.25
				production_speed_buildings_factor = -0.25
				research_speed_factor = -0.25
			}
		}
		
		CHI_Hong_Kong_Protests_01 = {
		
			picture = hk_protests
			
			name = Hong_Kong_Protests
			
			modifier = {
				democratic_drift = 0.01
				stability_factor = -0.01
				stability_weekly = -0.001
				political_power_factor = -0.02
			}
		}
		
		CHI_Hong_Kong_Protests_02 = {
		
			picture = hk_protests
			
			name = Hong_Kong_Protests
			
			modifier = {
				democratic_drift = 0.02
				stability_factor = -0.02
				stability_weekly = -0.002
				political_power_factor = -0.05
			}
		}
		
		CHI_Hong_Kong_Protests_03 = {
		
			picture = hk_protests
			
			name = Hong_Kong_Protests
			
			modifier = {
				democratic_drift = 0.03
				stability_factor = -0.03
				stability_weekly = -0.003
				political_power_factor = -0.1
			}
		}

		entry_to_china = {
			picture = chinese_gateway
			modifier = {
				stability_factor = 0.02
				production_speed_buildings_factor = 0.10
			}
		}
	}

}