ideas = {
	country = {
		RAJ_outer_doctrine_idea = {
			name = RAJ_outer_doctrine_idea
			picture = artillery_regiments
			allowed_civil_war = {
				always = yes
			}
			targeted_modifier = {
				tag = CHI
				attack_bonus_against = 0.10
			}
		}
		RAJ_outer_doctrine_idea1 = {
			name = RAJ_outer_doctrine_idea
			picture = artillery_regiments
			allowed_civil_war = {
				always = yes
			}
			targeted_modifier = {
				tag = PAK
				attack_bonus_against = 0.10
			}
		}
		RAJ_outer_doctrine_idea2 = {
			name = RAJ_outer_doctrine_idea
			picture = artillery_regiments
			allowed_civil_war = {
				always = yes
			}
			targeted_modifier = {
				tag = PAK
				attack_bonus_against = 0.20
			}
			targeted_modifier = {
				tag = CHI
				attack_bonus_against = 0.20
			}
		}
		RAJ_new_army_idea = {
			picture = volunteer_defenders
			allowed_civil_war = {
				always = yes
			}
			modifier = {
				conscription_factor = 0.1
			}
		}
		RAJ_new_army_idea1 = {
			picture = volunteer_defenders
			allowed_civil_war = {
				always = yes
			}
			modifier = {
				conscription_factor = 0.1
				army_org_factor = 0.03
				command_power_gain = 0.2
			}
		}
		RAJ_new_army_idea2 = {
			picture = volunteer_defenders
			allowed_civil_war = {
				always = yes
			}
			modifier = {
				conscription_factor = 0.1
				army_org_factor = 0.03
				command_power_gain = 0.2
				army_attack_factor = 0.07
			}
		}
		RAJ_new_army_idea3 = {
			picture = volunteer_defenders
			allowed_civil_war = {
				always = yes
			}
			modifier = {
				conscription_factor = 0.1
				army_org_factor = 0.03
				command_power_gain = 0.2
				army_attack_factor = 0.07
				training_time_factor = -0.05
				ground_attack_factor = 0.03
			}
		}
		RAJ_neutrality_idea = {
			name = RAJ_neutrality_idea
			picture = neutrality
			allowed_civil_war = {
				always = yes
			}
			modifier = {
				opinion_gain_monthly_factor = -0.5
				improve_relations_maintain_cost_factor = 0.3
				trade_opinion_factor = -0.5
				production_factory_max_efficiency_factor = 0.05
				global_building_slots_factor = 0.05
				foreign_influence_defense_modifier = 0.05
			}
		}
		RAJ_neutrality_idea1 = {
			name = RAJ_neutrality_idea
			picture = neutrality
			allowed_civil_war = {
				always = yes
			}
			modifier = {
				opinion_gain_monthly_factor = -0.5
				improve_relations_maintain_cost_factor = 0.3
				trade_opinion_factor = -0.325
				production_factory_max_efficiency_factor = 0.05
				global_building_slots_factor = 0.05
				foreign_influence_defense_modifier = 0.10
				production_speed_buildings_factor = 0.03
				justify_war_goal_time = 0.125
				send_volunteer_size = 5
			}
		}

		RAJ_neutrality_idea2 = {
			name = RAJ_neutrality_idea
			picture = neutrality
			allowed_civil_war = {
				always = yes
			}
			modifier = {
				opinion_gain_monthly_factor = -0.5
				improve_relations_maintain_cost_factor = 0.3
				trade_opinion_factor = -0.125
				production_factory_max_efficiency_factor = 0.05
				global_building_slots_factor = 0.05
				foreign_influence_defense_modifier = 0.15
				production_speed_buildings_factor = 0.05
				justify_war_goal_time = 0.125
				send_volunteer_size = 5
			}
		}

		RAJ_neutrality_idea3 = {
			name = RAJ_neutrality_idea
			picture = neutrality
			allowed_civil_war = {
				always = yes
			}
			modifier = {
				opinion_gain_monthly_factor = -0.5
				improve_relations_maintain_cost_factor = 0.3
				trade_opinion_factor = -0.125
				production_factory_max_efficiency_factor = 0.05
				global_building_slots_factor = 0.05
				foreign_influence_defense_modifier = 0.20
				production_speed_buildings_factor = 0.1
				justify_war_goal_time = 0.125
				send_volunteer_size = 5
				political_power_cost = 0.25
				war_support_factor = 0.10
				industrial_capacity_factory = 0.10
			}
		}

		RAJ_indian_saarc_idea = {
			picture = foreign_capital
			allowed_civil_war = {
				always = yes
			}
			modifier = {
				political_power_factor = 0.05
				trade_opinion_factor = 0.35
			}
		}

		RAJ_indian_bimstek_idea = {
			picture = duplicate_research
			allowed_civil_war = {
				always = yes
			}
			modifier = {
				research_speed_factor = 0.10
				stability_factor = 0.05
			}
		}

		RAJ_support_nov_idea = {
			on_add = { log = "[GetDateText]: [Root.GetName]: add idea RAJ_support_nov_idea" }

			picture = GFX_international_brigades
			allowed_civil_war = {
				always = yes
			}
			modifier = {
				stability_factor = 0.02
				attrition = -0.05
				winter_attrition = -0.03
				industry_free_repair_factor = 0.05
			}
		}

		RAJ_gujarat_trouble_idea = {
			on_add = { log = "[GetDateText]: [Root.GetName]: add idea RAJ_support_nov_idea" }

			picture = roit_police_idea
			allowed_civil_war = {
				always = yes
			}
			modifier = {
				stability_factor = -0.02
				attrition = 0.05
				winter_attrition = 0.03
			}
		}

		RAJ_BRICS = {
			on_add = { log = "[GetDateText]: [Root.GetName]: add idea RAJ_support_nov_idea" }

			picture = bricks
			allowed_civil_war = {
				always = yes
			}
			modifier = {
				political_power_factor = 0.05
				research_speed_factor = 0.02
				trade_opinion_factor = 0.35
			}
		}

		RAJ_BRICS_bank = {
			on_add = { log = "[GetDateText]: [Root.GetName]: add idea RAJ_support_nov_idea" }

			picture = bricks_bank
			allowed_civil_war = {
				always = yes
			}
			modifier = {
				local_resources_factor = 0.2
				trade_opinion_factor = 0.05
				industrial_capacity_factory = 0.1
				foreign_influence_defense_modifier = -0.2
			}
		}

		RAJ_BRICS_cur = {
			on_add = { log = "[GetDateText]: [Root.GetName]: add idea the_euro" }
			picture = bitcoin
			allowed_civil_war = { always = yes }
			cancel = {
				NOT = { has_idea = RAJ_BRICS }
			}

			modifier = {
				economic_cycles_cost_factor = 0.2
				trade_opinion_factor = 0.1
				consumer_goods_factor = -0.01
				interest_rate_multiplier_modifier = -1
				econ_cycle_upg_cost_multiplier_modifier = 0.50
			}
		}

		RAJ_amoozesh_parvaresh = {
			allowed = {
			}

			allowed_civil_war = {
				always = yes
			}

			picture = bul_bulgarian_shipping_chamber

			modifier = {
				research_speed_factor = 0.05
			}
		}

		######MILITAR

		RAJ_iri_fake_ns = {
			on_add = { log = "[GetDateText]: [Root.GetName]: add idea RAJ_iri_fake_ns" }

			picture = arms_seizure
			allowed_civil_war = {
				always = yes
			}
			modifier = {
				production_speed_industrial_complex_factor = 0.05
				production_factory_efficiency_gain_factor = -0.2
				conversion_cost_civ_to_mil_factor = 0.2
				industrial_capacity_factory = -0.2
			}
		}

		RAJ_iri_fake_ns2 = {
			on_add = { log = "[GetDateText]: [Root.GetName]: add idea RAJ_iri_fake_ns2" }

			picture = arms_seizure
			allowed_civil_war = {
				always = yes
			}
			modifier = {
				production_speed_industrial_complex_factor = 0.07
				production_factory_efficiency_gain_factor = -0.15
				conversion_cost_civ_to_mil_factor = 0.15
				industrial_capacity_factory = -0.15
			}
		}

		RAJ_iri_fake_ns3 = {
			on_add = { log = "[GetDateText]: [Root.GetName]: add idea RAJ_iri_fake_ns3" }

			picture = arms_seizure
			allowed_civil_war = {
				always = yes
			}
			modifier = {
				production_speed_industrial_complex_factor = 0.1
				production_factory_efficiency_gain_factor = -0.10
				conversion_cost_civ_to_mil_factor = 0.10
				industrial_capacity_factory = -0.10
			}
		}

		RAJ_iri_fake_ns4 = {
			on_add = { log = "[GetDateText]: [Root.GetName]: add idea RAJ_iri_fake_ns4" }

			picture = arms_seizure
			allowed_civil_war = {
				always = yes
			}
			modifier = {
				production_speed_industrial_complex_factor = 0.1
				production_factory_efficiency_gain_factor = -0.05
				conversion_cost_civ_to_mil_factor = 0.05
				industrial_capacity_factory = -0.05
			}
		}

		RAJ_re_fake_militar = {
			on_add = { log = "[GetDateText]: [Root.GetName]: add idea RAJ_re_fake_militar" }

			picture = Disorganization_Military_2
			allowed_civil_war = {
				always = yes
			}
			modifier = {
				max_dig_in_factor = -0.1
				land_doctrine_cost_factor = -0.1
				army_speed_factor = -0.1
				army_org_factor = -0.1
				org_loss_when_moving = 0.15
			}
		}

		RAJ_re_fake_militar2 = {
			on_add = { log = "[GetDateText]: [Root.GetName]: add idea RAJ_re_fake_militar2" }

			picture = Disorganization_Military_3
			allowed_civil_war = {
				always = yes
			}
			modifier = {
				max_dig_in_factor = -0.05
				land_doctrine_cost_factor = -0.05
				army_speed_factor = -0.05
				army_org_factor = -0.05
				org_loss_when_moving = 0.10
			}
		}

		RAJ_re_fake_militar3 = {
			on_add = { log = "[GetDateText]: [Root.GetName]: add idea RAJ_re_fake_militar3" }

			picture = Disorganization_Military_4
			allowed_civil_war = {
				always = yes
			}
			modifier = {
				max_dig_in_factor = -0.02
				land_doctrine_cost_factor = -0.02
				army_speed_factor = -0.02
				army_org_factor = -0.02
				org_loss_when_moving = 0.10
			}
		}

		RAJ_re_fake_militar4 = {
			on_add = { log = "[GetDateText]: [Root.GetName]: add idea RAJ_re_fake_militar4" }

			picture = Disorganization_Military_5
			allowed_civil_war = {
				always = yes
			}
			modifier = {
				max_dig_in_factor = 0.05
				land_doctrine_cost_factor = 0.05
				army_speed_factor = 0.05
				army_org_factor = 0.05
				org_loss_when_moving = 0.10
			}
		}

		RAJ_UAZ = {
			on_add = { log = "[GetDateText]: [Root.GetName]: add idea RAJ_UAZ" }

			picture = motorized_focus
			allowed_civil_war = {
				always = yes
			}
			modifier = {
				line_change_production_efficiency_factor = 0.05
			}
		}

		RAJ_looming_water = {
			on_add = { log = "[GetDateText]: [Root.GetName]: add idea RAJ_looming_water" }

			picture = risk_of_famine

			allowed_civil_war = {
				always = yes
			}

			modifier = {
				stability_factor = -0.05
				army_morale_factor = -0.05
				army_org_factor = -0.05
				supply_consumption_factor = 0.2
				political_power_factor = -0.15
				MONTHLY_POPULATION = -1
				drift_defence_factor = -0.125
			}
		}

		RAJ_looming_water1 = {
			on_add = { log = "[GetDateText]: [Root.GetName]: add idea RAJ_looming_water1" }

			picture = risk_of_famine

			allowed_civil_war = {
				always = yes
			}

			modifier = {
				stability_factor = -0.05
				army_morale_factor = -0.02
				army_org_factor = -0.03
				supply_consumption_factor = 0.1
				political_power_factor = -0.10
				MONTHLY_POPULATION = -0.5
				drift_defence_factor = -0.125
			}
		}

		RAJ_looming_water2 = {
			on_add = { log = "[GetDateText]: [Root.GetName]: add idea RAJ_looming_water2" }

			picture = risk_of_famine

			allowed_civil_war = {
				always = yes
			}

			modifier = {
				stability_factor = -0.03
				army_morale_factor = -0.01
				army_org_factor = -0.03
				supply_consumption_factor = 0.1
				political_power_factor = -0.05
				MONTHLY_POPULATION = -0.2
				drift_defence_factor = -0.125
			}
		}

		RAJ_bolywood_idea = {
			on_add = { log = "[GetDateText]: [Root.GetName]: add idea RAJ_bolywood_idea" }

			picture = spirit_JAP_ministry

			allowed_civil_war = {
				always = yes
			}

			modifier = {
				foreign_influence_defense_modifier = 0.05
				trade_opinion_factor = 0.05
			}
		}

		RAJ_bolywood_idea1 = {
			on_add = { log = "[GetDateText]: [Root.GetName]: add idea RAJ_bolywood_idea1" }

			picture = spirit_JAP_ministry

			allowed_civil_war = {
				always = yes
			}

			modifier = {
				foreign_influence_defense_modifier = 0.1
				trade_opinion_factor = 0.05
			}
		}

		RAJ_bolywood_idea2 = {
			on_add = { log = "[GetDateText]: [Root.GetName]: add idea RAJ_bolywood_idea2" }

			picture = spirit_JAP_ministry

			allowed_civil_war = {
				always = yes
			}

			modifier = {
				foreign_influence_defense_modifier = 0.1
				trade_opinion_factor = 0.1
			}
		}

		RAJ_NAJA_idea_1 = {
			on_add = { log = "[GetDateText]: [Root.GetName]: add idea RAJ_NAJA_idea_1" }

			picture = bul_bulgarian_shipping_chamber

			modifier = {
				resistance_growth = -0.10
				police_cost_multiplier_modifier = -0.05
				crime_fighting_cost_factor = -0.10
			}
		}
		RAJ_NAJA_idea_2 = {

			allowed_civil_war = {
				always = yes
			}

			picture = bul_bulgarian_shipping_chamber

			modifier = {
				resistance_growth = -0.15
				foreign_subversive_activites = -0.25
				police_cost_multiplier_modifier = -0.05
				crime_fighting_cost_factor = -0.10
			}
		}
		RAJ_NAJA_idea_3 = {
			on_add = { log = "[GetDateText]: [Root.GetName]: add idea RAJ_NAJA_idea_3" }

			allowed_civil_war = {
				always = yes
			}

			picture = bul_bulgarian_shipping_chamber

			modifier = {
				resistance_growth = -0.15
				foreign_subversive_activites = -0.25
				intelligence_agency_defense = 0.75
				police_cost_multiplier_modifier = 0.05
				crime_fighting_cost_factor = -0.10
			}
		}
		RAJ_riot_police_1 = {
			name = RAJ_riot_police_idea
			on_add = { log = "[GetDateText]: [Root.GetName]: add idea RAJ_riot_police_1" }

			picture = prisoners
			allowed_civil_war = {
				always = yes
			}
			modifier = {
				root_out_resistance_effectiveness_factor = 0.20
				foreign_subversive_activites = -0.15
			}
		}
		RAJ_riot_police_2 = {
			name = RAJ_riot_police_idea
			on_add = { log = "[GetDateText]: [Root.GetName]: add idea RAJ_riot_police_2" }

			allowed_civil_war = { always = yes }
			allowed = { always = no }
			picture = prisoners

			modifier = {
				root_out_resistance_effectiveness_factor = 0.25
				foreign_subversive_activites = -0.20
				enemy_operative_detection_chance_factor = 0.10
				resistance_growth = -0.05
			}
		}
		RAJ_riot_police_3 = {
			name = RAJ_riot_police_idea
			on_add = { log = "[GetDateText]: [Root.GetName]: add idea RAJ_riot_police_3" }

			allowed_civil_war = { always = yes }
			allowed = { always = no }

			picture = prisoners

			modifier = {
				root_out_resistance_effectiveness_factor = 0.20
				foreign_subversive_activites = -0.15
				resistance_growth = -0.05
			}
		}

		RAJ_drdo_idea = {
			on_add = { log = "[GetDateText]: [Root.GetName]: add idea RAJ_drdo_idea" }
			picture = production_bonus
			allowed_civil_war = { always = yes }
			allowed = { always = no }

			modifier = {
				industrial_capacity_factory = 0.1
				research_speed_factor = 0.10
				conversion_cost_civ_to_mil_factor = -0.4
				ai_focus_military_advancements_factor = 0.5
				experience_gain_army = 0.05
			}
		}

		RAJ_indian_army_air_defense_force_idea = {
			on_add = { log = "[GetDateText]: [Root.GetName]: add idea RAJ_indian_army_air_defense_force_idea" }
			picture = air_bonus
			allowed_civil_war = { always = yes }
			allowed = { always = no }

			modifier = {
				static_anti_air_hit_chance_factor = 0.30
				navy_anti_air_attack_factor = 0.15
			}
		}

		RAJ_foreign_specialists_idea = {
			on_add = { log = "[GetDateText]: [Root.GetName]: add idea RAJ_foreign_specialists_idea" }
			picture = well_balanced
			allowed_civil_war = { always = yes }
			allowed = { always = no }
			modifier = {
				economic_cycles_cost_factor = -0.3
				consumer_goods_factor = -0.1
				stability_factor = 0.05
				war_support_factor = -0.02
				social_cost_multiplier_modifier = -0.2
				health_cost_multiplier_modifier = -0.15
				education_cost_multiplier_modifier = -0.05
			}
		}

		RAJ_green_economy_idea = {
			on_add = { log = "[GetDateText]: [Root.GetName]: add idea RAJ_green_economy_idea" }
			allowed = {
			}

			picture = eco_factories
			allowed_civil_war = {
				always = yes
			}
			modifier = {
				renewable_energy_gain = 2
				renewable_energy_gain_multiplier = 0.02
				global_building_slots_factor = 0.05
				local_resources_factor = 0.1
			}
		}
		RAJ_indian_socialism_idea = {
			on_add = { log = "[GetDateText]: [Root.GetName]: add idea RAJ_indian_socialism_idea" }
			picture = air_support
			allowed_civil_war = {
				always = yes
			}
			modifier = {
				production_speed_arms_factory_factor = 0.20
				production_speed_infrastructure_factor = 0.1
				stability_factor = -0.15
				conversion_cost_civ_to_mil_factor = -0.15
				industrial_capacity_factory = 0.2
				production_factory_efficiency_gain_factor = 0.2
			}
		}
		RAJ_friendship_with_religions_idea = {
			on_add = { log = "[GetDateText]: [Root.GetName]: add idea RAJ_friendship_with_religions_idea" }
			picture = filipino_syncretism
			allowed_civil_war = {
				always = yes
			}
			modifier = {
				war_support_factor = 0.1
				stability_factor = 0.05
				conscription_factor = 0.03
				army_org_factor = 0.10
				personnel_cost_multiplier_modifier = 0.03
			}
		}
		RAJ_international_help_idea = {
			on_add = { log = "[GetDateText]: [Root.GetName]: add idea RAJ_international_help_idea" }
			picture = wargaming
			allowed_civil_war = { always = yes }
			modifier = {
				send_volunteer_size = 5
				send_volunteer_divisions_required = -0.20
				send_volunteers_tension = -0.05
			}
		}
		RAJ_encourage_birth_idea = {
			on_add = { log = "[GetDateText]: [Root.GetName]: add idea RAJ_encourage_birth_idea" }
			picture = manpower_bonus
			allowed_civil_war = { always = yes }
			modifier = {
				monthly_population = 0.05
			}
		}
		RAJ_true_social_democracy_idea = {
			on_add = { log = "[GetDateText]: [Root.GetName]: add idea RAJ_true_social_democracy_idea" }
			picture = cssd
			allowed_civil_war = { always = yes }
			modifier = {
				social_cost_multiplier_modifier = -0.08
				health_cost_multiplier_modifier = -0.05
				stability_factor = -0.02
				war_support_factor = 0.07
				personnel_cost_multiplier_modifier = 0.09
			}
		}
		RAJ_scandinavian_model_idea = {
			on_add = { log = "[GetDateText]: [Root.GetName]: add idea RAJ_scandinavian_model_idea" }
			picture = BOT_BDP_stronghold
			allowed_civil_war = { always = yes }
			modifier = {
				education_cost_multiplier_modifier = -0.05
				bureaucracy_cost_multiplier_modifier = 0.1
				stability_factor = 0.05
				war_support_factor = -0.07
			}
		}
		RAJ_new_democratic_india_idea = {
			on_add = { log = "[GetDateText]: [Root.GetName]: add idea RAJ_new_democratic_india_idea" }
			picture = BOT_BDP_stronghold
			allowed_civil_war = {
				always = yes
			}
			modifier = {
			stability_factor = 0.1
			political_power_factor = 0.10
			democratic_drift = 0.05
			}
		}
		RAJ_untouchables_reed_idea = {
			on_add = { log = "[GetDateText]: [Root.GetName]: add idea RAJ_untouchables_reed_idea" }
			picture = sustainable_development
			allowed_civil_war = {
				always = yes
			}
			modifier = {
			research_speed_factor = 0.1
			political_power_factor = 0.12
			stability_weekly = 0.02
			education_cost_multiplier_modifier = 0.15
			}
		}
		RAJ_federation_of_free_peoples_idea = {
			on_add = { log = "[GetDateText]: [Root.GetName]: add idea RAJ_federation_of_free_peoples_idea" }
			picture = political_freedom
			allowed_civil_war = {
				always = yes
			}
			modifier = {
				stability_factor = 0.15
				democratic_drift = 0.09
				tax_gain_multiplier_modifier = 0.1
				monthly_population = -0.04
				production_speed_buildings_factor = 0.03
				production_speed_infrastructure_factor = 0.1
			}
		}
		RAJ_betrayal_of_the_indian_people_idea = {
			on_add = { log = "[GetDateText]: [Root.GetName]: add idea RAJ_betrayal_of_the_indian_people_idea" }
			picture = self_humiliation
			allowed_civil_war = {
				always = yes
			}
			modifier = {
				stability_factor = -0.25
				war_support_factor = -0.1
				political_power_factor = 0.15
				production_speed_arms_factory_factor = 0.15
				industrial_capacity_factory = 0.08
			}
		}
		RAJ_one_wife_programme_idea = {
			on_add = { log = "[GetDateText]: [Root.GetName]: add idea RAJ_one_wife_programme_idea" }
			picture = low_popular_support
			allowed_civil_war = {
				always = yes
			}
			modifier = {
				monthly_population = -0.02
				stability_factor = 0.05
			}
		}
		RAJ_bamcef_idea = {
			on_add = { log = "[GetDateText]: [Root.GetName]: add idea RAJ_bamcef_idea" }
			picture = lack_of_supply
			allowed_civil_war = {
				always = yes
			}
			modifier = {
				political_power_factor = 0.1
				conscription_factor = 0.02
			}
		}
		RAJ_indian_ceasar_idea = {
			on_add = { log = "[GetDateText]: [Root.GetName]: add idea RAJ_indian_ceasar_idea" }
			picture = fascism2
			allowed_civil_war = { always = yes }
			allowed = { original_tag = RAJ }
			cancel = { NOT = { has_government = nationalist } }

			modifier = {
				political_power_factor = 0.10
				drift_defence_factor = 0.15
				army_attack_factor = 0.05
				nationalist_drift = 0.03
				stability_factor = 0.02
			}
		}
		RAJ_copied_american_warfare_tactics_idea = {
			on_add = { log = "[GetDateText]: [Root.GetName]: add idea RAJ_copied_american_warfare_tactics_idea" }
			picture = infantry_bonus2
			allowed_civil_war = {
				always = yes
			}
			modifier = {
				army_attack_factor = 0.1
				army_defence_factor = 0.05
				army_org_factor = 0.08
				personnel_cost_multiplier_modifier = 0.05
			}
		}
		RAJ_increase_arms_production_idea = {
			on_add = { log = "[GetDateText]: [Root.GetName]: add idea RAJ_increase_arms_production_idea" }
			picture = license_production
			allowed_civil_war = {
				always = yes
			}
			modifier = {
				stability_factor = -0.12
				conversion_cost_civ_to_mil_factor = -0.1
				industrial_capacity_factory = 0.06
				production_factory_efficiency_gain_factor = 0.07
			}
		}
		RAJ_fatwa_of_factories_idea = {
		on_add = { log = "[GetDateText]: [Root.GetName]: add idea RAJ_fatwa_of_factories_idea" }
		picture = local_self_management
		allowed_civil_war = {
			always = yes
		}
		modifier = {
			production_speed_buildings_factor = 0.05
				industrial_capacity_factory = 0.05
				political_power_factor = -0.1
				stability_factor = -0.15
				war_support_factor = 0.05
			}
		}
		RAJ_energy1 = {
			name = RAJ_energy_idea
			on_add = { log = "[GetDateText]: [Root.GetName]: add idea RAJ_energy1" }
			picture = fusion_energy
			modifier = {
				nuclear_energy_generation_modifier = 0.05
				nuclear_fuel_consumption_modifier = -0.05
				production_speed_nuclear_reactor_factor = 0.05
			}
		}
		RAJ_energy2 = {
			name = RAJ_energy_idea
			on_add = { log = "[GetDateText]: [Root.GetName]: add idea RAJ_energy2" }
			picture = fusion_energy
			modifier = {
				nuclear_energy_generation_modifier = 0.10
				nuclear_fuel_consumption_modifier = -0.10
				production_speed_nuclear_reactor_factor = 0.10
			}
		}
		RAJ_energy3 = {
			name = RAJ_energy_idea
			on_add = { log = "[GetDateText]: [Root.GetName]: add idea RAJ_energy3" }
			picture = fusion_energy
			modifier = {
				nuclear_energy_generation_modifier = 0.15
				nuclear_fuel_consumption_modifier = -0.15
				production_speed_nuclear_reactor_factor = 0.15
			}
		}
		RAJ_domestic_automobile = {
			on_add = { log = "[GetDateText]: [Root.GetName]: add idea RAJ_domestic_automobile" }
			allowed_civil_war = { always = yes }

			picture = local_self_management

			modifier = {
				production_factory_start_efficiency_factor = 0.10
				production_factory_max_efficiency_factor = 0.05
				production_speed_buildings_factor = 0.05
				foreign_influence_defense_modifier = 0.05
				political_power_gain = 0.1
				stability_factor = 0.03
			}
		}
		RAJ_restructure_spending_idea = {
			on_add = {
				log = "[GetDateText]: [This.GetName]: idea added RAJ_restructure_spending_idea executed"
				ingame_update_setup = yes
			}

			allowed_civil_war = { always = yes }

			picture = foreign_capital

			modifier = {
				interest_rate_multiplier_modifier = -3
				tax_gain_multiplier_modifier = 0.05
			}
		}
		RAJ_new_farms_market = {
			on_add = { log = "[GetDateText]: [Root.GetName]: add idea RAJ_new_farms_market" }
			allowed = { always = no }
			picture = agricultural_reforms

			modifier = {
				min_export = 0.10
				local_resources_factor = 0.1
				agricolture_productivity_modifier = 0.10
				agriculture_tax_modifier = 0.10
				agriculture_workers_modifier = 0.075
			}
		}
		RAJ_atoms_for_peace = {
			on_add = { log = "[GetDateText]: [Root.GetName]: add idea RAJ_atoms_for_peace" }
			allowed_civil_war = {
				always = yes
			}
			picture = shared_research
			modifier = {
				production_speed_nuclear_reactor_factor = 0.15
				research_speed_factor = 0.05
				nuclear_energy_generation_modifier = 0.10
				nuclear_reactor_fuel_production = 0.20
			}
		}
		RAJ_207_sd_idea = {
			on_add = { log = "[GetDateText]: [Root.GetName]: add idea RAJ_207_sd_idea" }
			allowed = {
			}

			allowed_civil_war = {
				always = yes
			}

			picture = trade

			modifier = {
				production_factory_start_efficiency_factor = 0.10
				production_factory_max_efficiency_factor = 0.05
				production_speed_buildings_factor = 0.1
				foreign_influence_defense_modifier = -0.05
				political_power_gain = 0.1
				stability_factor = 0.03
				political_power_factor = 0.05
				corporate_tax_income_multiplier_modifier = 0.05
				police_cost_multiplier_modifier = -0.05
				monthly_population = 0.02

				custom_modifier_tooltip = 207_sd_car_expense_effect_TT
			}
		}
		RAJ_comm_agile_control = {
			on_add = { log = "[GetDateText]: [Root.GetName]: add idea RAJ_centralized_rule" }
			allowed = { always = no }

			picture = local_self_management
			modifier = {
				production_speed_buildings_factor = 0.05
				consumer_goods_factor = 0.03
				production_factory_efficiency_gain_factor = 0.15
				production_factory_max_efficiency_factor = -0.05
				production_factory_start_efficiency_factor = 0.05
			}
		}
		RAJ_military_police = {
			on_add = { log = "[GetDateText]: [Root.GetName]: add idea RAJ_military_police" }

			allowed = {
			}

			allowed_civil_war = {
				always = yes
			}

			modifier = {
				resistance_growth = -0.05
			}
		}
		RAJ_sharia = {
			on_add = { log = "[GetDateText]: [Root.GetName]: add idea RAJ_sharia" }
			picture = youth_radicalization
			allowed = {
				tag = RAJ
			}
			modifier = {
				fascism_acceptance = 20
				democratic_acceptance = -50
				nationalist_acceptance = -50
				communism_acceptance = -50
			}
		}
		RAJ_begin_projects = {
			on_add = { log = "[GetDateText]: [Root.GetName]: add idea RAJ_begin_projects" }
			picture = construction
			allowed = {
				tag = RAJ
			}
			modifier = {
				projects_cost_modifier = -0.07
			}
		}
		RAJ_resource_reg = {
			name = RAJ_resource_reg_idea
			on_add = { log = "[GetDateText]: [Root.GetName]: add idea RAJ_resource_reg2" }
			picture = resource_production
			modifier = {
				local_resources_factor = 0.10
				resource_export_multiplier_modifier = 0.20
				resource_sector_workers_modifier = 0.12
			}
		}
		RAJ_network_improvement = {
			name = RAJ_network_improvement_idea
			on_add = { log = "[GetDateText]: [Root.GetName]: add idea RAJ_network_improvement" }
			picture = tower_investment
			modifier = {
				production_speed_internet_station_factor = 0.12
			}
		}
		RAJ_network_improvement_2 = {
			name = RAJ_network_improvement_idea
			on_add = { log = "[GetDateText]: [Root.GetName]: add idea RAJ_network_improvement_2" }
			picture = tower_investment
			modifier = {
				production_speed_internet_station_factor = 0.12
				tax_rate_change_multiplier_modifier = -0.10
			}
		}
		RAJ_network_improvement_3 = {
			name = RAJ_network_improvement_idea
			on_add = { log = "[GetDateText]: [Root.GetName]: add idea RAJ_network_improvement_3" }
			picture = tower_investment
			modifier = {
				production_speed_internet_station_factor = 0.12
				tax_rate_change_multiplier_modifier = -0.10
				production_speed_industrial_complex_factor = 0.10
			}
		}
		RAJ_paramilitary_organization_idea = {
			on_add = { log = "[GetDateText]: [Root.GetName]: add idea RAJ_paramilitary_organization_idea" }
			allowed = { always = no }
			picture = army_corruption3

			modifier = {
				experience_gain_army = 0.05
			}
		}
		RAJ_Mountain_Hindus_idea = {
			on_add = { log = "[GetDateText]: [Root.GetName]: add idea RAJ_paramilitary_organization_idea" }
			allowed = { always = no }
			picture = army_corruption3

			modifier = {
				experience_gain_army = -0.01
				war_support_factor = 0.02
				army_attack_factor = -0.04
				army_morale_factor = 0.07
			}
		}
		RAJ_increase_research_funding_idea = {
			on_add = { log = "[GetDateText]: [Root.GetName]: add idea RAJ_increase_research_funding_idea" }
			allowed = { always = no }

			picture = research_bonus
			modifier = {
				research_speed_factor = 0.05
			}
		}
		RAJ_modernization_and_tradition = {
			on_add = { log = "[GetDateText]: [Root.GetName]: add idea RAJ_modernization_and_tradition" }
			allowed = { always = no }
			picture = industrial_concern

			modifier = {
				local_resources_factor = 0.15
				consumer_goods_factor = -0.03
			}
		}
		RAJ_nationalist_limited_social_support = {
			on_add = { log = "[GetDateText]: [Root.GetName]: add idea RAJ_nationalist_limited_social_support" }
			allowed = { always = no }
			picture = foreign_capital

			modifier = {
				stability_factor = 0.05
				monthly_population = 0.05
				consumer_goods_factor = 0.02
			}
		}
		RAJ_improved_administration = {
			on_add = { log = "[GetDateText]: [Root.GetName]: add idea RAJ_improved_administration" }
			allowed = { always = no }
			picture = political_power_bonus

			modifier = {
				political_power_factor = 0.25
				bureaucracy_cost_multiplier_modifier = -0.10
			}
		}
		RAJ_contruction_taxes = {
			on_add = { log = "[GetDateText]: [Root.GetName]: add idea RAJ_contruction_taxes" }
			allowed = { always = no }
			picture = construction

			modifier = {
				production_speed_buildings_factor = 0.1
				civilian_industry_tax_modifier = 0.10
				civilian_factories_productivity = 0.10
			}
		}
		RAJ_economical_comitee_idea = {
			on_add = { log = "[GetDateText]: [Root.GetName]: add idea RAJ_economical_comitee_idea" }
			allowed = { always = no }
			picture = agricultural_reforms

			modifier = {
				production_speed_buildings_factor = 0.08
				consumer_goods_factor = 0.03
			}
		}
		RAJ_reuse_central_planning_idea = {
			on_add = { log = "[GetDateText]: [Root.GetName]: add idea RAJ_reuse_central_planning_idea" }
			allowed = { always = no }
			picture = central_management

			modifier = {
				production_speed_buildings_factor = -0.05
				production_factory_max_efficiency_factor = 0.1
				production_factory_efficiency_gain_factor = 0.15
			}
		}
		RAJ_comm_land_reform = {
			on_add = { log = "[GetDateText]: [Root.GetName]: add idea RAJ_comm_land_reform" }
			allowed = { always = no }

			picture = agriculture
			modifier = {
				consumer_goods_factor = -0.02
				local_resources_factor = 0.05
			}
		}
		RAJ_civilian_focus = {
			on_add = { log = "[GetDateText]: [Root.GetName]: add idea RAJ_civilian_focus" }
			allowed = { always = no }

			picture = production_bonus
			modifier = {
				production_speed_buildings_factor = 0.1
			}
		}
		RAJ_promoted_industrial_quality = {
			on_add = { log = "[GetDateText]: [Root.GetName]: add idea RAJ_promoted_industrial_quality" }
			allowed = { always = no }
			picture = factory_strikes

			modifier = {
				production_factory_max_efficiency_factor = 0.2
			}
		}
		RAJ_network_centric_doctrine_idea = {
			on_add = { log = "[GetDateText]: [Root.GetName]: add idea RAJ_network_centric_doctrine_idea" }
			allowed = { always = no }
			picture = fortification2
			modifier = {
				army_org_factor = 0.03
				command_power_gain = 0.2
			}
		}
		RAJ_quantity_small_arms_idea = {
			on_add = { log = "[GetDateText]: [Root.GetName]: add idea RAJ_quantity_small_arms_idea" }
			allowed = { always = no }
			picture = volunteer_defenders2
			equipment_bonus = {
				Inf_equipment = {
					instant = yes
					build_cost_ic = -0.05
				}
			}
		}
		RAJ_quality_control_idea = {
			on_add = { log = "[GetDateText]: [Root.GetName]: add idea RAJ_quality_control_idea" }
			allowed = { always = no }

			picture = industrial_focus
			modifier = {
				production_factory_efficiency_gain_factor = -0.2
				production_factory_max_efficiency_factor = 0.1
			}
		}
		RAJ_inner_network_idea = {
			on_add = { log = "[GetDateText]: [Root.GetName]: add idea RAJ_inner_network_idea" }
			allowed = { always = no }
			picture = spy_intel

			modifier = {
				encryption = 1
				decryption = 1
			}
		}
		RAJ_martime_group_idea = {
			on_add = { log = "[GetDateText]: [Root.GetName]: add idea RAJ_martime_group_idea" }
			allowed = { always = no }
			picture = coastal_navy
			modifier = {
				navy_intel_factor = 0.05
			}
		}
		RAJ_social_development_priority_idea = {
			on_add = { log = "[GetDateText]: [Root.GetName]: add idea RAJ_social_development_priority_idea" }
			allowed = { always = no }
			picture = national_unity

			modifier = {
				stability_factor = 0.1
				monthly_population = 0.05
			}
		}
		RAJ_speed_development_idea = {
			on_add = { log = "[GetDateText]: [Root.GetName]: add idea RAJ_speed_development_idea" }
			allowed = { always = no }

			picture = industrial_focus
			modifier = {
				production_factory_efficiency_gain_factor = 0.2
				production_factory_max_efficiency_factor = -0.1
			}
		}
		RAJ_military_youth = {
			on_add = { log = "[GetDateText]: [Root.GetName]: add idea RAJ_military_youth" }
			allowed = { always = no }
			picture = army_war_college

			modifier = {
				conscription_factor = 0.02
			}
		}
		RAJ_leftist_propaganda_idea = {
			on_add = { log = "[GetDateText]: [Root.GetName]: add idea RAJ_leftist_propaganda_idea" }
			allowed = { always = no }

			picture = destroy_capitalism
			modifier = {
				political_power_factor = -0.05
				democratic_drift = -0.015
			}
		}
		RAJ_women_economy = {
			on_add = { log = "[GetDateText]: [Root.GetName]: add idea POL_women_economy" }
			allowed = { always = no }

			picture = scw_intervention_rep
			modifier = {
				monthly_population = -0.03
				consumer_goods_factor = -0.01
				production_speed_buildings_factor = 0.03
			}
		}
		RAJ_dop_programms_idea = {
			on_add = { log = "[GetDateText]: [Root.GetName]: add idea RAJ_dop_programms_idea" }

			allowed = {
				original_tag = RAJ
				always = no
			}

			allowed_civil_war = {
				always = yes
			}

			picture = political_censorship

			modifier = {
				research_speed_factor = 0.04
			}
		}
		RAJ_huawei = {
			on_add = { log = "[GetDateText]: [Root.GetName]: add idea RAJ_huawei" }

			picture = shared_research

			modifier = {
				production_factory_efficiency_gain_factor = 0.05
			}
		}
		RAJ_raising_taxes_idea = {

			allowed = {
				original_tag = RAJ
				always = no
			}

			allowed_civil_war = {
				always = no
			}

			picture = market_dynamics

			modifier = {
				production_speed_buildings_factor = 0.05
				industrial_capacity_factory = 0.1
				economic_cycles_cost_factor = -0.3
				consumer_goods_factor = -0.05
				tax_rate_change_multiplier_modifier = -0.15
			}
		}
		RAJ_kalashnikov = {
			on_add = { log = "[GetDateText]: [Root.GetName]: add idea RAJ_kalashnikov" }

			picture = volunteer_defenders

			modifier = {
				industrial_capacity_factory = 0.05
			}
		}
		RAJ_idea_the_new_space_race = {
			on_add = { log = "[GetDateText]: [Root.GetName]: add idea RAJ_idea_the_new_space_race" }
			picture = air_support
			allowed = { original_tag = RAJ }
			modifier = {
				research_speed_factor = 0.10
				production_speed_buildings_factor = 0.05
				education_budget_cost_factor = 0.10
			}
		}
		RAJ_idea_cyberwarfare_2 = {
			on_add = { log = "[GetDateText]: [Root.GetName]: add idea RAJ_idea_cyberwarfare_2" }
			picture = tower_investment
			modifier = {
				decryption_factor = 0.04
			}
		}
		RAJ_military_communism_idea = {
			on_add = { log = "[GetDateText]: [Root.GetName]: add idea RAJ_military_communism_idea" }
			picture = license_production

			modifier = {
				max_command_power = 25
			}
		}
		RAJ_cleaning_nomenclature_com = {
			allowed = {
				original_tag = RAJ
				always = no
			}
			allowed_civil_war = {
				always = no
			}

			picture = international_brigades
			modifier = {
				communism_drift = 0.1
			}
		}
		RAJ_cleaning_nomenclature_neutral = {
			allowed = {
				original_tag = RAJ
				always = no
			}
			allowed_civil_war = {
				always = no
			}

			picture = international_brigades
			modifier = {
				neutrality_drift = 0.1
			}
		}
		RAJ_kom_mobil_econom = {

			allowed = {
				original_tag = RAJ
				always = no
			}

			allowed_civil_war = {
				always = no
			}

			picture = social_democracy
			modifier = {
				production_speed_buildings_factor = 0.10
				industrial_capacity_factory = 0.2
				consumer_goods_factor = -0.03
			}
		}
		RAJ_small_ship_project = {
			on_add = { log = "[GetDateText]: [Root.GetName]: add idea RAJ_small_ship_project" }
			picture = liberty_ships

			equipment_bonus = {
				submarine = {
					build_cost_ic = -0.15
					instant = yes
				}
				destroyer = {
					build_cost_ic = -0.15
					instant = yes
				}
			}
		}
		RAJ_idea_agrotech = {
			on_add = { log = "[GetDateText]: [Root.GetName]: add idea RAJ_idea_pro_farmers" }

			picture = agriculture

			modifier = {
				global_building_slots_factor = 0.05
				local_resources_factor = 0.10
			}
		}
		RAJ_idea_pro_farmers = {
			on_add = { log = "[GetDateText]: [Root.GetName]: add idea RAJ_idea_pro_farmers" }

			picture = agriculture

			modifier = {
				MONTHLY_POPULATION = 0.15
				local_resources_factor = 0.10
			}
		}
		#
		RAJ_neutral_army = {
			on_add = { log = "[GetDateText]: [Root.GetName]: add idea RAJ_neutral_army" }
			allowed_civil_war = {
				always = yes
			}
			picture = general_staff
			modifier = {
				navy_max_range_factor = 0.15
				land_reinforce_rate = 0.05
				army_core_defence_factor = 0.20
				planning_speed = 0.10
				max_planning_factor = 0.10
				breakthrough_factor = 0.05
				terrain_penalty_reduction = 0.05
				recon_factor = 0.05
			}
		}
		RAJ_true_market = {
			allowed = {
				original_tag = RAJ
				always = no
			}
			allowed_civil_war = {
				always = no
			}

			picture = china_factory
			modifier = {
				improve_relations_maintain_cost_factor = -0.3
				trade_opinion_factor = 0.3
				production_factory_max_efficiency_factor = 0.05
				global_building_slots_factor = 0.10
				production_speed_buildings_factor = 0.05
			}
		}
		RAJ_balancing_approach_idea = {

			allowed = {
				original_tag = RAJ
				always = no
			}

			allowed_civil_war = {
				always = no
			}

			picture = market_dynamics

			modifier = {
				production_speed_buildings_factor = 0.07
				industrial_capacity_factory = 0.03
			}
		}

		RAJ_decommodify_the_basics_idea = {
			on_add = { log = "[GetDateText]: [Root.GetName]: add idea RAJ_decommodify_the_basics_idea" }
			allowed = { always = no }
			picture = economic_increase

			modifier = {
				social_cost_multiplier_modifier = 0.15
				political_power_factor = 0.10
				consumer_goods_factor = -0.05
			}
		}

		RAJ_pro_lgbtqa_stance_idea = {
			on_add = { log = "[GetDateText]: [Root.GetName]: add idea RAJ_pro_lgbtqa_stance_idea" }
			allowed = { always = no }
			picture = conservatism

			modifier = {
				MONTHLY_POPULATION = -0.05
				democratic_drift = 0.05
				stability_factor = 0.05
			}
		}

		RAJ_anti_lgbtqa_stance_idea = {
			on_add = { log = "[GetDateText]: [Root.GetName]: add idea RAJ_anti_lgbtqa_stance_idea" }
			allowed = { always = no }
			picture = conservatism

			modifier = {
				political_power_factor = 0.05
				democratic_drift = -0.02
				nationalist_drift = 0.02
				stability_factor = -0.10
			}
		}

		RAJ_a_rising_power_idea = {
			on_add = { log = "[GetDateText]: [Root.GetName]: add idea RAJ_a_rising_power_idea" }
			allowed = { always = no }
			picture = india1

			modifier = {
				neutrality_drift = 0.03
				drift_defence_factor = 0.10
				political_power_factor = 0.25
				consumer_goods_factor = -0.05
				foreign_influence_defense_modifier = 0.25
			}
		}
		RAJ_Local_markets = {
			on_add = { log = "[GetDateText]: [Root.GetName]: add idea RAJ_Local_markets" }

			allowed_civil_war = {
				always = no
			}

			picture = export_bakdash

			modifier = {
				custom_modifier_tooltip = TT_SYR_BAKDASH_MODIFIER
				production_speed_buildings_factor = 0.05
			}
		}
	}
}
