###Created by Lord Bogdanoff
ideas = {
	country = {
		PMR_political_nation_idea = {
			on_add = { log = "[GetDateText]: [Root.GetName]: add idea PMR_political_nation_idea" }
			allowed = { always = no }
			picture = pmr_political_nation
			modifier = {
				political_power_gain = 0.02
			}
		}
		PMR_political_nation_idea1 = {
			on_add = { log = "[GetDateText]: [Root.GetName]: add idea PMR_political_nation_idea1" }
			allowed = { always = no }
			picture = pmr_political_nation
			name = PMR_political_nation_idea
			modifier = {
				political_power_gain = 0.05
				foreign_influence_defense_modifier = 0.15
			}
		}
		PMR_political_nation_idea2 = {
			on_add = { log = "[GetDateText]: [Root.GetName]: add idea PMR_political_nation_idea2" }
			allowed = { always = yes }
			name = PMR_political_nation_idea
			picture = pmr_political_nation
			cancel = {
				is_subject = yes
			}
			modifier = {
				political_power_gain = 0.06
				foreign_influence_defense_modifier = 0.18
				army_core_defence_factor = 0.05
			}
		}
		PMR_develop_turism = {
			picture = tourism
			modifier = {
				tax_gain_multiplier_modifier = 0.02
			}
		}
		PMR_political_nation_idea3 = {
			on_add = { log = "[GetDateText]: [Root.GetName]: add idea PMR_political_nation_idea3" }
			allowed = { always = no }
			picture = pmr_political_nation
			name = PMR_political_nation_idea
			modifier = {
				political_power_gain = 0.08
				foreign_influence_defense_modifier = 0.20
				army_core_defence_factor = 0.10
			}
		}
		PMR_political_nation_idea4 = {
			on_add = { log = "[GetDateText]: [Root.GetName]: add idea PMR_political_nation_idea3" }
			allowed = { always = no }
			picture = sov_governorate_idea
			modifier = {
				political_power_gain = 0.10
				foreign_influence_defense_modifier = 0.25
				army_core_defence_factor = 0.15
			}
		}
		PMR_trans_libelaralism = {
			on_add = { log = "[GetDateText]: [Root.GetName]: add idea PMR_trans_libelaralism" }
			allowed = { always = no }
			picture = pmr_liberals
			modifier = {
				political_power_factor = 0.10
				democratic_drift = 0.02
				social_cost_multiplier_modifier = -0.05
			}
		}
		PMR_father_nation_idea = {
			on_add = { log = "[GetDateText]: [Root.GetName]: add idea PMR_father_nation_idea" }
			allowed = { always = no }
			picture = pmr_father_nation
			cancel = {
				NOT = {
					OR = {
						emerging_autocracy_are_in_power = yes
						emerging_reactionaries_are_in_power = yes
					}
				}
			}
			modifier = {
				communism_drift = 0.01
				stability_factor = -0.1
				drift_defence_factor = 0.10
				political_power_gain = 0.03
			}
		}
		PMR_father_nation_idea1 = {
			on_add = { log = "[GetDateText]: [Root.GetName]: add idea PMR_father_nation_idea1" }
			allowed = { always = no }
			picture = pmr_father_nation
			name = PMR_father_nation_idea
			cancel = {
				NOT = {
					OR = {
						emerging_autocracy_are_in_power = yes
						emerging_reactionaries_are_in_power = yes
					}
				}
			}
			modifier = {
				communism_drift = 0.01
				stability_factor = -0.12
				drift_defence_factor = 0.10
				political_power_gain = 0.03
				industrial_capacity_factory = -0.25
			}
		}
		PMR_father_nation_idea2 = {
			on_add = { log = "[GetDateText]: [Root.GetName]: add idea PMR_father_nation_idea2" }
			allowed = { always = no }
			picture = pmr_father_nation
			name = PMR_father_nation_idea
			cancel = {
				NOT = {
					OR = {
						emerging_autocracy_are_in_power = yes
						emerging_reactionaries_are_in_power = yes
					}
				}
			}
			modifier = {
				communism_drift = 0.02
				democratic_drift = -0.01
				nationalist_drift = -0.01
				stability_factor = -0.14
				drift_defence_factor = 0.15
				political_power_gain = 0.04
				industrial_capacity_factory = -0.25
			}
		}
		PMR_father_nation_idea3 = {
			on_add = { log = "[GetDateText]: [Root.GetName]: add idea PMR_father_nation_idea3" }
			allowed = { always = no }
			picture = pmr_father_nation
			name = PMR_father_nation_idea
			cancel = {
				NOT = {
					OR = {
						emerging_autocracy_are_in_power = yes
						emerging_reactionaries_are_in_power = yes
					}
				}
			}
			modifier = {
				communism_drift = 0.03
				democratic_drift = -0.02
				nationalist_drift = -0.02
				stability_factor = -0.18
				drift_defence_factor = 0.25
				political_power_gain = 0.06
				industrial_capacity_factory = -0.30
			}
		}
		PMR_father_nation_idea4 = {
			on_add = { log = "[GetDateText]: [Root.GetName]: add idea PMR_father_nation_idea4" }
			allowed = { always = no }
			picture = pmr_father_nation
			name = PMR_father_nation_idea
			cancel = {
				NOT = {
					OR = {
						emerging_autocracy_are_in_power = yes
						emerging_reactionaries_are_in_power = yes
					}
				}
			}
			modifier = {
				communism_drift = 0.07
				democratic_drift = -0.04
				nationalist_drift = -0.04
				stability_factor = -0.22
				drift_defence_factor = 0.40
				political_power_gain = 0.12
				industrial_capacity_factory = -0.30
			}
		}
		PMR_internet_cencor = {
			on_add = { log = "[GetDateText]: [Root.GetName]: add idea PMR_internet_cencor" }
			allowed = { always = no }
			picture = blr_internet_cencorship_economic
			modifier = {
				stability_factor = -0.03
				drift_defence_factor = 0.08
			}
		}
		PMR_ruble_efffect_idea = {
			on_add = { log = "[GetDateText]: [Root.GetName]: add idea PMR_ruble_efffect_idea" }
			allowed = { always = no }
			picture = sov_republic_rf
			cancel = {
				OR = {
					has_war_with = SOV
					is_subject = yes
					NOT = {
						country_exists = SOV
					}
				}
			}
			modifier = {
				custom_modifier_tooltip = SOV_potocs_influency_TT
				political_power_factor = 0.02
				stability_factor = -0.05
				economic_cycles_cost_factor = 0.12
				tax_gain_multiplier_modifier = -0.05
			}
		}
		PMR_grivna_efffect_idea = {
			on_add = { log = "[GetDateText]: [Root.GetName]: add idea PMR_grivna_efffect_idea" }
			allowed = { always = no }
			picture = ukrainian_state
			cancel = {
				OR = {
					has_war_with = UKR
					is_subject = yes
					NOT = {
						country_exists = UKR
					}
				}
			}
			modifier = {
				custom_modifier_tooltip = PMR_ukraine_influency_TT
				political_power_factor = 0.02
				stability_factor = -0.05
				economic_cycles_cost_factor = 0.12
				tax_gain_multiplier_modifier = -0.05
			}
		}
		PMR_annex_efffect_idea = {
			on_add = { log = "[GetDateText]: [Root.GetName]: add idea PMR_annex_efffect_idea" }
			allowed = { always = no }
			picture = pmr_economic_integration_mlv_idea
			modifier = {
				stability_factor = -0.1
				tax_gain_multiplier_modifier = -0.1
				economic_cycles_cost_factor = 0.3
			}
		}
		
		PMR_highway_focus = {
			on_add = { log = "[GetDateText]: [Root.GetName]: add idea PMR_highway_focus" }
			allowed = { always = no }
			picture = economic_road_idea
			modifier = {
				production_speed_infrastructure_factor = 0.15
			}
		}
		PMR_civil_war = {
			on_add = { log = "[GetDateText]: [Root.GetName]: add idea PMR_civil_war" }
			allowed = { always = no }
			picture = pmr_civil_war2
			cancel = {
				has_war = no
			}
			modifier = {
				political_power_factor = 0.02
				democratic_drift = -0.01
				nationalist_drift = 0.01
				communism_drift = 0.01
			}
		}
		PMR_russian_legacy = {
			on_add = { log = "[GetDateText]: [Root.GetName]: add idea PMR_russian_legacy" }
			allowed = { always = no }
			picture = SOV_russian_legacy
			modifier = {
				drift_defence_factor = 0.50
				democratic_drift = -0.05
			}
		}
		PMR_russian_legacy1 = {
			on_add = { log = "[GetDateText]: [Root.GetName]: add idea PMR_russian_legacy1" }
			allowed = { always = no }
			picture = SOV_russian_legacy
			name = PMR_russian_legacy
			modifier = {
				drift_defence_factor = 0.50
				democratic_drift = -0.05
				nationalist_drift = 0.02
			}
		}
		PMR_russian_legacy2 = {
			on_add = { log = "[GetDateText]: [Root.GetName]: add idea PMR_russian_legacy2" }
			allowed = { always = no }
			picture = SOV_russian_legacy
			name = PMR_russian_legacy
			modifier = {
				drift_defence_factor = 0.50
				democratic_drift = -0.05
				nationalist_drift = 0.04
				communism_drift = -0.02
			}
		}
		

		PMR_anti_gays = {
			on_add = { log = "[GetDateText]: [Root.GetName]: add idea PMR_anti_gays" }
			allowed = { always = no }
			picture = anti_lgbt
			cancel = {
				has_government = democratic
			}
			modifier = {
				political_power_factor = 0.02
				democratic_drift = -0.01
				nationalist_drift = 0.01
				communism_drift = 0.01
				monthly_population = 0.04
			}
		}
		
		PMR_decommunization = {
			on_add = { log = "[GetDateText]: [Root.GetName]: add idea PMR_decommunization" }
			allowed = { always = no }
			picture = sov_comm_angry
			cancel = {
				emerging_communist_state_are_in_power = yes
			}
			modifier = {
				communism_drift = -0.03
			}
		}
		PMR_rule_romanov = {
			on_add = { log = "[GetDateText]: [Root.GetName]: add idea PMR_rule_romanov" }
			allowed = { always = no }
			picture = pmr_romanovs
			cancel = {
				NOT = {
					nationalist_monarchists_are_in_power = yes
				}
			}
			modifier = {
				nationalist_drift = 0.02
				stability_factor = 0.03
			}
		}
		PMR_rule_romanov1 = {
			on_add = { log = "[GetDateText]: [Root.GetName]: add idea PMR_rule_romanov1" }
			allowed = { always = no }
			picture = pmr_romanovs
			name = PMR_rule_romanov
			cancel = {
				NOT = {
					nationalist_monarchists_are_in_power = yes
				}
			}
			modifier = {
				nationalist_drift = 0.03
				stability_factor = 0.01
				political_power_factor = 0.05
			}
		}
		PMR_rule_romanov2 = {
			on_add = { log = "[GetDateText]: [Root.GetName]: add idea PMR_rule_romanov2" }
			allowed = { always = no }
			picture = pmr_romanovs
			name = PMR_rule_romanov
			cancel = {
				NOT = {
					nationalist_monarchists_are_in_power = yes
				}
			}
			modifier = {
				war_support_factor = 0.05
				democratic_drift = -0.02
				nationalist_drift = 0.05
				stability_factor = 0.01
				political_power_factor = 0.05
			}
		}
		PMR_rule_romanov3 = {
			on_add = { log = "[GetDateText]: [Root.GetName]: add idea PMR_rule_romanov3" }
			allowed = { always = no }
			picture = pmr_romanovs
			name = PMR_rule_romanov
			cancel = {
				NOT = {
					nationalist_monarchists_are_in_power = yes
				}
			}
			modifier = {
				war_support_factor = 0.05
				democratic_drift = -0.02
				nationalist_drift = 0.05
				stability_factor = 0.01
				political_power_factor = 0.05
				army_morale_factor = 0.03
				army_org_factor = 0.01
				army_attack_factor = 0.05
			}
		}
		PMR_emperess_maria_idea = {
			on_add = { log = "[GetDateText]: [Root.GetName]: add PMR_emperess_maria_idea" }
			allowed_civil_war = { always = yes }
			picture = ura_zdravnica_idea
			cancel = {
				NOT = { nationalist_monarchists_are_in_power = yes }
			}
			modifier = {
				social_cost_multiplier_modifier = 0.06
				health_cost_multiplier_modifier = 0.06
				stability_factor = 0.03
				production_speed_buildings_factor = 0.04
			}
		}
		PMR_royal_leib_guard_idea = {
			on_add = { log = "[GetDateText]: [Root.GetName]: add PMR_royal_leib_guard_idea" }
			allowed_civil_war = { always = yes }
			picture = ura_leib_guard_iIdea
			cancel = {
				NOT = { nationalist_monarchists_are_in_power = yes }
			}
			modifier = {
				modifier_army_sub_unit_Special_Forces_attack_factor = 0.05
				modifier_army_sub_unit_Special_Forces_defence_factor = 0.05
				modifier_army_sub_unit_Special_Forces_speed_factor = 0.05
				army_morale_factor = 0.075
				army_org_factor = 0.075
				nationalist_drift = 0.02
			}
		}

		PMR_free_weapons = {
			on_add = { log = "[GetDateText]: [Root.GetName]: add idea PMR_free_weapons" }
			allowed = { always = no }
			picture = anti_lgbt
			modifier = {
				production_speed_arms_factory_factor = 0.15
				bureaucracy_cost_multiplier_modifier = 0.10
				police_cost_multiplier_modifier = 0.10
			}
		}
		PMR_exercises = {
			on_add = { log = "[GetDateText]: [Root.GetName]: add idea PMR_exercises" }
			allowed = { always = no }
			picture = sov_tos_idea
			modifier = {
				experience_gain_army_factor = 0.25
				army_org_factor = 0.1
				war_support_factor = 0.05
				war_support_weekly = 0.01
			}
		}
		PMR_14_army = {
			on_add = { log = "[GetDateText]: [Root.GetName]: add idea PMR_14_army" }
			allowed = {	original_tag = PMR }
			picture = pmr_14_army
			cancel = {
				OR = {
					has_war_with = SOV
					NOT = { country_exists = SOV }
				}
			}
			modifier = {
				political_power_gain = -0.10
				stability_factor = 0.15
				required_garrison_factor = -0.2
				resistance_activity = -0.2
				civilian_intel_to_others = 50
				custom_modifier_tooltip = SOV_potocs_influency_TT
				hidden_modifier = {
					ai_focus_peaceful_factor = 0.20
				}
			}
		}
		PMR_ukr_army = {
			on_add = { log = "[GetDateText]: [Root.GetName]: add idea PMR_ukr_army" }
			allowed = {	original_tag = PMR }
			picture = ukr_vsu_idea
			cancel = {
				OR = {
					has_war_with = UKR
					NOT = { country_exists = UKR }
				}
			}
			modifier = {
				political_power_gain = -0.10
				stability_factor = 0.15
				required_garrison_factor = -0.2
				resistance_activity = -0.2
				civilian_intel_to_others = 50
				custom_modifier_tooltip = PMR_ukraine_influency_TT
				hidden_modifier = {
					ai_focus_peaceful_factor = 0.20
				}
			}
		}
		PMR_anti_corruption_fight = {
			on_add = { log = "[GetDateText]: [Root.GetName]: add idea PMR_anti_corruption_fight" }
			allowed = {	original_tag = PMR }
			picture = pmr_sheriff
			modifier = {
				corruption_cost_factor = -0.15
			}
		}
		
		PMR_sheriff = {
			on_add = { log = "[GetDateText]: [Root.GetName]: add idea PMR_sheriff" }
			allowed = {	original_tag = PMR }
			picture = pmr_sheriff
			cancel = {
				has_country_flag = PMR_sheriff_finish
			}
			modifier = {
				political_power_gain = 0.06
				stability_factor = -0.10
				foreign_influence_defense_modifier = 0.27
				corruption_cost_factor = 0.25
				tax_gain_multiplier_modifier = 0.10
				neutrality_drift = 0.03
			}
		}
		PMR_sheriff1 = {
			on_add = { log = "[GetDateText]: [Root.GetName]: add idea PMR_sheriff1" }
			allowed = {	original_tag = PMR }
			picture = pmr_sheriff
			name = PMR_sheriff
			cancel = {
				has_country_flag = PMR_sheriff_finish
			}
			modifier = {
				political_power_gain = 0.07
				stability_factor = -0.11
				foreign_influence_defense_modifier = 0.29
				corruption_cost_factor = 0.28
				tax_gain_multiplier_modifier = 0.12
				neutrality_drift = 0.03
			}
		}
		PMR_sheriff2 = {
			on_add = { log = "[GetDateText]: [Root.GetName]: add idea PMR_sheriff2" }
			allowed = {	original_tag = PMR }
			picture = pmr_sheriff
			name = PMR_sheriff
			cancel = {
				has_country_flag = PMR_sheriff_finish
			}
			modifier = {
				political_power_gain = 0.08
				stability_factor = -0.12
				foreign_influence_defense_modifier = 0.31
				corruption_cost_factor = 0.31
				tax_gain_multiplier_modifier = 0.14
				neutrality_drift = 0.03
			}
		}
		PMR_sheriff3 = {
			on_add = { log = "[GetDateText]: [Root.GetName]: add idea PMR_sheriff3" }
			allowed = {	original_tag = PMR }
			picture = pmr_sheriff
			name = PMR_sheriff
			cancel = {
				has_country_flag = PMR_sheriff_finish
			}
			modifier = {
				political_power_gain = 0.08
				stability_factor = -0.13
				foreign_influence_defense_modifier = 0.31
				corruption_cost_factor = 0.32
				tax_gain_multiplier_modifier = 0.17
				neutrality_drift = 0.04
			}
		}
		PMR_sheriff4 = {
			on_add = { log = "[GetDateText]: [Root.GetName]: add idea PMR_sheriff4" }
			allowed = {	original_tag = PMR }
			picture = pmr_sheriff
			name = PMR_sheriff
			cancel = {
				has_country_flag = PMR_sheriff_finish
			}
			modifier = {
				political_power_gain = 0.09
				stability_factor = -0.14
				foreign_influence_defense_modifier = 0.32
				corruption_cost_factor = 0.33
				tax_gain_multiplier_modifier = 0.20
				neutrality_drift = 0.04
			}
		}
		PMR_sheriff5 = {
			on_add = { log = "[GetDateText]: [Root.GetName]: add idea PMR_sheriff5" }
			allowed = {	original_tag = PMR }
			picture = pmr_sheriff
			name = PMR_sheriff
			cancel = {
				has_country_flag = PMR_sheriff_finish
			}
			modifier = {
				political_power_gain = 0.12
				stability_factor = -0.18
				foreign_influence_defense_modifier = 0.38
				corruption_cost_factor = 0.38
				tax_gain_multiplier_modifier = 0.22
				neutrality_drift = 0.05
			}
		}
		PMR_sheriff6 = {
			on_add = { log = "[GetDateText]: [Root.GetName]: add idea PMR_sheriff6" }
			allowed = {	original_tag = PMR }
			picture = pmr_sheriff
			name = PMR_sheriff
			cancel = {
				has_country_flag = PMR_sheriff_finish
			}
			modifier = {
				political_power_gain = 0.16
				stability_factor = -0.22
				foreign_influence_defense_modifier = 0.41
				corruption_cost_factor = 0.45
				tax_gain_multiplier_modifier = 0.24
				neutrality_drift = 0.05
			}
		}
		PMR_sheriff7 = {
			on_add = { log = "[GetDateText]: [Root.GetName]: add idea PMR_sheriff7" }
			allowed = {	original_tag = PMR }
			picture = pmr_sheriff
			cancel = {
				has_country_flag = PMR_sheriff_finish
			}
			modifier = {
				political_power_gain = 0.20
				stability_factor = -0.26
				foreign_influence_defense_modifier = 0.47
				corruption_cost_factor = 0.51
				tax_gain_multiplier_modifier = 0.26
				neutrality_drift = 0.06
			}
		}
		PMR_fragment_ussr = {
			on_add = { log = "[GetDateText]: [Root.GetName]: add idea PMR_fragment_ussr" }
			allowed = {	original_tag = PMR }
			picture = pmr_ussr_fragment
			modifier = {
				communism_drift = 0.02
			}
		}
		PMR_fragment_rus_empire = {
			on_add = { log = "[GetDateText]: [Root.GetName]: add idea PMR_fragment_rus_empire" }
			allowed = {	original_tag = PMR }
			picture = pmr_ros_empire
			modifier = {
				nationalist_drift = 0.04
			}
		}
		PMR_victory_moldova = {
			on_add = { log = "[GetDateText]: [Root.GetName]: add idea PMR_victory_moldova" }
			allowed = {	original_tag = PMR }
			picture = pmr_defeat_moldova
			modifier = {
				stability_factor = 0.1
				nationalist_drift = 0.01
				war_support_factor = 0.04
			}
			cancel = {
				NOT = {
					country_exists = MLV
				}
			}
			targeted_modifier = {
				tag = MLV
				attack_bonus_against = 0.05
				defense_bonus_against = 0.1
			}
		}
		############INTEGRATION IDEAS############
		#Political Integration
		PMR_reform_debuff = {
			on_add = { log = "[GetDateText]: [Root.GetName]: add idea PMR_reform_debuff" }
			allowed = { always = no }
			picture = pmr_polit_integration_mlv_idea
			modifier = {
				bureaucracy_cost_multiplier_modifier = 0.25
				political_power_gain = 0.03
			}
		}
		############COMMUNIST IDEAS############
		#Five Year Plan
		PMR_five_year_plans_idea = {
			on_add = { log = "[GetDateText]: [Root.GetName]: add PMR_five_year_plans_idea" }
			picture = blr_communist_economy_org
			allowed_civil_war = { always = yes }
			modifier = {
				consumer_goods_factor = -0.05
				production_speed_buildings_factor = 0.25
				civilian_factories_productivity = 0.12
			}
		}
		#Anti Corruption 
		PMR_anti_corruption = {
			picture = pmr_anti_corruption_idea
			cancel = {
				NOT = {
					emerging_communist_state_are_in_power = yes
				}
			}
			modifier = {
				corruption_cost_factor = -0.15
			}
		}
		#Revoult Spirits
		PMR_revoult_spirits_idea = {
			on_add = { log = "[GetDateText]: [Root.GetName]: add idea PMR_revoult_spirits_idea" }
			allowed = { always = no }
			allowed_civil_war = {
				always = yes
			}
			cancel = {
				NOT = {
					emerging_communist_state_are_in_power = yes
				}
			}
			picture = pmr_revoult_spirit_idea
			modifier = {
				send_volunteer_divisions_required = -0.15
				send_volunteers_tension = -0.05
			}
		}
		#Interbrigade
		PMR_interbrigade_idea = {
			on_add = { log = "[GetDateText]: [Root.GetName]: add idea PMR_interbrigade_idea" }
			picture = pmr_interbrigades_idea
			allowed = { always = no }
			allowed_civil_war = {
				always = yes
			}
			cancel = {
				NOT = {
					emerging_communist_state_are_in_power = yes
				}
			}
			modifier = {
				send_volunteers_tension = -0.15
			}
		}
		#Communist Education
		PMR_commi_education = {
			on_add = { log = "[GetDateText]: [Root.GetName]: add idea PMR_commi_education" }
			allowed = { always = no }
			picture = pmr_socialist_education_idea
			cancel = {
				NOT = {
					emerging_communist_state_are_in_power = yes
				}
			}
			modifier = {
				research_speed_factor = 0.05
				education_cost_multiplier_modifier = 0.05
				projects_cost_modifier = -0.10
			}
		}
		#Control Economic
		PMR_control_economic_idea = {
			on_add = { log = "[GetDateText]: [Root.GetName]: add idea PMR_control_economic_idea" }
			allowed = { always = yes }
			picture = pmr_commandno_idea
			cancel = {
				NOT = {
					emerging_communist_state_are_in_power = yes
				}
			}
			modifier = {
				consumer_goods_factor = -0.03
				political_power_factor = -0.05
				population_tax_income_multiplier_modifier = 0.10
			}
		}
		#Collectivism
		PMR_collectivism_idea = {
			on_add = {
				log = "[GetDateText]: [Root.GetName]: add idea PMR_collectivism_idea"
			}
			allowed = { always = yes }
			picture = pmr_collectivism_idea
			cancel = {
				NOT = {
					emerging_communist_state_are_in_power = yes
				}
			}

			modifier = {
				stability_factor = 0.025
				social_cost_multiplier_modifier = 0.05
				econ_cycle_upg_cost_multiplier_modifier = -0.05
				economic_cycles_cost_factor = -0.10
			}
		}
		#Rights of Workers
		PMR_the_rights_of_the_worker_idea = {
			on_add = { log = "[GetDateText]: [Root.GetName]: add idea PMR_the_rights_of_the_worker_idea" }
			allowed = { always = no }
			picture = pmr_workers_idea
			cancel = {
				NOT = {
					emerging_communist_state_are_in_power = yes
				}
			}

			modifier = {
				consumer_goods_factor = -0.01
				political_power_factor = 0.05
				drift_defence_factor = 0.05
			}
		}
		#Marxist Reeducation
		PMR_marxist_reeducation_idea = {
			on_add = { log = "[GetDateText]: [Root.GetName]: add idea PMR_marxist_reeducation_idea" }
			allowed = { always = no }
			picture = pmr_marxism_idea
			cancel = {
				NOT = {
					emerging_communist_state_are_in_power = yes
				}
			}

			modifier = {
				stability_factor = -0.05
				education_cost_multiplier_modifier = 0.05
				political_power_factor = 0.05
				communism_drift = 0.05
			}
		}
		#Chinese Economic Experience
		PMR_chinese_economic = {
			on_add = { log = "[GetDateText]: [Root.GetName]: add idea PMR_chinese_economic" }
			allowed = { always = no }
			picture = pmr_china_economic_idea
			cancel = {
				OR = {
					has_war_with = CHI
					is_subject = yes
					NOT = {
						country_exists = CHI
					}
					NOT = { 
						emerging_communist_state_are_in_power = yes 
					}
				}
			}
			modifier = {
				custom_modifier_tooltip = PMR_chinese_economic_tt
				communism_drift = 0.02
				research_speed_factor = -0.02
				production_factory_efficiency_gain_factor = -0.02
				production_speed_industrial_complex_factor = -0.02
				trade_opinion_factor = -0.02
				consumer_goods_factor = -0.02
				production_speed_arms_factory_factor = 0.02
				corruption_cost_factor = -0.02
			}
		}
		############JUST TRANSNISTRIA IDEAS############
		#United People of Transnistria
		PMR_great = {
			on_add = { log = "[GetDateText]: [Root.GetName]: add idea PMR_great" }
			allowed = {	original_tag = PMR }
			picture = pmr_republic_patriotism_idea
			cancel = {
				NOT = {
					OR = {
						emerging_anarchist_communism_are_in_power = yes
						AND = {
							nationalist_military_junta_are_in_power = yes
							emerging_anarchist_communism_are_in_power = yes
						}
						AND = {
							emerging_communist_state_are_in_power = yes
							emerging_anarchist_communism_are_in_power = yes
						}
					}
				}
			}
			modifier = {
				political_power_factor = 0.10
				stability_factor = 0.05
				industrial_capacity_factory = 0.10
				foreign_influence_defense_modifier = 0.05
				foreign_influence_modifier = 0.05
				consumer_goods_factor = 0.05
			}
		}
		#Social Programs
		PMR_social_program = {
			on_add = { log = "[GetDateText]: [Root.GetName]: add idea PMR_social_program" }
			allowed = { always = no }
			allowed_civil_war = { always = yes }
			picture = pmr_republic_social_idea
			cancel = {
				NOT = {
					OR = {
						emerging_anarchist_communism_are_in_power = yes
						AND = {
							nationalist_military_junta_are_in_power = yes
							emerging_anarchist_communism_are_in_power = yes
						}
						AND = {
							emerging_communist_state_are_in_power = yes
							emerging_anarchist_communism_are_in_power = yes
						}
					}
				}
			}
			modifier = {
				stability_factor = 0.05
				monthly_population = 0.05
				production_speed_infrastructure_factor = 0.2
				consumer_goods_factor = 0.02
				social_cost_multiplier_modifier = 0.05
			}
		}
		#Social Programs
		PMR_social_program1 = {
			on_add = { log = "[GetDateText]: [Root.GetName]: add idea PMR_increased_social_spending" }
			allowed = { always = no }
			picture = pmr_republic_social_idea
			cancel = {
				NOT = {
					OR = {
						emerging_anarchist_communism_are_in_power = yes
						AND = {
							nationalist_military_junta_are_in_power = yes
							emerging_anarchist_communism_are_in_power = yes
						}
						AND = {
							emerging_communist_state_are_in_power = yes
							emerging_anarchist_communism_are_in_power = yes
						}
					}
				}
			}
			name = PMR_social_program
			modifier = {
				social_cost_multiplier_modifier = 0.07
				health_cost_multiplier_modifier = 0.07
				stability_factor = 0.1
				monthly_population = 0.05
				production_speed_infrastructure_factor = 0.2
				consumer_goods_factor = 0.04
			}
		}
		#Social Programs
		PMR_social_program2 = {
			on_add = { log = "[GetDateText]: [Root.GetName]: add idea PMR_increased_social_spending" }
			allowed = { always = no }
			picture = pmr_republic_social_idea
			cancel = {
				NOT = {
					OR = {
						emerging_anarchist_communism_are_in_power = yes
						AND = {
							nationalist_military_junta_are_in_power = yes
							emerging_anarchist_communism_are_in_power = yes
						}
						AND = {
							emerging_communist_state_are_in_power = yes
							emerging_anarchist_communism_are_in_power = yes
						}
					}
				}
			}
			name = PMR_social_program
			modifier = {
				industrial_capacity_factory = -0.10
				social_cost_multiplier_modifier = 0.12
				health_cost_multiplier_modifier = 0.12
				stability_factor = 0.12
				monthly_population = 0.10
				production_speed_infrastructure_factor = 0.1
				consumer_goods_factor = -0.03
			}
		}
		#GOS PLAN 2.0
		PMR_gos_plans_idea = {
			on_add = { log = "[GetDateText]: [Root.GetName]: add PMR_gos_plans_idea" }
			picture = pmr_republic_gosplan_idea
			allowed_civil_war = { always = yes }
			modifier = {
				consumer_goods_factor = -0.05
				production_speed_buildings_factor = 0.25
				civilian_factories_productivity = 0.12
			}
		}
		#Luxury tax
		PMR_luxury_tax_idea = {
			on_add = { log = "[GetDateText]: [Root.GetName]: add PMR_luxury_tax_idea" }
			allowed_civil_war = { always = yes }
			picture = gold
			cancel = {
				NOT = {
					OR = {
						nationalist_monarchists_are_in_power = yes
						emerging_anarchist_communism_are_in_power = yes
						AND = {
							nationalist_military_junta_are_in_power = yes
							emerging_anarchist_communism_are_in_power = yes
						}
						AND = {
							emerging_communist_state_are_in_power = yes
							emerging_anarchist_communism_are_in_power = yes
						}
					}
				}
			}
			modifier = {
				tax_gain_multiplier_modifier = 0.03
			}
		}
		############LIBERAL IDEAS############
		PMR_reform_debuff1 = {
			on_add = { log = "[GetDateText]: [Root.GetName]: add idea PMR_reform_debuff1" }
			allowed = { always = no }
			picture = pmr_polit_integration_mlv_idea
			cancel = {
				NOT = {
					MLV = {
						is_subject = no
					}
					is_subject = no
					has_government = democratic
					country_exists = MLV
				}
			}
			modifier = {
				custom_modifier_tooltip = PMR_MLV_influence_tt
				bureaucracy_cost_multiplier_modifier = 0.15
				political_power_gain = 0.02
			}
		}
		PMR_annex_efffect_idea1 = {
			on_add = { log = "[GetDateText]: [Root.GetName]: add idea PMR_annex_efffect_idea1" }
			allowed = { always = no }
			picture = pmr_economic_integration_mlv_idea
			cancel = {
				NOT = {
					MLV = {
						is_subject = no
					}
					is_subject = no
					has_government = democratic
					country_exists = MLV
				}
			}
			modifier = {
				custom_modifier_tooltip = PMR_MLV_influence_tt
				political_power_gain = 0.04
				tax_gain_multiplier_modifier = -0.1
				economic_cycles_cost_factor = 0.3
			}
		}
		PMR_army_efffect_idea1 = {
			on_add = { log = "[GetDateText]: [Root.GetName]: add idea PMR_army_efffect_idea1" }
			allowed = { always = no }
			picture = army_good_officer
			cancel = {
				NOT = {
					MLV = {
						is_subject = no
					}
					is_subject = no
					has_government = democratic
					country_exists = MLV
				}
			}
			modifier = {
				custom_modifier_tooltip = PMR_MLV_influence_tt
				personnel_cost_multiplier_modifier = 0.25
				political_power_gain = 0.04
			}
		}
		PMR_investors_idea = {
			on_add = { log = "[GetDateText]: [Root.GetName]: add idea PMR_investors_idea" }
			allowed = { always = no }
			picture = foreign_capital
			modifier = {
				tax_gain_multiplier_modifier = 0.10
				research_speed_factor = 0.05
			}
		}
		PMR_western_market_idea = {
			on_add = { log = "[GetDateText]: [Root.GetName]: add idea PMR_western_market_idea" }
			allowed = { always = no }
			picture = economic_increase
			modifier = {
				faction_trade_opinion_factor = 0.2
				opinion_gain_monthly_same_ideology_factor = 0.1
			}
		}
		############LEBED IDEAS############
		PMR_lebed_policy_idea = {
			on_add = { log = "[GetDateText]: [Root.GetName]: add idea PMR_lebed_policy_idea" }
			allowed = { always = yes }
			picture = pmr_lebed_policy_idea
			cancel = {
				NOT = {
					nationalist_military_junta_are_in_power = yes
				}
			}
			modifier = {
				political_power_gain = 0.05
				bureaucracy_cost_factor = -0.05
				Military_Spending_cost_factor = -0.05
			}
		}
		PMR_lebed_policy_idea1 = {
			on_add = { log = "[GetDateText]: [Root.GetName]: add idea PMR_lebed_policy_idea1" }
			name = PMR_lebed_policy_idea
			allowed = { always = yes }
			picture = pmr_lebed_policy_idea
			cancel = {
				NOT = {
					nationalist_military_junta_are_in_power = yes
				}
			}
			modifier = {
				political_power_gain = 0.05
				bureaucracy_cost_factor = -0.05
				Military_Spending_cost_factor = -0.05
				communism_drift = -0.08
			}
		}
		PMR_lebed_policy_idea2 = {
			on_add = { log = "[GetDateText]: [Root.GetName]: add idea PMR_lebed_policy_idea2" }
			name = PMR_lebed_policy_idea
			allowed = { always = yes }
			picture = pmr_lebed_policy_idea
			cancel = {
				NOT = {
					nationalist_military_junta_are_in_power = yes
				}
			}
			modifier = {
				political_power_gain = 0.05
				bureaucracy_cost_factor = -0.05
				Military_Spending_cost_factor = -0.05
				communism_drift = -0.08
				nationalist_drift = 0.05
			}
		}
		PMR_lebed_policy_idea3 = {
			on_add = { log = "[GetDateText]: [Root.GetName]: add idea PMR_lebed_policy_idea3" }
			name = PMR_lebed_policy_idea
			allowed = { always = yes }
			picture = pmr_lebed_policy_idea
			cancel = {
				NOT = {
					nationalist_military_junta_are_in_power = yes
				}
			}
			modifier = {
				political_power_gain = 0.06
				bureaucracy_cost_factor = -0.05
				Military_Spending_cost_factor = -0.05
				communism_drift = -0.08
				nationalist_drift = 0.06
				nationalist_acceptance = 35
				propaganda_campaign_cost_modifier = -0.1
			}
		}
		PMR_lebed_policy_idea4 = {
			on_add = { log = "[GetDateText]: [Root.GetName]: add idea PMR_lebed_policy_idea4" }
			name = PMR_lebed_policy_idea
			allowed = { always = yes }
			picture = pmr_lebed_policy_idea
			cancel = {
				NOT = {
					nationalist_military_junta_are_in_power = yes
				}
			}
			modifier = {
				political_power_gain = 0.07
				bureaucracy_cost_factor = -0.05
				Military_Spending_cost_factor = -0.05
				communism_drift = -0.08
				nationalist_drift = 0.06
				nationalist_acceptance = 45
				propaganda_campaign_cost_modifier = -0.1
				conscription_factor = 0.03
			}
		}
		PMR_anti_west_idea = {
			on_add = { log = "[GetDateText]: [Root.GetName]: add idea PMR_anti_west_idea" }
			allowed = { always = no }
			picture = blr_nazbol_antiwest
			cancel = {
				has_government = democratic
			}
			modifier = {
				democratic_drift = -0.08
			}
			targeted_modifier = {
				tag = ENG
				attack_bonus_against = 0.02
				defense_bonus_against = 0.02
				breakthrough_bonus_against = 0.02
			}
			targeted_modifier = {
				tag = USA
				attack_bonus_against = 0.02
				defense_bonus_against = 0.02
				breakthrough_bonus_against = 0.02
			}
			targeted_modifier = {
				tag = GER
				attack_bonus_against = 0.02
				defense_bonus_against = 0.02
				breakthrough_bonus_against = 0.02
			}
			targeted_modifier = {
				tag = FRA
				attack_bonus_against = 0.02
				defense_bonus_against = 0.02
				breakthrough_bonus_against = 0.02
			}
			targeted_modifier = {
				tag = POL
				attack_bonus_against = 0.02
				defense_bonus_against = 0.02
				breakthrough_bonus_against = 0.02
			}
		}
		PMR_corruption_dead_in_govern_idea = {
			on_add = { log = "[GetDateText]: [Root.GetName]: add idea PMR_corruption_dead_in_govern_idea" }
			allowed = { always = yes }
			picture = pmr_reform_govern_idea
			cancel = {
				NOT = {
					nationalist_military_junta_are_in_power = yes
				}
			}
			modifier = {
				corruption_cost_factor = -0.10
				political_power_gain = 0.05
				stability_factor = 0.05
			}
		}
		PMR_encouraged_foreign_investments_idea = {
			on_add = { log = "[GetDateText]: [Root.GetName]: add idea PMR_encouraged_foreign_investments_idea" }
			picture = pmr_invest_idea
			allowed = { always = yes }
			cancel = {
				is_subject = yes
			}
			modifier = {
				receiving_investment_duration_modifier = -0.10
				receiving_investment_cost_modifier = -0.05
				return_on_investment_modifier = 0.02
			}
		}
		#Kazachestvo
		PMR_kazachestvo = {
			on_add = { log = "[GetDateText]: [Root.GetName]: add idea PMR_kazachestvo" }
			picture = pmr_kazaki
			allowed = {	original_tag = PMR }
			modifier = {
				drift_defence_factor = 0.05
				army_core_defence_factor = 0.03
				army_attack_factor = 0.05
			}
		}
		#Kazachestvo
		PMR_kazachestvo1 = {
			on_add = { log = "[GetDateText]: [Root.GetName]: add idea PMR_kazachestvo1" }
			picture = pmr_kazaki
			name = PMR_kazachestvo
			allowed = {	original_tag = OPR }
			modifier = {
				drift_defence_factor = 0.05
				army_core_defence_factor = 0.03
				army_attack_factor = 0.05
			}
		}
		#Anti Ukraine
		PMR_doctrine_ukraine = {
			on_add = { log = "[GetDateText]: [Root.GetName]: add idea PMR_doctrine_ukraine" }
			allowed = {	original_tag = PMR }
			picture = pmr_doctrine_ukr
			targeted_modifier = {
				tag = UKR
				attack_bonus_against = 0.05
				defense_bonus_against = 0.05
			}
		}
		#Anti Romania
		PMR_doctrine_romania = {
			on_add = { log = "[GetDateText]: [Root.GetName]: add idea PMR_doctrine_romania" }
			allowed = {	original_tag = PMR }
			picture = pmr_doctrine_rom
			targeted_modifier = {
				tag = ROM
				attack_bonus_against = 0.05
				defense_bonus_against = 0.05
			}
		}
		#Transnistrian Economy
		PMR_transnistrian_economy_idea = {
			on_add = { log = "[GetDateText]: [THIS.GetName]: add idea PMR_transnistrian_economy_idea" }
			allowed = { always = yes }
			picture = pmr_economic_all_idea
			modifier = {
				custom_modifier_tooltip = PMR_transnistiran_economy_idea_tt
			}
		}
		#Transnistrian Army
		PMR_transnistrian_army_idea = {
			on_add = { log = "[GetDateText]: [THIS.GetName]: add idea PMR_transnistrian_army_idea" }
			allowed = { always = yes }
			picture = pmr_new_army
			modifier = {
				custom_modifier_tooltip = PMR_transnistrian_army_idea_tt
			}
		}
		#Transnistrian Mvd
		PMR_transnistrian_mvd_idea = {
			on_add = { log = "[GetDateText]: [THIS.GetName]: add idea PMR_transnistrian_mvd_idea" }
			allowed = { always = yes }
			picture = pmr_security_idea
			modifier = {
				custom_modifier_tooltip = PMR_transnistiran_mvd_idea_tt
			}
		}
	}
	hidden_ideas = {
		#Denomination
		PMR_denomination_idea = {
			on_add = { log = "[GetDateText]: [Root.GetName]: add idea PMR_denomination_idea" }
			allowed = { always = no }
			picture = pmr_valute
			modifier = {
				stability_factor = -0.3
				tax_gain_multiplier_modifier = -0.2
				economic_cycles_cost_factor = 0.5
			}
		}
		#DnestTelekom
		PMR_sheriff_phones_idea = {
			on_add = { log = "[GetDateText]: [Root.GetName]: add idea PMR_sheriff_phones_idea" }
			allowed = { always = no }
			picture = sov_new_russia_economic_idea

			modifier = {
				corporate_tax_income_multiplier_modifier = 0.01
				production_speed_internet_station_factor = 0.02
			}
		}
		#Banks Sheriff
		PMR_sheriff_banks_idea = {
			on_add = { log = "[GetDateText]: [Root.GetName]: add idea PMR_sheriff_banks_idea" }
			picture = sov_new_russia_economic_idea
			allowed = { always = no }
			modifier = {
				corporate_tax_income_multiplier_modifier = 0.02
			}
		}
		#KVIT
		PMR_sheriff_kvit_idea = {
			on_add = { log = "[GetDateText]: [Root.GetName]: add idea PMR_sheriff_kvit_idea" }
			allowed = { always = yes }
			picture = sov_new_russia_economic_idea
			modifier = {
				agricolture_productivity_modifier = 0.02
			}
		}
		#Agroculture Sheriff
		PMR_sheriff_agro_idea = {
			on_add = { log = "[GetDateText]: [Root.GetName]: add idea PMR_sheriff_agro_idea" }
			allowed = { always = yes }
			picture = sov_new_russia_economic_idea
			modifier = {
				agriculture_workers_modifier = 0.02
				agricolture_productivity_modifier = 0.02
			}
		}
		#Agroculture Sheriff
		PMR_sheriff_agro_idea1 = {
			on_add = { log = "[GetDateText]: [Root.GetName]: add idea PMR_sheriff_agro_idea1" }
			allowed = { always = yes }
			picture = sov_new_russia_economic_idea
			name = PMR_sheriff_agro_idea
			modifier = {
				agriculture_workers_modifier = 0.04
				agricolture_productivity_modifier = 0.04
			}
		}
		#Railways
		PMR_jd_idea = {
			on_add = { log = "[GetDateText]: [Root.GetName]: add idea PMR_jd_idea" }
			allowed = { always = yes }
			picture = sov_new_russia_economic_idea
			modifier = {
				army_speed_factor = 0.01
				repair_speed_infrastructure_factor = 0.02
				production_speed_infrastructure_factor = 0.02
			}
		}
		#Rustas
		PMR_agro_idea = {
			on_add = { log = "[GetDateText]: [Root.GetName]: add idea PMR_agro_idea" }
			allowed = { always = yes }
			picture = blr_agro
			modifier = {
				agricolture_productivity_modifier = 0.02
				agriculture_tax_modifier = 0.03
			}
		}
		#Rustas
		PMR_agro_idea1 = {
			on_add = { log = "[GetDateText]: [Root.GetName]: add idea PMR_agro_idea1" }
			allowed = { always = yes }
			picture = blr_agro
			name = PMR_agro_idea
			modifier = {
				agricolture_productivity_modifier = 0.04
				agriculture_tax_modifier = 0.04
			}
		}
		#Romanian Investments
		PMR_rom_idea = {
			on_add = { log = "[GetDateText]: [Root.GetName]: add idea PMR_rom_idea" }
			allowed = { always = yes }
			picture = blr_agro
			modifier = {
				country_resource_steel = 1
				custom_modifier_tooltip = PMR_TopGeoServ_infl_tt
			}
			cancel = {
				OR = {
					has_war_with = ROM
					NOT = {
						country_exists = ROM
					}
				}
			}
			on_remove = {
				set_country_flag = PMR_rom_invest
			}
		}
		#Italian Investments
		PMR_ita_idea = {
			on_add = { log = "[GetDateText]: [Root.GetName]: add idea PMR_ita_idea" }
			allowed = { always = yes }
			picture = blr_agro
			modifier = {
				custom_modifier_tooltip = PMR_LA_infl_tt
				agricolture_productivity_modifier = 0.02
				agriculture_tax_modifier = 0.02
			}
			cancel = {
				OR = {
					has_war_with = ITA
					NOT = {
						country_exists = ITA
					}
				}
			}
			on_remove = {
				set_country_flag = PMR_ita_invest
			}
		}
		#German Investments
		PMR_ger_idea = {
			on_add = { log = "[GetDateText]: [Root.GetName]: add idea PMR_ger_idea" }
			allowed = { always = yes }
			picture = blr_agro
			modifier = {
				custom_modifier_tooltip = PMR_TerriPa_infl_tt
			}
			cancel = {
				OR = {
					has_war_with = GER
					NOT = {
						country_exists = GER
					}
				}
			}
			on_remove = {
				remove_building = {
					type = industrial_complex
					level = 1
				}
				set_country_flag = PMR_ger_invest
			}
		}
		#Austrian Investments
		PMR_aus_idea = {
			on_add = { log = "[GetDateText]: [Root.GetName]: add idea PMR_aus_idea" }
			allowed = { always = yes }
			picture = blr_agro
			modifier = {
				custom_modifier_tooltip = PMR_Magnezit_infl_tt
			}
			cancel = {
				OR = {
					has_war_with = AUS
					NOT = {
						country_exists = AUS
					}
				}
			}
			on_remove = {
				remove_building = {
					type = industrial_complex
					level = 1
				}
				set_country_flag = PMR_aus_invest
			}
		}
		#Russian Investments
		PMR_sov_idea = {
			on_add = { log = "[GetDateText]: [Root.GetName]: add idea PMR_sov_idea" }
			allowed = { always = yes }
			picture = blr_agro
			modifier = {
				custom_modifier_tooltip = PMR_MoldavKabel_infl_tt
			}
			cancel = {
				OR = {
					has_war_with = SOV
					NOT = {
						country_exists = SOV
					}
				}
			}
			on_remove = {
				remove_building = {
					type = industrial_complex
					level = 1
				}
				set_country_flag = PMR_sov_invest
			}
		}
		#Hungarian Investments
		PMR_hun_idea = {
			on_add = { log = "[GetDateText]: [Root.GetName]: add idea PMR_hun_idea" }
			allowed = { always = yes }
			picture = blr_agro
			modifier = {
				custom_modifier_tooltip = PMR_Tagep_infl_tt
			}
			cancel = {
				OR = {
					has_war_with = HUN
					NOT = {
						country_exists = HUN
					}
				}
			}
			on_remove = {
				remove_building = {
					type = industrial_complex
					level = 1
				}
				set_country_flag = PMR_hun_invest
			}
		}
		#Ukrainian Investments
		PMR_ukr_idea = {
			on_add = { log = "[GetDateText]: [Root.GetName]: add idea PMR_ukr_idea" }
			allowed = { always = yes }
			picture = sov_new_russia_economic_idea
			modifier = {
				steel_export_multiplier_modifier = 0.06
				country_resource_steel = 2
				custom_modifier_tooltip = PMR_MSW_infl_tt
			}
			cancel = {
				OR = {
					has_war_with = UKR
					NOT = {
						country_exists = UKR
					}
				}
			}
			on_remove = {
				set_country_flag = PMR_ukr_invest
			}
		}
		############ARMY IDEAS############
		#Outdated Airforce
		PMR_null_airforce = {
			on_add = { log = "[GetDateText]: [Root.GetName]: add idea PMR_null_airforce" }
			allowed = { always = no }
			name = PMR_null_airforce
			picture = pmr_null_airforce
			modifier = {
				air_training_xp_gain_factor = -0.25
				air_mission_xp_gain_factor = -0.25
				airforce_personnel_cost_multiplier_modifier = 0.25
			}
		}
		#Outdated Airforce
		PMR_null_airforce_2 = {
			on_add = { log = "[GetDateText]: [Root.GetName]: add idea PMR_null_airforce" }
			allowed = { always = no }
			name = PMR_null_airforce
			picture = pmr_null_airforce
			modifier = {
				air_training_xp_gain_factor = -0.10
				air_mission_xp_gain_factor = -0.10
				airforce_personnel_cost_multiplier_modifier = 0.15
			}
		}
		#Special Forces
		PMR_spetznaz = {
			on_add = { log = "[GetDateText]: [Root.GetName]: add idea PMR_spetznaz" }
			allowed_civil_war = {
				always = yes
			}
			picture = pmr_specnaz
			modifier = {
				special_forces_training_time_factor = -0.05
				special_forces_attack_factor = 0.05
			}
		}
		#Special Forces
		PMR_spetznaz1 = {
			on_add = { log = "[GetDateText]: [Root.GetName]: add idea PMR_spetznaz" }
			allowed_civil_war = {
				always = yes
			}
			name = PMR_spetznaz
			picture = pmr_specnaz
			modifier = {
				special_forces_training_time_factor = -0.08
				special_forces_attack_factor = 0.08
			}
		}
		#Outdated Army
		PMR_disorganized_army = {
			on_add = { log = "[GetDateText]: [Root.GetName]: add idea PMR_disorganized_army" }
			allowed = { always = no }
			picture = pmr_bad_army
			modifier = {
				army_attack_factor = -0.50
				army_defence_factor = -0.50
				army_org_factor = -0.75
				dig_in_speed_factor = -0.25
			}
		}
		#Outdated Army
		PMR_disorganized_army_2 = {
			on_add = { log = "[GetDateText]: [Root.GetName]: add idea PMR_disorganized_army_2" }
			allowed = { always = no }
			name = PMR_disorganized_army
			picture = pmr_bad_army
			modifier = {
				army_attack_factor = -0.35
				army_defence_factor = -0.35
				army_org_factor = -0.55
				dig_in_speed_factor = -0.15
			}
		}
		#Outdated Army
		PMR_disorganized_army_3 = {
			on_add = { log = "[GetDateText]: [Root.GetName]: add idea PMR_disorganized_army_3" }
			allowed = { always = no }
			name = PMR_disorganized_army
			picture = pmr_bad_army
			modifier = {
				army_attack_factor = -0.28
				army_defence_factor = -0.28
				army_org_factor = -0.35
				dig_in_speed_factor = -0.13
			}
		}
		#Outdated Army
		PMR_disorganized_army_4 = {
			on_add = { log = "[GetDateText]: [Root.GetName]: add idea PMR_disorganized_army_4" }
			allowed = { always = no }
			name = PMR_disorganized_army
			picture = pmr_bad_army
			modifier = {
				army_attack_factor = -0.18
				army_defence_factor = -0.18
				army_org_factor = -0.25
				dig_in_speed_factor = -0.07
			}
		}
		#Outdated Army
		PMR_disorganized_army_5 = {
			on_add = { log = "[GetDateText]: [Root.GetName]: add idea PMR_disorganized_army_4" }
			allowed = { always = no }
			name = PMR_disorganized_army
			picture = pmr_bad_army
			modifier = {
				army_attack_factor = -0.13
				army_defence_factor = -0.13
				army_org_factor = -0.18
				dig_in_speed_factor = -0.03
			}
		}
		#Outdated Army
		PMR_disorganized_army_6 = {
			on_add = { log = "[GetDateText]: [Root.GetName]: add idea PMR_disorganized_army_4" }
			allowed = { always = no }
			name = PMR_disorganized_army
			picture = pmr_bad_army
			modifier = {
				army_attack_factor = -0.09
				army_defence_factor = -0.09
				army_org_factor = -0.12
				dig_in_speed_factor = -0.01
			}
		}
		#Transnistrian Legion
		PMR_legion_idea = {
			on_add = { log = "[GetDateText]: [Root.GetName]: add idea PMR_legion_idea" }
			picture = pmr_legion_idea
			allowed_civil_war = { always = yes }
			modifier = {
				encryption_factor = 0.05
				stability_factor = 0.05
				enemy_operative_capture_chance_factor = 0.15
				send_volunteer_divisions_required = -0.15
				send_volunteers_tension = -0.05
			}
		}
		#National Guard
		PMR_idea_national_guard = {
			on_add = { log = "[GetDateText]: [Root.GetName]: add idea PMR_idea_national_guard" }
			picture = ukr_nationalguard_idea
			modifier = {
				army_attack_factor = 0.03
				army_org_factor = 0.03
				army_core_attack_factor = 0.03
				army_core_defence_factor = 0.05
				police_cost_multiplier_modifier = 0.05
			}
		}
		#People Militia
		PMR_people_militia = {
			on_add = { log = "[GetDateText]: [Root.GetName]: add idea PMR_people_militia" }
			allowed = { always = no }
			picture = pmr_people_militia
			modifier = {
				conscription = 0.02
				war_support_factor = 0.05
				personnel_cost_multiplier_modifier = -0.05
			}
		}
		#PeaceKeepers
		PMR_peacerota_idea = {
			on_add = { log = "[GetDateText]: [Root.GetName]: add idea PMR_peacerota_idea" }
			picture = pmr_peacerota_idea
			allowed = { always = yes }
			modifier = {
				send_volunteer_size = 1
			}
		}
		############MVD IDEAS############
		#Border Troops
		PMR_pograncy = {
			on_add = { log = "[GetDateText]: [Root.GetName]: add PMR_pograncy" }
			allowed_civil_war = { always = yes }
			picture = SOV_pograntsy_idea
			modifier = {
				foreign_influence_defense_modifier = 0.01
				army_core_defence_factor = 0.03
			}
		}
		#Border Troops
		PMR_pograncy1 = {
			on_add = { log = "[GetDateText]: [Root.GetName]: add PMR_pograncy1" }
			allowed_civil_war = { always = yes }
			picture = SOV_pograntsy_idea
			name = PMR_pograncy
			modifier = {
				foreign_influence_defense_modifier = 0.02
				army_core_defence_factor = 0.05
			}
		}
		#Anti Corrupt and Economic Safety
		PMR_guebpik_idea = {
			on_add = { log = "[GetDateText]: [Root.GetName]: add idea PMR_guebpik_idea" }
			picture = ukr_nationalguardold_idea
			modifier = {
				corruption_cost_factor = -0.02
				econ_cycle_upg_cost_multiplier_modifier = -0.03
			}
		}
		#MGB
		PMR_mgb_idea = {
			on_add = { log = "[GetDateText]: [Root.GetName]: add PMR_mgb_idea" }
			allowed_civil_war = { always = yes }
			picture = sov_fsb
			modifier = {
				intelligence_agency_defense = 0.10
				encryption_factor = 0.05
				foreign_influence_defense_modifier = 0.05
			}
		}
		PMR_mgb_idea1 = {
			on_add = { log = "[GetDateText]: [Root.GetName]: add PMR_mgb_idea" }
			allowed_civil_war = { always = yes }
			picture = sov_fsb
			name = PMR_mgb_idea
			modifier = {
				intelligence_agency_defense = 0.15
				encryption_factor = 0.10
				foreign_influence_defense_modifier = 0.10
			}
		}
		#Delta
		PMR_delta_idea = {
			on_add = { log = "[GetDateText]: [Root.GetName]: add idea PMR_delta_idea" }
			picture = sov_alpha_fsb
			allowed_civil_war = { always = yes }
			modifier = {
				enemy_operative_capture_chance_factor = 0.05
				resistance_damage_to_garrison = -0.05
			}
		}
		#Delta
		PMR_dnestr_idea = {
			allowed_civil_war = {
				always = yes
			}
			on_add = { log = "[GetDateText]: [Root.GetName]: add idea PMR_dnestr_idea" }
			picture = sov_alpha_fsb

			modifier = {
				root_out_resistance_effectiveness_factor = 0.05
				foreign_subversive_activites = -0.05
				foreign_influence_defense_modifier = 0.03
			}
		}
		#Kabardiners
		PMR_kabardiner = {
			on_add = { log = "[GetDateText]: [Root.GetName]: add idea PMR_kabardiner" }
			allowed = { always = yes }
			picture = pmr_kabardiners_idea
			modifier = {
				resistance_damage_to_garrison = -0.05
				foreign_subversive_activites = -0.02
			}
		}
	}
}