ideas = {
	materiel_manufacturer = {
		designer = yes
		MEX_dgime_materiel_manufacturer = {
			allowed = { original_tag = MEX }
			on_add = { log = "[GetDateText]: [Root.GetName]: add idea MEX_dgime_materiel_manufacturer" }
			picture = SEDENA
			cost = 150
			removal_cost = 10
			research_bonus = {
				CAT_inf_wep = 0.124
			}

			traits = { CAT_inf_wep_4 }
			ai_will_do = {
				factor = 1
			}
		}
	}
}
