# Author(s): Angriest Bird
# Last Modified on 19/10/2022
# Button Indexes and Positions
# Page 1
# line One - CIC - 1, MIC - 2, NIC - 3
# Line Two - Infrastructure - 4, Offices - 5, SAM - 6, Radar - 7
# Page 2
# Line One - Air Bases - 8, Fuel Silo - 9, Internet Station - 10
# Line Two - Biofuel Refineries - 11
# Positions of Line One: { 8, 45, 82, 119 }, 45
# Positions of Line Two: { 8, 45, 82, 119 }, 76

# Defines Construction Type
defined_text = {
	name = AC_GetConstructionType

	text = {
		trigger = { check_variable = { project_building_type^-1 = 1 } }
		localization_key = industrial_complex
	}
	text = {
		trigger = { check_variable = { project_building_type^-1 = 2 } }
		localization_key = arms_factory
	}
	text = {
		trigger = { check_variable = { project_building_type^-1 = 3 } }
		localization_key = dockyard
	}
	text = {
		trigger = { check_variable = { project_building_type^-1 = 4 } }
		localization_key = infrastructure
	}
	text = {
		trigger = { check_variable = { project_building_type^-1 = 5 } }
		localization_key = offices
	}
	text = {
		trigger = { check_variable = { project_building_type^-1 = 6 } }
		localization_key = anti_air_building
	}
	text = {
		trigger = { check_variable = { project_building_type^-1 = 7 } }
		localization_key = radar_station
	}
	text = {
		trigger = { check_variable = { project_building_type^-1 = 8 } }
		localization_key = air_base
	}
	text = {
		trigger = { check_variable = { project_building_type^-1 = 9 } }
		localization_key = fuel_silo
	}
	text = {
		trigger = { check_variable = { project_building_type^-1 = 10 } }
		localization_key = internet_station
	}
	text = {
		trigger = { check_variable = { project_building_type^-1 = 11 } }
		localization_key = synthetic_refinery
	}
	text = {
		trigger = { check_variable = { project_building_type^-1 = 12 } }
		localization_key = fossil_powerplant
	}
	text = {
		trigger = { check_variable = { project_building_type^-1 = 13 } }
		localization_key = nuclear_reactor
	}
	text = {
		trigger = { check_variable = { project_building_type^-1 = 14 } }
		localization_key = agriculture_district
	}
	text = {

		localization_key = "Invalid Building!!!"
	}
}

# Corruption Localization
# Displays Corruptions impact on build cost/time
defined_text = {
	name = AC_GetInfrastructure

	text = {
		trigger = { check_variable = { infrastructure_level = 0 } }
		localization_key = AC_Infrastructure_0
	}
	text = {
		trigger = { check_variable = { infrastructure_level = 1 } }
		localization_key = AC_Infrastructure_1
	}
	text = {
		trigger = { check_variable = { infrastructure_level = 2 } }
		localization_key = AC_Infrastructure_2
	}
	text = {
		trigger = { check_variable = { infrastructure_level = 3 } }
		localization_key = AC_Infrastructure_3
	}
	text = {
		trigger = { check_variable = { infrastructure_level = 4 } }
		localization_key = AC_Infrastructure_4
	}
	text = {
		trigger = { check_variable = { infrastructure_level = 5 } }
		localization_key = AC_Infrastructure_5
	}
}

defined_text = {
	name = AC_GetBuildAmount

	text = {
		trigger = {
			ROOT = {
				if = { limit = { check_variable = { project_building_type^-1 = 1 } }

					PREV = { AC_building_cic_available = yes }
				}
				else_if = { limit = { check_variable = { project_building_type^-1 = 2 } }

					PREV = { AC_building_mic_available = yes }
				}
				else_if = { limit = { check_variable = { project_building_type^-1 = 3 } }

					PREV = { AC_building_nic_available = yes }
				}
				else_if = { limit = { check_variable = { project_building_type^-1 = 4 } }

					PREV = { AC_building_infra_available = yes }
				}
				else_if = { limit = { check_variable = { project_building_type^-1 = 5 } }

					PREV = { AC_building_offices_available = yes }
				}
				else_if = { limit = { check_variable = { project_building_type^-1 = 6 } }

					PREV = { AC_building_antiair_available = yes }
				}
				else_if = { limit = { check_variable = { project_building_type^-1 = 7 } }

					PREV = { AC_building_radar_available = yes }
				}
				else_if = { limit = { check_variable = { project_building_type^-1 = 8 } }

					PREV = { AC_building_airbase_available = yes }
				}
				else_if = { limit = { check_variable = { project_building_type^-1 = 9 } }
					PREV = { building_fuel_silos_available = yes }
				}
				else_if = { limit = { check_variable = { project_building_type^-1 = 10 } }
					PREV = { building_internet_station_available = yes }
				}
				else_if = { limit = { check_variable = { project_building_type^-1 = 11 } }
					PREV = { AC_building_ref_available = yes }
				}
				else_if = { limit = { check_variable = { project_building_type^-1 = 12 } }
					PREV = { AC_building_foss_fuel_powerplant_available = yes }
				}
				else_if = { limit = { check_variable = { project_building_type^-1 = 13 } }
					PREV = { AC_building_reactor_available = yes }
				}
				else_if = { limit = { check_variable = { project_building_type^-1 = 14 } }
					PREV = { AC_building_agriculture_district_available = yes }
				}
			}
		}
		localization_key = "AC_build_amount_green"
	}
	text = {
		localization_key = "AC_build_amount_red"
	}
}


defined_text = {
	name = AC_GetBuildButtonTT

	text = {
		trigger = { is_in_array = { array = THIS.projects_in_state value = ROOT.id } }
		localization_key = AC_build_button_tt_2
	}
	text = {

		localization_key = AC_build_button_tt_1
	}
}

defined_text = {
	name = AC_ITA_cost

	text = {
		trigger = { PREV = { has_state_flag = mafia_foreign_investment_flag } }
		localization_key = AC_ITA_wasted_foreign_funds
	}
}

defined_text = {
	name = AC_ITA_time

	text = {
		trigger = { PREV = { has_state_flag = mafia_foreign_investment_flag } }
		localization_key = AC_ITA_wasted_foreign_funds_time
	}
}

defined_text = {
	name = AC_GetBuildButtonText

	text = {
		trigger = { is_in_array = { array = THIS.projects_in_state value = ROOT.id } }
		localization_key = AC_cancel_project
	}
	text = {
		trigger = { NOT = { currently_is_considering_a_project = yes } }
		localization_key = AC_standby_project
	}
	text = {

		localization_key = AC_start_project
	}
}

# Decision Text
# Projects 0-14
### DECISION TEXT
defined_text = {
	name = AC_GetProjectText0

	text = { trigger = { check_variable = { ROOT.project_array^0 = 1 } } localization_key = AC_project_being_cancelled }
	text = { localization_key = AC_project_0_text }
}
defined_text = {
	name = AC_GetProjectText1

	text = { trigger = { check_variable = { ROOT.project_array^1 = 1 } } localization_key = AC_project_being_cancelled }
	text = { localization_key = AC_project_1_text }
}
defined_text = {
	name = AC_GetProjectText2

	text = { trigger = { check_variable = { ROOT.project_array^2 = 1 } } localization_key = AC_project_being_cancelled }
	text = { localization_key = AC_project_2_text }
}
defined_text = {
	name = AC_GetProjectText3

	text = { trigger = { check_variable = { ROOT.project_array^3 = 1 } } localization_key = AC_project_being_cancelled }
	text = { localization_key = AC_project_3_text }
}
defined_text = {
	name = AC_GetProjectText4

	text = { trigger = { check_variable = { ROOT.project_array^4 = 1 } } localization_key = AC_project_being_cancelled }
	text = { localization_key = AC_project_4_text }
}
defined_text = {
	name = AC_GetProjectText5

	text = { trigger = { check_variable = { ROOT.project_array^5 = 1 } } localization_key = AC_project_being_cancelled }
	text = { localization_key = AC_project_5_text }
}
defined_text = {
	name = AC_GetProjectText6

	text = { trigger = { check_variable = { ROOT.project_array^6 = 1 } } localization_key = AC_project_being_cancelled }
	text = { localization_key = AC_project_6_text }
}
defined_text = {
	name = AC_GetProjectText7

	text = { trigger = { check_variable = { ROOT.project_array^7 = 1 } } localization_key = AC_project_being_cancelled }
	text = { localization_key = AC_project_7_text }
}
defined_text = {
	name = AC_GetProjectText8

	text = { trigger = { check_variable = { ROOT.project_array^8 = 1 } } localization_key = AC_project_being_cancelled }
	text = { localization_key = AC_project_8_text }
}
defined_text = {
	name = AC_GetProjectText9

	text = { trigger = { check_variable = { ROOT.project_array^9 = 1 } } localization_key = AC_project_being_cancelled }
	text = { localization_key = AC_project_9_text }
}
defined_text = {
	name = AC_GetProjectText10

	text = { trigger = { check_variable = { ROOT.project_array^10 = 1 } } localization_key = AC_project_being_cancelled }
	text = { localization_key = AC_project_10_text }
}
defined_text = {
	name = AC_GetProjectText11

	text = { trigger = { check_variable = { ROOT.project_array^11 = 1 } } localization_key = AC_project_being_cancelled }
	text = { localization_key = AC_project_11_text }
}
defined_text = {
	name = AC_GetProjectText12

	text = { trigger = { check_variable = { ROOT.project_array^12 = 1 } } localization_key = AC_project_being_cancelled }
	text = { localization_key = AC_project_12_text }
}
defined_text = {
	name = AC_GetProjectText13

	text = { trigger = { check_variable = { ROOT.project_array^13 = 1 } } localization_key = AC_project_being_cancelled }
	text = { localization_key = AC_project_13_text }
}
defined_text = {
	name = AC_GetProjectText14

	text = { trigger = { check_variable = { ROOT.project_array^14 = 1 } } localization_key = AC_project_being_cancelled }
	text = { localization_key = AC_project_14_text }
}

### DECISION DESC

defined_text = {
	name = AC_GetProjectDesc0

	text = { trigger = { check_variable = { ROOT.project_array^0 = 1 } } localization_key = "" }
	text = { localization_key = AC_project_0_desc }
}
defined_text = {
	name = AC_GetProjectDesc1

	text = { trigger = { check_variable = { ROOT.project_array^1 = 1 } } localization_key = "" }
	text = { localization_key = AC_project_1_desc }
}
defined_text = {
	name = AC_GetProjectDesc2

	text = { trigger = { check_variable = { ROOT.project_array^2 = 1 } } localization_key = "" }
	text = { localization_key = AC_project_2_desc }
}
defined_text = {
	name = AC_GetProjectDesc3

	text = { trigger = { check_variable = { ROOT.project_array^3 = 1 } } localization_key = "" }
	text = { localization_key = AC_project_3_desc }
}
defined_text = {
	name = AC_GetProjectDesc4

	text = { trigger = { check_variable = { ROOT.project_array^4 = 1 } } localization_key = "" }
	text = { localization_key = AC_project_4_desc }
}
defined_text = {
	name = AC_GetProjectDesc5

	text = { trigger = { check_variable = { ROOT.project_array^5 = 1 } } localization_key = "" }
	text = { localization_key = AC_project_5_desc }
}
defined_text = {
	name = AC_GetProjectDesc6

	text = { trigger = { check_variable = { ROOT.project_array^6 = 1 } } localization_key = "" }
	text = { localization_key = AC_project_6_desc }
}
defined_text = {
	name = AC_GetProjectDesc7

	text = { trigger = { check_variable = { ROOT.project_array^7 = 1 } } localization_key = "" }
	text = { localization_key = AC_project_7_desc }
}
defined_text = {
	name = AC_GetProjectDesc8

	text = { trigger = { check_variable = { ROOT.project_array^8 = 1 } } localization_key = "" }
	text = { localization_key = AC_project_8_desc }
}
defined_text = {
	name = AC_GetProjectDesc9

	text = { trigger = { check_variable = { ROOT.project_array^9 = 1 } } localization_key = "" }
	text = { localization_key = AC_project_9_desc }
}
defined_text = {
	name = AC_GetProjectDesc10

	text = { trigger = { check_variable = { ROOT.project_array^10 = 1 } } localization_key = "" }
	text = { localization_key = AC_project_10_desc }
}
defined_text = {
	name = AC_GetProjectDesc11

	text = { trigger = { check_variable = { ROOT.project_array^11 = 1 } } localization_key = "" }
	text = { localization_key = AC_project_11_desc }
}
defined_text = {
	name = AC_GetProjectDesc12

	text = { trigger = { check_variable = { ROOT.project_array^12 = 1 } } localization_key = "" }
	text = { localization_key = AC_project_12_desc }
}
defined_text = {
	name = AC_GetProjectDesc13

	text = { trigger = { check_variable = { ROOT.project_array^13 = 13 } } localization_key = "" }
	text = { localization_key = AC_project_13_desc }
}
defined_text = {
	name = AC_GetProjectDesc14

	text = { trigger = { check_variable = { ROOT.project_array^14 = 14 } } localization_key = "" }
	text = { localization_key = AC_project_14_desc }
}

###
defined_text = { name = AC_GetProjectState0 text = { localization_key = "[?project_array^0.GetName]" } }
defined_text = { name = AC_GetProjectState1 text = { localization_key = "[?project_array^1.GetName]" } }
defined_text = { name = AC_GetProjectState2 text = { localization_key = "[?project_array^2.GetName]" } }
defined_text = { name = AC_GetProjectState3 text = { localization_key = "[?project_array^3.GetName]" } }
defined_text = { name = AC_GetProjectState4 text = { localization_key = "[?project_array^4.GetName]" } }
defined_text = { name = AC_GetProjectState5 text = { localization_key = "[?project_array^5.GetName]" } }
defined_text = { name = AC_GetProjectState6 text = { localization_key = "[?project_array^6.GetName]" } }
defined_text = { name = AC_GetProjectState7 text = { localization_key = "[?project_array^7.GetName]" } }
defined_text = { name = AC_GetProjectState8 text = { localization_key = "[?project_array^8.GetName]" } }
defined_text = { name = AC_GetProjectState9 text = { localization_key = "[?project_array^9.GetName]" } }
defined_text = { name = AC_GetProjectState10 text = { localization_key = "[?project_array^10.GetName]" } }
defined_text = { name = AC_GetProjectState11 text = { localization_key = "[?project_array^11.GetName]" } }
defined_text = { name = AC_GetProjectState12 text = { localization_key = "[?project_array^12.GetName]" } }
defined_text = { name = AC_GetProjectState13 text = { localization_key = "[?project_array^13.GetName]" } }
defined_text = { name = AC_GetProjectState14 text = { localization_key = "[?project_array^14.GetName]" } }

defined_text = { name = AC_GetProject0Amount text = { localization_key = "[?project_build_amount^0]" } }
defined_text = { name = AC_GetProject1Amount text = { localization_key = "[?project_build_amount^1]" } }
defined_text = { name = AC_GetProject2Amount text = { localization_key = "[?project_build_amount^2]" } }
defined_text = { name = AC_GetProject3Amount text = { localization_key = "[?project_build_amount^3]" } }
defined_text = { name = AC_GetProject4Amount text = { localization_key = "[?project_build_amount^4]" } }
defined_text = { name = AC_GetProject5Amount text = { localization_key = "[?project_build_amount^5]" } }
defined_text = { name = AC_GetProject6Amount text = { localization_key = "[?project_build_amount^6]" } }
defined_text = { name = AC_GetProject7Amount text = { localization_key = "[?project_build_amount^7]" } }
defined_text = { name = AC_GetProject8Amount text = { localization_key = "[?project_build_amount^8]" } }
defined_text = { name = AC_GetProject9Amount text = { localization_key = "[?project_build_amount^9]" } }
defined_text = { name = AC_GetProject10Amount text = { localization_key = "[?project_build_amount^10]" } }
defined_text = { name = AC_GetProject11Amount text = { localization_key = "[?project_build_amount^11]" } }
defined_text = { name = AC_GetProject12Amount text = { localization_key = "[?project_build_amount^12]" } }
defined_text = { name = AC_GetProject13Amount text = { localization_key = "[?project_build_amount^13]" } }
defined_text = { name = AC_GetProject14Amount text = { localization_key = "[?project_build_amount^14]" } }


# Scripted Icons
# Index One: Civilian Industry
defined_text = {
	name = AC_GetCicButtonTexture

	text = {
		trigger = { ROOT = { check_variable = { project_building_type^-1 = 1 } } }
		localization_key = "GFX_AC_building_cic_ON"
	}
	text = {
		trigger = { ROOT = { NOT = { check_variable = { project_building_type^-1 = 1 }  } } }
		localization_key = "GFX_AC_building_cic"
	}
}
#Index Two: Military Industry
defined_text = {
	name = AC_GetMicButtonTexture

	text = {
		trigger = {
			ROOT = { check_variable = { project_building_type^-1 = 2 }  }
		}
		localization_key = "GFX_AC_building_mic_ON"
	}
	text = {
		trigger = { ROOT = { NOT = { check_variable = { project_building_type^-1 = 2 }  } } }
		localization_key = "GFX_AC_building_mic"
	}
}
#Index Three: Naval Dockyards
defined_text = {
	name = AC_GetNicButtonTexture

	text = {
		trigger = { ROOT = { check_variable = { project_building_type^-1 = 3 }  } }
		localization_key = "GFX_AC_building_nic_ON"
	}
	text = {
		trigger = { ROOT = { NOT = { check_variable = { project_building_type^-1 = 3 }  } } }
		localization_key = "GFX_AC_building_nic"
	}
}
#Index Four: Infrastructure
defined_text = {
	name = AC_GetInfraButtonTexture

	text = {
		trigger = {
			ROOT = {
				check_variable = { project_building_type^-1 = 4 }
			}
		}
		localization_key = "GFX_AC_building_infra_ON"
	}
	text = {
		trigger = { ROOT = { NOT = { check_variable = { project_building_type^-1 = 4 }  } } }
		localization_key = "GFX_AC_building_infra"
	}
}
#Index Five: Offices
defined_text = {
	name = AC_GetOfficesButtonTexture

	text = {
		trigger = {
			ROOT = {
				check_variable = { project_building_type^-1 = 5 }

			}
		}
		localization_key = "GFX_AC_building_office_ON"
	}
	text = {
		trigger = { ROOT = { NOT = { check_variable = { project_building_type^-1 = 5 }  } } }
		localization_key = "GFX_AC_building_office"
	}
}
#Index Six: Anti-Air Sam Sites
defined_text = {
	name = AC_GetAntiairButtonTexture

	text = {
		trigger = { ROOT = { check_variable = { project_building_type^-1 = 6 }  } }
		localization_key = "GFX_AC_building_antiair_ON"
	}
	text = {
		trigger = { ROOT = { NOT = { check_variable = { project_building_type^-1 = 6 }  } } }
		localization_key = "GFX_AC_building_antiair"
	}
}
#Index Seven: Radar
defined_text = {
	name = AC_GetRadarButtonTexture

	text = {
		trigger = { ROOT = { check_variable = { project_building_type^-1 = 7 }  } }
		localization_key = "GFX_AC_building_radar_ON"
	}
	text = {
		trigger = { ROOT = { NOT = { check_variable = { project_building_type^-1 = 7 }  } } }
		localization_key = "GFX_AC_building_radar"
	}
}
#Index Eight: Air Bases
defined_text = {
	name = AC_GetAirbaseButtonTexture

	text = {
		trigger = { ROOT = { check_variable = { project_building_type^-1 = 8 }  } }
		localization_key = "GFX_AC_building_airbase_ON"
	}
	text = {
		trigger = { ROOT = { NOT = { check_variable = { project_building_type^-1 = 8 }  } } }
		localization_key = "GFX_AC_building_airbase"
	}
}
# index Nine: Fuel Silos
defined_text = {
	name = AC_GetFuelSiloButtonTexture

	text = {
		trigger = { ROOT = { check_variable = { project_building_type^-1 = 9 }  } }
		localization_key = "GFX_AC_building_fuel_silo_ON"
	}
	text = {
		trigger = { ROOT = { NOT = { check_variable = { project_building_type^-1 = 9 }  } } }
		localization_key = "GFX_AC_building_fuel_silo"
	}
}
# Index Ten: Internet Station
defined_text = {
	name = AC_InternetStationButtonTexture

	text = {
		trigger = { ROOT = { check_variable = { project_building_type^-1 = 10 }  } }
		localization_key = "GFX_AC_building_internet_station_ON"
	}
	text = {
		trigger = { ROOT = { NOT = { check_variable = { project_building_type^-1 = 10 }  } } }
		localization_key = "GFX_AC_building_internet_station"
	}
}
# Index Eleven: Renewable Energy Infrastructure
defined_text = {
	name = AC_GetRefButtonTexture

	text = {
		trigger = { ROOT = { check_variable = { project_building_type^-1 = 11 }  } }
		localization_key = "GFX_AC_building_ref_ON"
	}
	text = {
		trigger = { ROOT = { NOT = { check_variable = { project_building_type^-1 = 11 }  } } }
		localization_key = "GFX_AC_building_ref"
	}
}

# Index Twelve: Fossil Fuel Powerplants
defined_text = {
	name = AC_GetPowerPlantButtonTexture

	text = {
		trigger = { ROOT = { check_variable = { project_building_type^-1 = 12 }  } }
		localization_key = "GFX_AC_building_fossil_powerplant_ON"
	}
	text = {
		trigger = { always = yes }
		localization_key = "GFX_AC_building_fossil_powerplant"
	}
}

# Index Thirteen: Nuclear Reactor
defined_text = {
	name = AC_GetNuclearReactorButtonTexture

	text = {
		trigger = { ROOT = { check_variable = { project_building_type^-1 = 13 }  } }
		localization_key = "GFX_AC_building_nuclear_ON"
	}
	text = {
		trigger = { always = yes }
		localization_key = "GFX_AC_building_nuclear"
	}
}

# Index Fourteen: Agriculture District
defined_text = {
	name = AC_GetAgricultureDistrictButtonTexture

	text = {
		trigger = { ROOT = { check_variable = { project_building_type^-1 = 14 }  } }
		localization_key = "GFX_AC_agriculture_district_ON"
	}
	text = {
		trigger = { always = yes }
		localization_key = "GFX_AC_agriculture_district"
	}
}


defined_text = {
	name = investment_cooldown
	text = {
		trigger = { has_global_flag = GAME_RULE_influence_cooldown_limits_14 }
		localization_key = AC_14_cooldown_tt
	}
	text = {
		trigger = { has_global_flag = GAME_RULE_influence_cooldown_limits_30 }
		localization_key = AC_30_cooldown_tt
	}
}

##
defined_text = {
	name = AC_GetConstructionTypeProject0

	text = {
		trigger = { check_variable = { project_building_type^0 = 1 } }
		localization_key = industrial_complex
	}
	text = {
		trigger = { check_variable = { project_building_type^0 = 2 } }
		localization_key = arms_factory
	}
	text = {
		trigger = { check_variable = { project_building_type^0 = 3 } }
		localization_key = dockyard
	}
	text = {
		trigger = { check_variable = { project_building_type^0 = 4 } }
		localization_key = infrastructure
	}
	text = {
		trigger = { check_variable = { project_building_type^0 = 5 } }
		localization_key = offices
	}
	text = {
		trigger = { check_variable = { project_building_type^0 = 6 } }
		localization_key = anti_air_building
	}
	text = {
		trigger = { check_variable = { project_building_type^0 = 7 } }
		localization_key = radar_station
	}
	text = {
		trigger = { check_variable = { project_building_type^0 = 8 } }
		localization_key = air_base
	}
	text = {
		trigger = { check_variable = { project_building_type^0 = 9 } }
		localization_key = fuel_silo
	}
	text = {
		trigger = { check_variable = { project_building_type^0 = 10 } }
		localization_key = internet_station
	}
	text = {
		trigger = { check_variable = { project_building_type^0 = 11 } }
		localization_key = synthetic_refinery
	}
	text = {
		trigger = { check_variable = { project_building_type^0 = 12 } }
		localization_key = fossil_powerplant
	}
	text = {
		trigger = { check_variable = { project_building_type^0 = 13 } }
		localization_key = nuclear_reactor
	}
	text = {
		trigger = { check_variable = { project_building_type^0 = 14 } }
		localization_key = agriculture_district
	}
}
defined_text = {
	name = AC_GetConstructionTypeProject1

	text = {
		trigger = { check_variable = { project_building_type^1 = 1 } }
		localization_key = industrial_complex
	}
	text = {
		trigger = { check_variable = { project_building_type^1 = 2 } }
		localization_key = arms_factory
	}
	text = {
		trigger = { check_variable = { project_building_type^1 = 3 } }
		localization_key = dockyard
	}
	text = {
		trigger = { check_variable = { project_building_type^1 = 4 } }
		localization_key = infrastructure
	}
	text = {
		trigger = { check_variable = { project_building_type^1 = 5 } }
		localization_key = offices
	}
	text = {
		trigger = { check_variable = { project_building_type^1 = 6 } }
		localization_key = anti_air_building
	}
	text = {
		trigger = { check_variable = { project_building_type^1 = 7 } }
		localization_key = radar_station
	}
	text = {
		trigger = { check_variable = { project_building_type^1 = 8 } }
		localization_key = air_base
	}
	text = {
		trigger = { check_variable = { project_building_type^1 = 9 } }
		localization_key = fuel_silo
	}
	text = {
		trigger = { check_variable = { project_building_type^1 = 10 } }
		localization_key = internet_station
	}
	text = {
		trigger = { check_variable = { project_building_type^1 = 11 } }
		localization_key = synthetic_refinery
	}
	text = {
		trigger = { check_variable = { project_building_type^1 = 12 } }
		localization_key = fossil_powerplant
	}
	text = {
		trigger = { check_variable = { project_building_type^1 = 13 } }
		localization_key = nuclear_reactor
	}
	text = {
		trigger = { check_variable = { project_building_type^1 = 14 } }
		localization_key = agriculture_district
	}
}
defined_text = {
	name = AC_GetConstructionTypeProject2

	text = {
		trigger = { check_variable = { project_building_type^2 = 1 } }
		localization_key = industrial_complex
	}
	text = {
		trigger = { check_variable = { project_building_type^2 = 2 } }
		localization_key = arms_factory
	}
	text = {
		trigger = { check_variable = { project_building_type^2 = 3 } }
		localization_key = dockyard
	}
	text = {
		trigger = { check_variable = { project_building_type^2 = 4 } }
		localization_key = infrastructure
	}
	text = {
		trigger = { check_variable = { project_building_type^2 = 5 } }
		localization_key = offices
	}
	text = {
		trigger = { check_variable = { project_building_type^2 = 6 } }
		localization_key = anti_air_building
	}
	text = {
		trigger = { check_variable = { project_building_type^2 = 7 } }
		localization_key = radar_station
	}
	text = {
		trigger = { check_variable = { project_building_type^2 = 8 } }
		localization_key = air_base
	}
	text = {
		trigger = { check_variable = { project_building_type^2 = 9 } }
		localization_key = fuel_silo
	}
	text = {
		trigger = { check_variable = { project_building_type^2 = 10 } }
		localization_key = internet_station
	}
	text = {
		trigger = { check_variable = { project_building_type^2 = 11 } }
		localization_key = synthetic_refinery
	}
	text = {
		trigger = { check_variable = { project_building_type^2 = 12 } }
		localization_key = fossil_powerplant
	}
	text = {
		trigger = { check_variable = { project_building_type^2 = 13 } }
		localization_key = nuclear_reactor
	}
	text = {
		trigger = { check_variable = { project_building_type^2 = 14 } }
		localization_key = agriculture_district
	}
}
defined_text = {
	name = AC_GetConstructionTypeProject3

	text = {
		trigger = { check_variable = { project_building_type^3 = 1 } }
		localization_key = industrial_complex
	}
	text = {
		trigger = { check_variable = { project_building_type^3 = 2 } }
		localization_key = arms_factory
	}
	text = {
		trigger = { check_variable = { project_building_type^3 = 3 } }
		localization_key = dockyard
	}
	text = {
		trigger = { check_variable = { project_building_type^3 = 4 } }
		localization_key = infrastructure
	}
	text = {
		trigger = { check_variable = { project_building_type^3 = 5 } }
		localization_key = offices
	}
	text = {
		trigger = { check_variable = { project_building_type^3 = 6 } }
		localization_key = anti_air_building
	}
	text = {
		trigger = { check_variable = { project_building_type^3 = 7 } }
		localization_key = radar_station
	}
	text = {
		trigger = { check_variable = { project_building_type^3 = 8 } }
		localization_key = air_base
	}
	text = {
		trigger = { check_variable = { project_building_type^3 = 9 } }
		localization_key = fuel_silo
	}
	text = {
		trigger = { check_variable = { project_building_type^3 = 10 } }
		localization_key = internet_station
	}
	text = {
		trigger = { check_variable = { project_building_type^3 = 11 } }
		localization_key = synthetic_refinery
	}
	text = {
		trigger = { check_variable = { project_building_type^3 = 12 } }
		localization_key = fossil_powerplant
	}
	text = {
		trigger = { check_variable = { project_building_type^3 = 13 } }
		localization_key = nuclear_reactor
	}
	text = {
		trigger = { check_variable = { project_building_type^3 = 14 } }
		localization_key = agriculture_district
	}
}
defined_text = {
	name = AC_GetConstructionTypeProject4

	text = {
		trigger = { check_variable = { project_building_type^4 = 1 } }
		localization_key = industrial_complex
	}
	text = {
		trigger = { check_variable = { project_building_type^4 = 2 } }
		localization_key = arms_factory
	}
	text = {
		trigger = { check_variable = { project_building_type^4 = 3 } }
		localization_key = dockyard
	}
	text = {
		trigger = { check_variable = { project_building_type^4 = 4 } }
		localization_key = infrastructure
	}
	text = {
		trigger = { check_variable = { project_building_type^4 = 5 } }
		localization_key = offices
	}
	text = {
		trigger = { check_variable = { project_building_type^4 = 6 } }
		localization_key = anti_air_building
	}
	text = {
		trigger = { check_variable = { project_building_type^4 = 7 } }
		localization_key = radar_station
	}
	text = {
		trigger = { check_variable = { project_building_type^4 = 8 } }
		localization_key = air_base
	}
	text = {
		trigger = { check_variable = { project_building_type^4 = 9 } }
		localization_key = fuel_silo
	}
	text = {
		trigger = { check_variable = { project_building_type^4 = 10 } }
		localization_key = internet_station
	}
	text = {
		trigger = { check_variable = { project_building_type^4 = 11 } }
		localization_key = synthetic_refinery
	}
	text = {
		trigger = { check_variable = { project_building_type^4 = 12 } }
		localization_key = fossil_powerplant
	}
	text = {
		trigger = { check_variable = { project_building_type^4 = 13 } }
		localization_key = nuclear_reactor
	}
	text = {
		trigger = { check_variable = { project_building_type^4 = 14 } }
		localization_key = agriculture_district
	}
}
defined_text = {
	name = AC_GetConstructionTypeProject5

	text = {
		trigger = { check_variable = { project_building_type^5 = 1 } }
		localization_key = industrial_complex
	}
	text = {
		trigger = { check_variable = { project_building_type^5 = 2 } }
		localization_key = arms_factory
	}
	text = {
		trigger = { check_variable = { project_building_type^5 = 3 } }
		localization_key = dockyard
	}
	text = {
		trigger = { check_variable = { project_building_type^5 = 4 } }
		localization_key = infrastructure
	}
	text = {
		trigger = { check_variable = { project_building_type^5 = 5 } }
		localization_key = offices
	}
	text = {
		trigger = { check_variable = { project_building_type^5 = 6 } }
		localization_key = anti_air_building
	}
	text = {
		trigger = { check_variable = { project_building_type^5 = 7 } }
		localization_key = radar_station
	}
	text = {
		trigger = { check_variable = { project_building_type^5 = 8 } }
		localization_key = air_base
	}
	text = {
		trigger = { check_variable = { project_building_type^5 = 9 } }
		localization_key = fuel_silo
	}
	text = {
		trigger = { check_variable = { project_building_type^5 = 10 } }
		localization_key = internet_station
	}
	text = {
		trigger = { check_variable = { project_building_type^5 = 11 } }
		localization_key = synthetic_refinery
	}
	text = {
		trigger = { check_variable = { project_building_type^5 = 12 } }
		localization_key = fossil_powerplant
	}
	text = {
		trigger = { check_variable = { project_building_type^5 = 13 } }
		localization_key = nuclear_reactor
	}
	text = {
		trigger = { check_variable = { project_building_type^5 = 14 } }
		localization_key = agriculture_district
	}
}
defined_text = {
	name = AC_GetConstructionTypeProject6

	text = {
		trigger = { check_variable = { project_building_type^6 = 1 } }
		localization_key = industrial_complex
	}
	text = {
		trigger = { check_variable = { project_building_type^6 = 2 } }
		localization_key = arms_factory
	}
	text = {
		trigger = { check_variable = { project_building_type^6 = 3 } }
		localization_key = dockyard
	}
	text = {
		trigger = { check_variable = { project_building_type^6 = 4 } }
		localization_key = infrastructure
	}
	text = {
		trigger = { check_variable = { project_building_type^6 = 5 } }
		localization_key = offices
	}
	text = {
		trigger = { check_variable = { project_building_type^6 = 6 } }
		localization_key = anti_air_building
	}
	text = {
		trigger = { check_variable = { project_building_type^6 = 7 } }
		localization_key = radar_station
	}
	text = {
		trigger = { check_variable = { project_building_type^6 = 8 } }
		localization_key = air_base
	}
	text = {
		trigger = { check_variable = { project_building_type^6 = 9 } }
		localization_key = fuel_silo
	}
	text = {
		trigger = { check_variable = { project_building_type^6 = 10 } }
		localization_key = internet_station
	}
	text = {
		trigger = { check_variable = { project_building_type^6 = 11 } }
		localization_key = synthetic_refinery
	}
	text = {
		trigger = { check_variable = { project_building_type^6 = 12 } }
		localization_key = fossil_powerplant
	}
	text = {
		trigger = { check_variable = { project_building_type^6 = 13 } }
		localization_key = nuclear_reactor
	}
	text = {
		trigger = { check_variable = { project_building_type^6 = 14 } }
		localization_key = agriculture_district
	}
}
defined_text = {
	name = AC_GetConstructionTypeProject7

	text = {
		trigger = { check_variable = { project_building_type^7 = 1 } }
		localization_key = industrial_complex
	}
	text = {
		trigger = { check_variable = { project_building_type^7 = 2 } }
		localization_key = arms_factory
	}
	text = {
		trigger = { check_variable = { project_building_type^7 = 3 } }
		localization_key = dockyard
	}
	text = {
		trigger = { check_variable = { project_building_type^7 = 4 } }
		localization_key = infrastructure
	}
	text = {
		trigger = { check_variable = { project_building_type^7 = 5 } }
		localization_key = offices
	}
	text = {
		trigger = { check_variable = { project_building_type^7 = 6 } }
		localization_key = anti_air_building
	}
	text = {
		trigger = { check_variable = { project_building_type^7 = 7 } }
		localization_key = radar_station
	}
	text = {
		trigger = { check_variable = { project_building_type^7 = 8 } }
		localization_key = air_base
	}
	text = {
		trigger = { check_variable = { project_building_type^7 = 9 } }
		localization_key = fuel_silo
	}
	text = {
		trigger = { check_variable = { project_building_type^7 = 10 } }
		localization_key = internet_station
	}
	text = {
		trigger = { check_variable = { project_building_type^7 = 11 } }
		localization_key = synthetic_refinery
	}
	text = {
		trigger = { check_variable = { project_building_type^7 = 12 } }
		localization_key = fossil_powerplant
	}
	text = {
		trigger = { check_variable = { project_building_type^7 = 13 } }
		localization_key = nuclear_reactor
	}
}
defined_text = {
	name = AC_GetConstructionTypeProject8

	text = {
		trigger = { check_variable = { project_building_type^8 = 1 } }
		localization_key = industrial_complex
	}
	text = {
		trigger = { check_variable = { project_building_type^8 = 2 } }
		localization_key = arms_factory
	}
	text = {
		trigger = { check_variable = { project_building_type^8 = 3 } }
		localization_key = dockyard
	}
	text = {
		trigger = { check_variable = { project_building_type^8 = 4 } }
		localization_key = infrastructure
	}
	text = {
		trigger = { check_variable = { project_building_type^8 = 5 } }
		localization_key = offices
	}
	text = {
		trigger = { check_variable = { project_building_type^8 = 6 } }
		localization_key = anti_air_building
	}
	text = {
		trigger = { check_variable = { project_building_type^8 = 7 } }
		localization_key = radar_station
	}
	text = {
		trigger = { check_variable = { project_building_type^8 = 8 } }
		localization_key = air_base
	}
	text = {
		trigger = { check_variable = { project_building_type^8 = 9 } }
		localization_key = fuel_silo
	}
	text = {
		trigger = { check_variable = { project_building_type^8 = 10 } }
		localization_key = internet_station
	}
	text = {
		trigger = { check_variable = { project_building_type^8 = 11 } }
		localization_key = synthetic_refinery
	}
	text = {
		trigger = { check_variable = { project_building_type^8 = 12 } }
		localization_key = fossil_powerplant
	}
	text = {
		trigger = { check_variable = { project_building_type^8 = 13 } }
		localization_key = nuclear_reactor
	}
	text = {
		trigger = { check_variable = { project_building_type^8 = 14 } }
		localization_key = agriculture_district
	}
}
defined_text = {
	name = AC_GetConstructionTypeProject9

	text = {
		trigger = { check_variable = { project_building_type^9 = 1 } }
		localization_key = industrial_complex
	}
	text = {
		trigger = { check_variable = { project_building_type^9 = 2 } }
		localization_key = arms_factory
	}
	text = {
		trigger = { check_variable = { project_building_type^9 = 3 } }
		localization_key = dockyard
	}
	text = {
		trigger = { check_variable = { project_building_type^9 = 4 } }
		localization_key = infrastructure
	}
	text = {
		trigger = { check_variable = { project_building_type^9 = 5 } }
		localization_key = offices
	}
	text = {
		trigger = { check_variable = { project_building_type^9 = 6 } }
		localization_key = anti_air_building
	}
	text = {
		trigger = { check_variable = { project_building_type^9 = 7 } }
		localization_key = radar_station
	}
	text = {
		trigger = { check_variable = { project_building_type^9 = 8 } }
		localization_key = air_base
	}
	text = {
		trigger = { check_variable = { project_building_type^9 = 9 } }
		localization_key = fuel_silo
	}
	text = {
		trigger = { check_variable = { project_building_type^9 = 10 } }
		localization_key = internet_station
	}
	text = {
		trigger = { check_variable = { project_building_type^9 = 11 } }
		localization_key = synthetic_refinery
	}
	text = {
		trigger = { check_variable = { project_building_type^9 = 12 } }
		localization_key = fossil_powerplant
	}
	text = {
		trigger = { check_variable = { project_building_type^9 = 13 } }
		localization_key = nuclear_reactor
	}
	text = {
		trigger = { check_variable = { project_building_type^9 = 14 } }
		localization_key = agriculture_district
	}
}
defined_text = {
	name = AC_GetConstructionTypeProject10

	text = {
		trigger = { check_variable = { project_building_type^10 = 1 } }
		localization_key = industrial_complex
	}
	text = {
		trigger = { check_variable = { project_building_type^10 = 2 } }
		localization_key = arms_factory
	}
	text = {
		trigger = { check_variable = { project_building_type^10 = 3 } }
		localization_key = dockyard
	}
	text = {
		trigger = { check_variable = { project_building_type^10 = 4 } }
		localization_key = infrastructure
	}
	text = {
		trigger = { check_variable = { project_building_type^10 = 5 } }
		localization_key = offices
	}
	text = {
		trigger = { check_variable = { project_building_type^10 = 6 } }
		localization_key = anti_air_building
	}
	text = {
		trigger = { check_variable = { project_building_type^10 = 7 } }
		localization_key = radar_station
	}
	text = {
		trigger = { check_variable = { project_building_type^10 = 8 } }
		localization_key = air_base
	}
	text = {
		trigger = { check_variable = { project_building_type^10 = 9 } }
		localization_key = fuel_silo
	}
	text = {
		trigger = { check_variable = { project_building_type^10 = 10 } }
		localization_key = internet_station
	}
	text = {
		trigger = { check_variable = { project_building_type^10 = 11 } }
		localization_key = synthetic_refinery
	}
	text = {
		trigger = { check_variable = { project_building_type^10 = 12 } }
		localization_key = fossil_powerplant
	}
	text = {
		trigger = { check_variable = { project_building_type^10 = 13 } }
		localization_key = nuclear_reactor
	}
	text = {
		trigger = { check_variable = { project_building_type^10 = 14 } }
		localization_key = agriculture_district
	}
}
defined_text = {
	name = AC_GetConstructionTypeProject11

	text = {
		trigger = { check_variable = { project_building_type^11 = 1 } }
		localization_key = industrial_complex
	}
	text = {
		trigger = { check_variable = { project_building_type^11 = 2 } }
		localization_key = arms_factory
	}
	text = {
		trigger = { check_variable = { project_building_type^11 = 3 } }
		localization_key = dockyard
	}
	text = {
		trigger = { check_variable = { project_building_type^11 = 4 } }
		localization_key = infrastructure
	}
	text = {
		trigger = { check_variable = { project_building_type^11 = 5 } }
		localization_key = offices
	}
	text = {
		trigger = { check_variable = { project_building_type^11 = 6 } }
		localization_key = anti_air_building
	}
	text = {
		trigger = { check_variable = { project_building_type^11 = 7 } }
		localization_key = radar_station
	}
	text = {
		trigger = { check_variable = { project_building_type^11 = 8 } }
		localization_key = air_base
	}
	text = {
		trigger = { check_variable = { project_building_type^11 = 9 } }
		localization_key = fuel_silo
	}
	text = {
		trigger = { check_variable = { project_building_type^11 = 10 } }
		localization_key = internet_station
	}
	text = {
		trigger = { check_variable = { project_building_type^11 = 11 } }
		localization_key = synthetic_refinery
	}
	text = {
		trigger = { check_variable = { project_building_type^11 = 12 } }
		localization_key = fossil_powerplant
	}
	text = {
		trigger = { check_variable = { project_building_type^11 = 13 } }
		localization_key = nuclear_reactor
	}
	text = {
		trigger = { check_variable = { project_building_type^11 = 14 } }
		localization_key = agriculture_district
	}
}
defined_text = {
	name = AC_GetConstructionTypeProject12

	text = {
		trigger = { check_variable = { project_building_type^12 = 1 } }
		localization_key = industrial_complex
	}
	text = {
		trigger = { check_variable = { project_building_type^12 = 2 } }
		localization_key = arms_factory
	}
	text = {
		trigger = { check_variable = { project_building_type^12 = 3 } }
		localization_key = dockyard
	}
	text = {
		trigger = { check_variable = { project_building_type^12 = 4 } }
		localization_key = infrastructure
	}
	text = {
		trigger = { check_variable = { project_building_type^12 = 5 } }
		localization_key = offices
	}
	text = {
		trigger = { check_variable = { project_building_type^12 = 6 } }
		localization_key = anti_air_building
	}
	text = {
		trigger = { check_variable = { project_building_type^12 = 7 } }
		localization_key = radar_station
	}
	text = {
		trigger = { check_variable = { project_building_type^12 = 8 } }
		localization_key = air_base
	}
	text = {
		trigger = { check_variable = { project_building_type^12 = 9 } }
		localization_key = fuel_silo
	}
	text = {
		trigger = { check_variable = { project_building_type^12 = 10 } }
		localization_key = internet_station
	}
	text = {
		trigger = { check_variable = { project_building_type^12 = 11 } }
		localization_key = synthetic_refinery
	}
	text = {
		trigger = { check_variable = { project_building_type^12 = 12 } }
		localization_key = fossil_powerplant
	}
	text = {
		trigger = { check_variable = { project_building_type^12 = 13 } }
		localization_key = nuclear_reactor
	}
	text = {
		trigger = { check_variable = { project_building_type^12 = 14 } }
		localization_key = agriculture_district
	}
}
defined_text = {
	name = AC_GetConstructionTypeProject13

	text = {
		trigger = { check_variable = { project_building_type^13 = 1 } }
		localization_key = industrial_complex
	}
	text = {
		trigger = { check_variable = { project_building_type^13 = 2 } }
		localization_key = arms_factory
	}
	text = {
		trigger = { check_variable = { project_building_type^13 = 3 } }
		localization_key = dockyard
	}
	text = {
		trigger = { check_variable = { project_building_type^13 = 4 } }
		localization_key = infrastructure
	}
	text = {
		trigger = { check_variable = { project_building_type^13 = 5 } }
		localization_key = offices
	}
	text = {
		trigger = { check_variable = { project_building_type^13 = 6 } }
		localization_key = anti_air_building
	}
	text = {
		trigger = { check_variable = { project_building_type^13 = 7 } }
		localization_key = radar_station
	}
	text = {
		trigger = { check_variable = { project_building_type^13 = 8 } }
		localization_key = air_base
	}
	text = {
		trigger = { check_variable = { project_building_type^13 = 9 } }
		localization_key = fuel_silo
	}
	text = {
		trigger = { check_variable = { project_building_type^13 = 10 } }
		localization_key = internet_station
	}
	text = {
		trigger = { check_variable = { project_building_type^13 = 11 } }
		localization_key = synthetic_refinery
	}
	text = {
		trigger = { check_variable = { project_building_type^13 = 12 } }
		localization_key = fossil_powerplant
	}
	text = {
		trigger = { check_variable = { project_building_type^13 = 13 } }
		localization_key = nuclear_reactor
	}
	text = {
		trigger = { check_variable = { project_building_type^13 = 14 } }
		localization_key = agriculture_district
	}
}
defined_text = {
	name = AC_GetConstructionTypeProject14

	text = {
		trigger = { check_variable = { project_building_type^14 = 1 } }
		localization_key = industrial_complex
	}
	text = {
		trigger = { check_variable = { project_building_type^14 = 2 } }
		localization_key = arms_factory
	}
	text = {
		trigger = { check_variable = { project_building_type^14 = 3 } }
		localization_key = dockyard
	}
	text = {
		trigger = { check_variable = { project_building_type^14 = 4 } }
		localization_key = infrastructure
	}
	text = {
		trigger = { check_variable = { project_building_type^14 = 5 } }
		localization_key = offices
	}
	text = {
		trigger = { check_variable = { project_building_type^14 = 6 } }
		localization_key = anti_air_building
	}
	text = {
		trigger = { check_variable = { project_building_type^14 = 7 } }
		localization_key = radar_station
	}
	text = {
		trigger = { check_variable = { project_building_type^14 = 8 } }
		localization_key = air_base
	}
	text = {
		trigger = { check_variable = { project_building_type^14 = 9 } }
		localization_key = fuel_silo
	}
	text = {
		trigger = { check_variable = { project_building_type^14 = 10 } }
		localization_key = internet_station
	}
	text = {
		trigger = { check_variable = { project_building_type^14 = 11 } }
		localization_key = synthetic_refinery
	}
	text = {
		trigger = { check_variable = { project_building_type^14 = 12 } }
		localization_key = fossil_powerplant
	}
	text = {
		trigger = { check_variable = { project_building_type^14 = 13 } }
		localization_key = nuclear_reactor
	}
	text = {
		trigger = { check_variable = { project_building_type^14 = 14 } }
		localization_key = agriculture_district
	}
}

# Gain Influence Scripted Localization
# Purpose: Does the display for whether you will gain influence
defined_text = {
	name = AC_GainInfluence

	text = {
		trigger = {
			CONTROLLER = { has_country_flag = influence_gained_@ROOT }
		}
		localization_key = "GFX_ac_influence_inactive"
	}
	text = {
		trigger = {
			CONTROLLER = { NOT = { has_country_flag = influence_gained_@ROOT } }
		}
		localization_key = "GFX_ac_influence"
	}
}

defined_text = {
	name = AC_GainTooltip
	text = {
		trigger = {
			CONTROLLER = { has_country_flag = influence_gained_@ROOT }
		}
		localization_key = influence_gain_tooltip_no_tt
	}
	text = {
		trigger = {
			CONTROLLER = { NOT = { has_country_flag = influence_gained_@ROOT } }
		}
		localization_key = influence_gain_tooltip_yes_tt
	}
}

# State Owned Investment
defined_text = {
	name = maximum_state_owned_investment_projects

	text = {
		trigger = {
			ROOT = { has_idea = superpower }
		}
		localization_key = "6"
	}
	text = {
		trigger = {
			ROOT = { has_idea = great_power }
		}
		localization_key = "5"
	}
	text = {
		trigger = {
			ROOT = { has_idea = large_power }
		}
		localization_key = "4"
	}
	text = {
		trigger = {
			ROOT = { has_idea = regional_power }
		}
		localization_key = "3"
	}
	text = {
		localization_key = "2"
	}
}

defined_text = {
	name = current_state_owned_investment_projects

	text = {
		trigger = {
			ROOT = {
				count_triggers = {
					amount = 6
					has_country_flag = state_owned_investments_project_six
					has_country_flag = state_owned_investments_project_five
					has_country_flag = state_owned_investments_project_four
					has_country_flag = state_owned_investments_project_three
					has_country_flag = state_owned_investments_project_two
					has_country_flag = state_owned_investments_project_one
				}
			}
		}
		localization_key = "6"
	}
	text = {
		trigger = {
			ROOT = {
				count_triggers = {
					amount = 5
					has_country_flag = state_owned_investments_project_six
					has_country_flag = state_owned_investments_project_five
					has_country_flag = state_owned_investments_project_four
					has_country_flag = state_owned_investments_project_three
					has_country_flag = state_owned_investments_project_two
					has_country_flag = state_owned_investments_project_one
				}
			}
		}
		localization_key = "5"
	}
	text = {
		trigger = {
			ROOT = {
				count_triggers = {
					amount = 4
					has_country_flag = state_owned_investments_project_six
					has_country_flag = state_owned_investments_project_five
					has_country_flag = state_owned_investments_project_four
					has_country_flag = state_owned_investments_project_three
					has_country_flag = state_owned_investments_project_two
					has_country_flag = state_owned_investments_project_one
				}
			}
		}
		localization_key = "4"
	}
	text = {
		trigger = {
			ROOT = {
				count_triggers = {
					amount = 3
					has_country_flag = state_owned_investments_project_six
					has_country_flag = state_owned_investments_project_five
					has_country_flag = state_owned_investments_project_four
					has_country_flag = state_owned_investments_project_three
					has_country_flag = state_owned_investments_project_two
					has_country_flag = state_owned_investments_project_one
				}
			}
		}
		localization_key = "3"
	}
	text = {
		trigger = {
			ROOT = {
				count_triggers = {
					amount = 2
					has_country_flag = state_owned_investments_project_six
					has_country_flag = state_owned_investments_project_five
					has_country_flag = state_owned_investments_project_four
					has_country_flag = state_owned_investments_project_three
					has_country_flag = state_owned_investments_project_two
					has_country_flag = state_owned_investments_project_one
				}
			}
		}
		localization_key = "2"
	}
	text = {
		trigger = {
			ROOT = {
				count_triggers = {
					amount = 1
					has_country_flag = state_owned_investments_project_six
					has_country_flag = state_owned_investments_project_five
					has_country_flag = state_owned_investments_project_four
					has_country_flag = state_owned_investments_project_three
					has_country_flag = state_owned_investments_project_two
					has_country_flag = state_owned_investments_project_one
				}
			}
		}
		localization_key = "1"
	}
	text = {
		localization_key = "0"
	}
}

defined_text = {
	name = state_owned_investment_timer_six

	text = {
		trigger = {
			has_country_flag = state_owned_investments_project_six
		}
		localization_key = state_owned_investment_timer_six_tt
	}
	text = {
		localization_key = ""
	}
}

defined_text = {
	name = state_owned_investment_timer_five

	text = {
		trigger = {
			has_country_flag = state_owned_investments_project_five
		}
		localization_key = state_owned_investment_timer_five_tt
	}
	text = {
		localization_key = ""
	}
}

defined_text = {
	name = state_owned_investment_timer_four

	text = {
		trigger = {
			has_country_flag = state_owned_investments_project_four
		}
		localization_key = state_owned_investment_timer_four_tt
	}
	text = {
		localization_key = ""
	}
}

defined_text = {
	name = state_owned_investment_timer_three

	text = {
		trigger = {
			has_country_flag = state_owned_investments_project_three
		}
		localization_key = state_owned_investment_timer_three_tt
	}
	text = {
		localization_key = ""
	}
}

defined_text = {
	name = state_owned_investment_timer_two

	text = {
		trigger = {
			has_country_flag = state_owned_investments_project_two
		}
		localization_key = state_owned_investment_timer_two_tt
	}
	text = {
		localization_key = ""
	}
}

defined_text = {
	name = state_owned_investment_timer_one

	text = {
		trigger = {
			has_country_flag = state_owned_investments_project_one
		}
		localization_key = state_owned_investment_timer_one_tt
	}
	text = {
		localization_key = ""
	}
}