ideas = {
	country = {
		CHI_PLA_Business_Ventures = {
			picture = army_problems
			modifier = {
				political_power_factor = 0.1
				consumer_goods_factor = -0.04
				army_attack_factor = -0.08
				army_defence_factor = -0.10
				max_planning = -0.25
			}
		}
		
		CHI_PLA_Business_Ventures2 = {
			picture = army_problems
			modifier = {
				political_power_factor = -0.02
				consumer_goods_factor = 0.02
				army_attack_factor = -0.04
				army_defence_factor = -0.05
				max_planning = -0.10
			}
		}
		
		CHI_Invigorate_Country_Through_STE1 = {
			picture = research_bonus
			modifier = {
				research_speed_factor = 0.02
			}
		}
		
		CHI_Invigorate_Country_Through_STE2 = {
			picture = research_bonus
			modifier = {
				research_speed_factor = 0.03
				democratic_drift = 0.02
				neutrality_drift = 0.02
				stability_factor = -0.02
			}
		}
		
		CHI_Invigorate_Country_Through_STE3 = {
			picture = research_bonus
			modifier = {
				research_speed_factor = 0.03
				foreign_subversive_activites = -0.5
			}
		}
		
		CHI_nuclear_power = {
			name = CHI_nuclear_power_idea
			picture = nuclear_energy
			modifier = {
				stability_factor = 0.05
				research_speed_factor = 0.01
				foreign_influence_defense_modifier = 0.01
			}
		}
		
		int_investment_china = {
			picture = foreign_capital
			cancel = {
				has_war = yes
			}
			modifier = {
				economic_cycles_cost_factor = -0.1
				production_speed_buildings_factor = 0.05
				receiving_investment_duration_modifier = -0.05
				receiving_investment_cost_modifier = -0.10
			}
		}
		
		fusion_power_1 = {
			name = fusion_power
			picture = fusion_energy
			modifier = {
				foreign_influence_defense_modifier = 0.025
				stability_factor = 0.1
				research_speed_factor = 0.025
			}
		}
		
		fusion_power_2 = {
			name = fusion_power
			picture = fusion_energy
			modifier = {
				foreign_influence_defense_modifier = 0.035
				stability_factor = 0.125
				research_speed_factor = 0.035
			}
		}
		
		fusion_power_3 = {
			name = fusion_power
			picture = fusion_energy
			modifier = {
				foreign_influence_defense_modifier = 0.05
				stability_factor = 0.15
				research_speed_factor = 0.05
			}
		}
		
		space_combat_support_force = {
			name = space_combat_support_force
			picture = air_bonus
			allowed_civil_war = { always = yes }
			modifier = {
				max_planning = 0.15
				decryption_factor = 0.10
			}
		}
		
		space_combat_support_force_2 = {
			name = space_combat_support_force
			picture = air_bonus
			allowed_civil_war = { always = yes }
			modifier = {
				max_planning = 0.25
				decryption_factor = 0.20
				army_attack_factor = 0.15
			}
		}
		
		space_combat_support_force_3 = {
			name = space_combat_support_force
			picture = air_bonus
			allowed_civil_war = { always = yes }
			modifier = {
				max_planning = 0.33
				decryption_factor = 0.25
				army_attack_factor = 0.20
			}
		}
		
		CHI_space_marines_idea = {
			picture = air_support_focus
			allowed_civil_war = { always = yes }
			equipment_bonus = {
				transport_plane_equipment = {
					air_range = 4
					build_cost_ic = 4
					instant = yes
				}
			}
		}
		
		beidou_satelite_navigation = {
			picture = idea_wip
			allowed_civil_war = { always = yes }
			modifier = {
				army_org_Factor = 0.10
				army_attack_factor = 0.10
				army_defence_factor = 0.15
				army_speed_factor = 0.05
			}
		}
		
		space_efforts = { #Bolster the CNSA/Private Endeavors
			name = space_efforts
			picture = generic_research_bonus
			allowed_civil_war = { always = yes }
			modifier = {
				research_speed_factor = 0.02
				political_power_factor = 0.05
			}
		}
		
		space_efforts1 = { #Bolster the CNSA/Private Endeavors
			name = space_efforts
			picture = generic_research_bonus
			allowed_civil_war = { always = yes }
			modifier = {
				research_speed_factor = 0.03
				political_power_factor = 0.05
			}
		}
		
		space_efforts2 = { #Bolster the CNSA/Private Endeavors
			name = space_efforts
			picture = generic_research_bonus
			allowed_civil_war = { always = yes }
			modifier = {
				research_speed_factor = 0.25
				political_power_factor = 0.25
			}
		}

		party_commands_gun = {
			on_add = { log = "[GetDateText]: [Root.GetName]: add idea party_commands_gun" }
			allowed = { original_tag = CHI }
			picture = pla
			cancel = {
				NOT = { has_government = communism }
			}
			modifier = {
				drift_defence_factor = 1.0
				communism_drift = 0.1
				army_org_factor = -0.02
				experience_gain_factor = -0.20
				conscription = -0.015
			}
		}

		party_commands_gun_new_era = {
			on_add = { log = "[GetDateText]: [Root.GetName]: add idea party_commands_gun_new_era" }
			allowed = { original_tag = CHI }
			picture = pla
			cancel = {
				NOT = { has_government = communism }
			}
			modifier = {
				drift_defence_factor = 1.0
				communism_drift = 0.1
				defence = 0.05
				army_org_factor = 0.05
			}
		}
		
		china_reunification = {
			on_add = { log = "[GetDateText]: [Root.GetName]: add idea china_reunification" }
			allowed = { original_tag = CHI }
			picture = china_unified
			cancel = {
				NOT = { has_government = communism }
			}
			modifier = {
				army_org_factor = 0.05
				political_power_factor = 0.1
				stability_factor = 0.05
				research_speed_factor = 0.1
			}
		}
		
		august_1st = {
			on_add = { log = "[GetDateText]: [Root.GetName]: add idea august_1st" }
			allowed = { original_tag = CHI }
			picture = august_1st_badge
			cancel = {
				NOT = { has_government = communism }
			}
			modifier = {
				army_attack_factor = 0.25 
				army_attack_against_major_factor = 0.25
				army_defence_factor = 0.25
				army_defence_against_major_factor = 0.25
			}
		}

		state_system = {
			on_add = { log = "[GetDateText]: [Root.GetName]: add idea state_system" }
			allowed = { original_tag = CHI }
			picture = emblem_of_china
			modifier = {
				political_power_gain = 0.25
				stability_factor = 0.05
				foreign_subversive_activites = -0.25
				join_faction_tension = 0.5
				send_volunteers_tension = 0.2
				army_attack_factor = 0.05
				planning_speed = 0.05
			}
		}

		chastity_paifang = {
			on_add = { log = "[GetDateText]: [Root.GetName]: add idea chastity_paifang" }
			allowed = { original_tag = CHI }
			picture = emblem_of_china
			modifier = {
				#political_power_gain = 0.5
				stability_factor = 0.05
				foreign_subversive_activites = -0.5
				join_faction_tension = 0.75
				send_volunteers_tension = 0.25
				generate_wargoal_tension = 0.5
			}
		}

		CHI_low_end_manufacturing = {
			picture = china_factory
			on_add = { log = "[GetDateText]: [Root.GetName]: add idea CHI_low_end_manufacturing" }
			allowed = { original_tag = CHI }
			modifier = {
				productivity_growth_modifier = -1
				buildings_worker_requirement_modifier = 0.45
				production_speed_buildings_factor = 0.2
				industry_free_repair_factor = -0.75
				industry_repair_factor = -0.75
				local_resources_factor = -0.10
			}
		}

		CHI_low_end_manufacturing_2 = {
			picture = china_factory
			on_add = { log = "[GetDateText]: [Root.GetName]: add idea CHI_low_end_manufacturing_2" }
			allowed = { original_tag = CHI }
			modifier = {
				productivity_growth_modifier = -2
				buildings_worker_requirement_modifier = 0.55
				production_speed_buildings_factor = 0.30
				industry_free_repair_factor = -0.75
				industry_repair_factor = -0.75
				local_resources_factor = -0.10
			}
		}

		one_child_policy = {
			
			allowed = { original_tag = CHI }
			picture = one_child_policy
			modifier = {
				MONTHLY_POPULATION = -0.90
			}
		}

		two_child_policy = {
			
			allowed = { original_tag = CHI }
			picture = one_child_policy
			modifier = {
				MONTHLY_POPULATION = -0.50
			}
		}

		factional_politics_balanced = {
			allowed = { original_tag = CHI }
			picture = national_unity
			modifier = {
			}
		}

		factional_politics_populist = {
			allowed = { original_tag = CHI }
			picture = propaganda
			modifier = {
				political_power_gain = 0.2
				corruption_cost_factor = -0.1
				production_speed_buildings_factor = -0.1
				production_speed_infrastructure_factor = 0.25
				consumer_goods_factor = 0.02
				stability_factor = -0.05
			}
		}

		factional_politics_elitist = {
			allowed = { original_tag = CHI }
			picture = high_society
			modifier = {
				political_power_gain = -0.2
				corruption_cost_factor = 0.1
				production_speed_buildings_factor = 0.1
				consumer_goods_factor = -0.02
				stability_factor = -0.05
			}
		}

		three_represents = {
			allowed = { original_tag = CHI }
			picture = national_unity
			modifier = {
				consumer_goods_factor = -0.05
				industrial_capacity_factory = 0.1
				industrial_capacity_dockyard = 0.1
				political_power_gain = -0.1
			}

		}

		scientific_outlook_on_development = {
			allowed = { original_tag = CHI }
			picture = flexible_foreign_policy2
			modifier = {
				political_power_gain = 0.1
				research_speed_factor = 0.1
				production_factory_efficiency_gain_factor = -0.1
				production_speed_industrial_complex_factor = -0.25
			}
		}

		zeng_qinghong_thought = {
			allowed = { original_tag = CHI }
			picture = disjointed_government
			modifier = {
				political_power_gain = 0.05
				max_command_power = 10
				command_power_gain = 0.5
				consumer_goods_factor = -0.02
			}
		}

		xi_jinping_thought = {
			allowed = { original_tag = CHI }
			picture = army_war_college
			cancel = {
				NOT = { has_government = communism }
			}
			modifier = {
				stability_factor = 0.02
				communism_drift = 0.01
			}
		}

		xi_jinping_thought2 = {
			name = xi_jinping_thought
			allowed = { original_tag = CHI }
			picture = army_war_college
			cancel = {
				NOT = { has_government = communism }
			}
			modifier = {
				political_power_factor = 0.1
				stability_factor = 0.02
				communism_drift = 0.02
				consumer_goods_factor = -0.01
				research_speed_factor = 0.05
				production_factory_max_efficiency_factor = 0.05
			}
		}

		xi_jinping_thought3 = {
			name = xi_jinping_thought
			allowed = { original_tag = CHI }
			picture = army_war_college
			cancel = {
				NOT = { has_government = communism }
			}
			modifier = {
				political_power_factor = 0.15
				stability_factor = 0.05
				communism_drift = 0.01
				consumer_goods_factor = -0.02
				research_speed_factor = 0.05
				industrial_capacity_factory = -0.10
				production_factory_max_efficiency_factor = 0.10
				production_speed_industrial_complex_factor = 0.05
			}
		}

		xi_jinping_thought4 = {
			name = xi_jinping_thought
			allowed = { original_tag = CHI }
			picture = army_war_college
			cancel = {
				NOT = { has_government = communism }
			}
			modifier = {
				political_power_factor = 0.10
				stability_factor = -0.01
				communism_drift = 0.03
				consumer_goods_factor = -0.01
				research_speed_factor = 0.05
				production_factory_max_efficiency_factor = 0.05
				production_speed_arms_factory_factor = 0.05
				justify_war_goal_time = -0.10
				army_morale_factor = 0.01
			}
		}

		chongqing_model = {
			allowed = { original_tag = CHI }
			picture = communism3
			cancel = {
				NOT = { has_government = communism }
			}
			modifier = {
				political_power_factor = 0.15
				communism_drift = 0.05
				stability_factor = -0.1
				consumer_goods_factor = 0.02
				production_speed_buildings_factor = -0.02
			}

		}

		nanjie_model = {
			allowed = { original_tag = CHI }
			picture = communism5
			cancel = {
				NOT = { has_government = communism }
			}
			modifier = {
				political_power_factor = 0.25
				communism_drift = 0.1
				stability_factor = -0.15
				consumer_goods_factor = 0.05
				production_speed_buildings_factor = -0.1
				research_speed_factor = -0.1
				education_budget_cost_factor = -0.5
				health_budget_cost_factor = -0.5
				social_budget_cost_factor = -0.5
			}
		}

		legacy_of_1949 = {
			allowed = { original_tag = TAI }
			picture = chi_warlord_integration6
			modifier = {
				communism_drift = -0.05
			}
		}

		legacy_of_1949_1 = {
			allowed = { original_tag = TAI }
			picture = chi_warlord_integration6
			modifier = {
				communism_drift = -0.02
			}
		}
		
		fate_of_mongolian_area = {
			allowed = { original_tag = TAI }
			picture = chinese_mongolia
			modifier = {
				communism_drift = 0.03
				stability_factor = -0.01
				political_power_factor = -0.05
			}
		}
		
		fate_of_mongolian_area_1 = {
			allowed = { original_tag = TAI }
			picture = chinese_mongolia
			modifier = {
				communism_drift = 0.05
				stability_factor = -0.1
				political_power_factor = -0.1
			}
		}

		Lacks_International_Recognition_Taiwan = {
			on_add = { log = "[GetDateText]: [Root.GetName]: add idea Lacks_International_Recognition_Taiwan" }
			picture = disjointed_government
			modifier = {
				political_power_factor = -0.15
				Foreign_Intervention_Law_cost_factor = 0.25
				trade_opinion_factor = -0.15
			}
		}

		china_travel_ban = {
			allowed = { original_tag = TAI }
			picture = segregation
			modifier = {
				consumer_goods_factor = 0.05
				production_speed_buildings_factor = -0.1
				MONTHLY_POPULATION = -0.01
				custom_modifier_tooltip = china_travel_ban_idea_tt
			}
		}

		legislative_yuan_occupied = {
			allowed = { original_tag = TAI }
			picture = segregation
			modifier = {
				stability_factor = -0.05
				political_power_factor = -0.25
			}
		}

		joint_control_zones = {
			picture = coastal_navy
			modifier = {
				experience_gain_air = 0.05
				experience_gain_navy = 0.05
				convoy_escort_efficiency = 0.1
				naval_coordination = 0.1
				navy_submarine_detection_factor = 0.1
			}
		}

		our_national_enemy = {
			picture = warrior_traditions_idea
			targeted_modifier = {
				tag = JAP
				attack_bonus_against = 0.1
				defense_bonus_against = 0.1
			}
		}
		
		old_hatreds = {
			picture = revolutionary_army
			targeted_modifier = {
				tag = JAP
				attack_bonus_against = 0.15
				defense_bonus_against = 0.15
			}
		}

		ceremony_in_khentii_1 = {
			allowed = { original_tag = CHI }
			picture = ceremony_khentii
			modifier = {
				stability_factor = 0.05
				political_power_factor = 0.05
			}
			targeted_modifier = {
				tag = MON
				attack_bonus_against = 0.1
				defense_bonus_against = 0.1
			}
		}

		ceremony_in_khentii_2 = {
			allowed = { original_tag = CHI }
			picture = ceremony_khentii
			modifier = {
				stability_factor = 0.05
				political_power_factor = 0.05
			}
			targeted_modifier = {
				tag = SOV
				attack_bonus_against = 0.1
				defense_bonus_against = 0.1
			}
		}
		
		chinese_khalkha = {
			allowed = { original_tag = CHI }
			picture = chinese_mongolia
			modifier = {
				stability_factor = 0.01
				war_support_weekly = 0.01
				political_power_factor = 0.02
			}
		}

		prosperity_of_borderland = {
			allowed = { original_tag = CHI }
			picture = end_of_khalkha
			modifier = {
				stability_factor = 0.05
				war_support_weekly = 0.03
				political_power_factor = 0.05
			}
		}

		jebtsundamba_khutuktu = {
			allowed = { original_tag = MON }
			picture = yanshennmima
			modifier = {
				stability_factor = 0.01
				war_support_weekly = 0.001
				political_power_factor = 0.05
			}
			targeted_modifier = {
			tag = CHI
			cic_to_target_factor = 0.1
			extra_trade_to_target_factor = 0.2
			trade_cost_for_target_factor = -0.5
			}
		}

		mongolia_khan_heir = {
			allowed = { original_tag = MON }
			picture = temujin_heir
			modifier = {
				stability_factor = 0.01
				political_power_factor = 0.05
			}
		}
		
		mongolia_rely_to_china = {
			allowed = { original_tag = MON }
			picture = chinese_mongolia
			targeted_modifier = {
				tag = CHI
				cic_to_target_factor = 0.5
				extra_trade_to_target_factor = 0.5
				trade_cost_for_target_factor = -0.5
			}
		}
		
		CHI_bilibili_idea = {
			allowed = { original_tag = CHI }
			picture = bili
			modifier = {
				foreign_influence_defense_modifier = 0.15
				drift_defence_factor = 0.1
				foreign_subversive_activites = -0.20
				monthly_population = -0.05
			}
		}

		island_blockade = {
			picture = coastal_navy
			modifier = {
				convoy_escort_efficiency = -0.25
				naval_coordination = -0.25
				navy_submarine_detection_factor = -0.25
			}
		}

		CHI_war_preparations = {
			picture = volunteer_defenders2
			cancel = { has_war = yes }
			modifier = {
				Military_Spending_cost_factor = -0.5
				war_support_weekly = 0.005
				mobilization_speed = 0.1
				training_time_factor = -0.1
				planning_speed = 0.25
				invasion_preparation = -0.25
			}
		}

		taiwanese_coup = {
			allowed = { original_tag = TAI }
			picture = hutu_tutsi_tensions
			modifier = {
				stability_factor = -0.1
				political_power_factor = -0.25
				max_command_power = -10
			}
		}

		recently_acceded_to_wto = {
			picture = high_society
			modifier = {
				trade_opinion_factor = 0.25
				production_speed_buildings_factor = 0.1
				research_speed_factor = 0.1
			}
		}


		CHI_foreign_investment = {
			picture = foreign_capital
			modifier = {
				production_speed_industrial_complex_factor = 0.25
				production_speed_infrastructure_factor = 0.25
			}
		}

		Socialist_Market_Economy = {
			name = Socialist_Market_Economy
			picture = well_balanced
			modifier = {
				communism_drift = 0.02
				research_speed_factor = -0.02
				production_factory_efficiency_gain_factor = -0.02
				production_speed_industrial_complex_factor = -0.02
				trade_opinion_factor = -0.02
				consumer_goods_factor = -0.02
				production_speed_arms_factory_factor = 0.02
				drift_defence_factor = 0.02
				corruption_cost_factor = -0.02
			}
		}

		Socialist_Market_Economy_free_1 = {
			name = Socialist_Market_Economy
			picture = slightly_reformist
			modifier = {
				research_speed_factor = 0.02
				production_factory_efficiency_gain_factor = 0.02
				production_speed_industrial_complex_factor = 0.02
				trade_opinion_factor = 0.02
				consumer_goods_factor = 0.02
				production_speed_arms_factory_factor = -0.02
				drift_defence_factor = -0.02
				corruption_cost_factor = 0.02
				receiving_investment_duration_modifier = -0.025
				receiving_investment_cost_modifier = -0.025
			}
		}

		Socialist_Market_Economy_free_2 = {
			name = Socialist_Market_Economy
			picture = slightly_reformist
			modifier = {
				communism_drift = -0.02
				research_speed_factor = 0.05
				production_factory_efficiency_gain_factor = 0.05
				production_speed_industrial_complex_factor = 0.05
				trade_opinion_factor = 0.05
				stability_factor = -0.02
				consumer_goods_factor = 0.05
				production_speed_arms_factory_factor = -0.05
				drift_defence_factor = -0.05
				corruption_cost_factor = 0.05
				receiving_investment_duration_modifier = -0.05
				receiving_investment_cost_modifier = -0.05
			}
		}

		Free_Market_Economy = {
			picture = modern_reformist
			modifier = {
				communism_drift = -0.05
				research_speed_factor = 0.1
				production_factory_efficiency_gain_factor = 0.1
				production_speed_industrial_complex_factor = 0.1
				trade_opinion_factor = 0.1
				stability_factor = -0.05
				consumer_goods_factor = 0.1
				production_speed_arms_factory_factor = -0.1
				drift_defence_factor = -0.1
				corruption_cost_factor = 0.1
				receiving_investment_duration_modifier = -0.075
				receiving_investment_cost_modifier = -0.075
			}
		}

		Socialist_Market_Economy_planned_1 = {
			name = Socialist_Market_Economy
			picture = slightly_radical
			modifier = {
				communism_drift = 0.03
				research_speed_factor = -0.05
				production_factory_efficiency_gain_factor = -0.05
				production_speed_industrial_complex_factor = -0.05
				trade_opinion_factor = -0.05
				consumer_goods_factor = -0.05
				production_speed_arms_factory_factor = 0.05
				drift_defence_factor = 0.05
				corruption_cost_factor = -0.05
			}
		}

		Socialist_Market_Economy_planned_2 = {
			name = Socialist_Market_Economy
			picture = slightly_radical
			modifier = {
				communism_drift = 0.04
				research_speed_factor = -0.07
				production_factory_efficiency_gain_factor = -0.07
				production_speed_industrial_complex_factor = -0.07
				trade_opinion_factor = -0.07
				consumer_goods_factor = -0.07
				production_speed_arms_factory_factor = 0.07
				drift_defence_factor = 0.07
				corruption_cost_factor = -0.07
			}
		}

		Planned_Economy = {
			picture = radical_leftist
			modifier = {
				communism_drift = 0.05
				research_speed_factor = -0.1
				production_factory_efficiency_gain_factor = -0.1
				production_speed_industrial_complex_factor = -0.1
				trade_opinion_factor = -0.1
				consumer_goods_factor = -0.1
				production_speed_arms_factory_factor = 0.1
				drift_defence_factor = 0.1
				corruption_cost_factor = -0.1
			}
		}

		factory_of_the_world = {
			picture = consumer_goods
			modifier = {
				production_speed_industrial_complex_factor = 0.25
				production_speed_infrastructure_factor = 0.1
				production_speed_dockyard_factor = 0.1
				research_speed_factor = 0.1
				stability_factor = -0.02
				production_factory_max_efficiency_factor = 0.2
			}
		}

		a_new_leap_forward = {
			picture = production_bonus
			modifier = {
				production_speed_arms_factory_factor = 0.25
				production_speed_infrastructure_factor = 0.1
				stability_factor = -0.2
				consumer_goods_factor = -0.1
				conversion_cost_civ_to_mil_factor = -0.25
				industrial_capacity_factory = 0.2
				production_factory_efficiency_gain_factor = 0.2
			}
		}

		water_shortages_5 = {
			name = water_shortages
			picture = water_conservation
			modifier = {
				political_power_factor = -0.25
				stability_factor = -0.1
				production_speed_buildings_factor = -0.25
				MONTHLY_POPULATION = -0.1
			}
		}

		water_shortages_4 = {
			name = water_shortages
			picture = water_conservation
			modifier = {
				political_power_factor = -0.2
				stability_factor = -0.08
				production_speed_buildings_factor = -0.2
				MONTHLY_POPULATION = -0.08
			}
		}

		water_shortages_3 = {
			name = water_shortages
			picture = water_conservation
			modifier = {
				political_power_factor = -0.15
				stability_factor = -0.05
				production_speed_buildings_factor = -0.15
				MONTHLY_POPULATION = -0.05
			}
		}

		water_shortages_2 = {
			name = water_shortages
			picture = water_conservation
			modifier = {
				political_power_factor = -0.1
				stability_factor = -0.03
				production_speed_buildings_factor = -0.1
				MONTHLY_POPULATION = -0.03
			}
		}

		water_shortages_1 = {
			name = water_shortages
			picture = water_conservation
			modifier = {
				political_power_factor = -0.05
				stability_factor = -0.01
				production_speed_buildings_factor = -0.05
				MONTHLY_POPULATION = -0.01
			}
		}

		CHI_solar_power = {
			picture = solar_energy
			modifier = {
				stability_weekly = 0.005
				production_speed_buildings_factor = -0.05
			}
		}

		CHI_coal = {
			picture = coal
			modifier = {
				stability_factor = -0.05
				political_power_factor = -0.05
				production_speed_buildings_factor = 0.10
				local_resources_factor = 0.05
			}
		}

		CHI_coal2 = {
			name = CHI_coal
			picture = coal
			modifier = {
				stability_factor = -0.075
				political_power_factor = -0.025
				production_speed_buildings_factor = 0.125
				local_resources_factor = 0.075
			}
		}

		CHI_cepc = {
			picture = research_bonus
			modifier = {
				research_speed_factor = 0.05
			}
		}

		CHI_megacity_development = {
			picture = high_society
			modifier = {
				production_speed_industrial_complex_factor = 0.15
				stability_weekly = -0.001
			}
		}

		CHI_western_development = {
			picture = resource_production
			modifier = {
				production_speed_infrastructure_factor = 0.15
				stability_weekly = -0.001
			}
		}
		CHI_new_boundary = {
			picture = national_unity
			modifier = {
				production_speed_industrial_complex_factor = 0.15
				stability_weekly = -0.001
			}
		}

		CHI_Hyundai_Partnership = {
			picture = motorized_focus
			equipment_bonus = {
				util_vehicle_equipment = {
					instant = yes
					maximum_speed = 0.1
				}
			}
			cancel = { has_war_with = KOR }
		}

		CHI_Hyundai_Partnership1 = {
			picture = motorized_focus
			name = CHI_Hyundai_Partnership
			equipment_bonus = {
				util_vehicle_equipment = {
					instant = yes
					maximum_speed = 0.1
				}
				util_vehicle_equipment = {
					instant = yes
					build_cost_ic = -0.1
				}
			}
			cancel = { has_war_with = KOR }
		}

		CHI_Volkswagen_Partnership = {
			picture = motorized_focus
			equipment_bonus = {
				util_vehicle_equipment = {
					instant = yes
					reliability = 0.1
				}
			}
			cancel = { has_war_with = GER }
		}

		CHI_Volkswagen_Partnership1 = {
			picture = motorized_focus
			name = CHI_Volkswagen_Partnership
			equipment_bonus = {
				util_vehicle_equipment = {
					instant = yes
					reliability = 0.1
				}
				util_vehicle_equipment = {
					instant = yes
					build_cost_ic = -0.1
				}
			}
			cancel = { has_war_with = GER }
		}

		CHI_Toyota_Partnership = {
			picture = motorized_focus
			equipment_bonus = {
				util_vehicle_equipment = {
					instant = yes
					build_cost_ic = -0.1
				}
			}
			cancel = { has_war_with = JAP }
		}

		CHI_Toyota_Partnership1 = {
			picture = motorized_focus
			name = CHI_Toyota_Partnership
			equipment_bonus = {
				util_vehicle_equipment = {
					instant = yes
					build_cost_ic = -0.2
				}
			}
			cancel = { has_war_with = JAP }
		}

		CHI_GM_Partnership = {
			picture = motorized_focus
			equipment_bonus = {
				util_vehicle_equipment = {
					instant = yes
					armor_value = 0.1
				}
			}
			cancel = { has_war_with = USA }
		}

		CHI_GM_Partnership1 = {
			picture = motorized_focus
			name = CHI_GM_Partnership
			equipment_bonus = {
				util_vehicle_equipment = {
					instant = yes
					armor_value = 0.1
				}
				util_vehicle_equipment = {
					instant = yes
					build_cost_ic = -0.1
				}
			}
			cancel = { has_war_with = USA }
		}

		Public_Sector_Space_Program = {
			name = Public_Sector_Space_Program
			picture = scientists_defect
			modifier = {
				political_power_factor = 0.05
				research_speed_factor = 0.05
			}
		}

		Public_Sector_Space_Program1 = {
			name = Public_Sector_Space_Program
			picture = scientists_defect
			modifier = {
				political_power_factor = 0.1
				research_speed_factor = 0.1
			}
		}

		Private_Sector_Space_Program = {
			name = Private_Sector_Space_Program
			picture = scientists_defect
			modifier = {
				research_speed_factor = 0.1
			}
		}

		Private_Sector_Space_Program1 = {
			name = Private_Sector_Space_Program
			picture = scientists_defect
			modifier = {
				research_speed_factor = 0.2
			}
		}

		South_China_Sea_Dispute = {
			picture = navy_bonus
			modifier = {
				communism_drift = -0.05
			}
			targeted_modifier = {
				tag = CHI
				defense_bonus_against = 0.1
			}
		}

		Sino_Indian_Tensions = {
			picture = soviet_advisors
			modifier = {
				communism_drift = -0.05
			}
			targeted_modifier = {
				tag = CHI
				defense_bonus_against = 0.1
			}
		}

		Cheap_Labor = {
			picture = prisoners
			modifier = {
				civ_facs_worker_requirement_modifier = 0.25
				mil_facs_worker_requirement_modifier = 0.25
				offices_worker_requirement_modifier = 0.25
				civilian_factories_productivity = 0.1
				military_factories_productivity = 0.1
				dockyard_productivity = 0.1
				offices_productivity = 0.1
				production_speed_buildings_factor = 0.1
				industrial_capacity_factory = 0.1
				industrial_capacity_dockyard = 0.1
				stability_factor = -0.05
			}
		}

		Workers_Rights = {
			picture = democratic_socialism
			modifier = {
				stability_factor = 0.05
				production_speed_buildings_factor = -0.1
			}

		}

		TV_Internet_Access = {
			picture = trade
			modifier = {
				political_power_factor = 0.1
				research_speed_factor = 0.1
				foreign_subversive_activites = 0.1
				stability_factor = 0.025
			}
		}

		America_in_Decline = {
			picture = pro_american
			cancel = {
				OR = {
					CHI = { has_war = yes }
					CHI = { is_subject = yes }
					CHI = {
						NOT = {
							has_government = communism
							has_government = nationalist
						}
					}
				}
			}
			modifier = {
				political_power_factor = -0.1
				foreign_subversive_activites = 0.1
				production_speed_buildings_factor = -0.1
				army_morale_factor = -0.1
				nationalist_drift = 0.05
				ai_focus_defense_factor = 0.5
			}
		}

		Russia_on_the_Wane = {
			picture = SOV_idea_russian_legacy
			cancel = {
				OR = {
					CHI = { has_war = yes }
					CHI = { is_subject = yes }
					CHI = {
						NOT = {
							has_government = communism
							has_government = nationalist
						}
					}
				}
			}
			modifier = {
				political_power_factor = -0.1
				foreign_subversive_activites = 0.1
				production_speed_buildings_factor = -0.1
				army_morale_factor = -0.1
				nationalist_drift = 0.05
				ai_focus_defense_factor = 0.5
			}
		}

		CHI_Peacekeepers = {
			picture = un_intervention2
			cancel = {
				NOT = {
					any_country = {
						is_african_nation = yes
						has_war = yes
					}
				}
			}
			modifier = {
				experience_gain_army = 0.1
				political_power_gain = 0.1
				send_volunteer_size = 1
			}
		}

		SCO_development_assistance = {
			picture = foreign_capital
			modifier = {
				production_speed_buildings_factor = 0.1
			}
		}

		SCO_development_assistance_2 = {
			picture = foreign_capital
			modifier = {
				production_speed_buildings_factor = 0.2
			}
		}

		SCO_joint_drill = {
			picture = volunteer_defenders2
			modifier = {
				experience_gain_army = 1
			}
		}

		SCO_joint_drill_1 = {
			name = SCO_joint_drill
			picture = volunteer_defenders2
			modifier = {
				experience_gain_army = 2
			}
		}

		SCO_joint_drill_specific = {
			name = SCO_joint_drill
			picture = volunteer_defenders2
			modifier = {
				experience_gain_army = 0.5
			}
		}

		CHI_string_of_pearls = {
			picture = escort_effort
			modifier = {
				spotting_chance = 0.2
				naval_coordination = 0.1
				navy_max_range_factor = 0.1
			}
		}

		CHI_cyber_army_idea = {
			picture = spy_political
			name = CHI_PLA_Cyber_Army
			modifier = {
				crypto_strength = 1
				intel_network_gain_factor = 0.25
				decryption_power_factor = 0.15
			}
		}

		CHI_cyber_army_global_propaganda_idea = {
			picture = spy_political
			name = CHI_PLA_Cyber_Army
			modifier = {
				crypto_strength = 1
				intel_network_gain_factor = 0.25
				decryption_power_factor = 0.15
				control_trade_mission_factor = 0.05
				diplomatic_pressure_mission_factor = 0.15
			}
		}

		CHI_cyber_army_industrial_idea = {
			picture = spy_political
			name = CHI_PLA_Cyber_Army
			modifier = {
				crypto_strength = 1
				intel_network_gain_factor = 0.25
				decryption_power_factor = 0.15
				civilian_intel_factor = 0.10
				civilian_intel_decryption_bonus = 0.05
			}
		}

		CHI_promoting_innovation = {
			picture = research_bonus
			modifier = {
				research_speed_factor = 0.08
				stability_factor = 0.05
			}
		}
		
		CHI_improving_rd = {
			picture = shared_research
			modifier = {
				research_speed_factor = 0.07
				political_power_factor = 0.05
			}
		}
		
		CHI_dominant_tech_industry = {
			picture = tower_investment
			modifier = {
				stability_factor = 0.05
				research_speed_factor = 0.1
			}
		}
		
		CHI_electric_car_project_idea = {
			picture = blr_auto_industry_economic
			modifier = {
				stability_factor = 0.05
				pop_energy_use_multiplier = 0.1
				army_fuel_consumption_factor = -0.1
				air_fuel_consumption_factor = -0.05
				navy_fuel_consumption_factor = -0.025
			}
		}
		
		TAI_flight_crew_strike = {
		picture = matignon_agreements
		allowed = { original_tag = TAI }
			modifier = {
				consumer_goods_factor = 0.05
			}
		}
		TAI_cpc = {
		picture = cpc_tw
		allowed = { original_tag = TAI }
			available = {
				AND = {
					tag = TAI	
					has_completed_focus = TAI_oil_production_of_gaoxiong  }
			}
			
			cost = 100
			removal_cost = 10
			
			research_bonus = {
			synth_resources = 0.35
			}
		
		}
		TAI_idw = {
			picture = escort_effort
		
			allowed = { always = no }
			allowed_civil_war = { always = yes }
			removal_cost = -1
			
			modifier = {
			industrial_capacity_dockyard = 0.3
			research_speed_factor = 0.05
			}
		}
		TAI_921_earthquake = {
		picture = recovering_from_the_civil_war
		
		allowed = { always = no }
		allowed_civil_war = { always = yes }
		removal_cost = -1
			
		modifier = {
		consumer_goods_factor = 0.05
		mobilization_speed = -0.2
		production_speed_arms_factory_factor = -0.2 
			}
		}
		TAI_highspeed_train = {
		picture = tai_train
		
		modifier = {
		production_speed_buildings_factor = 0.1
		army_speed_factor = 0.1
			}
		}
		TAI_national_mob_law = {
			picture = manpower_bonus
		
			allowed = { always = no }
			allowed_civil_war = { always = yes }
			removal_cost = -1
			
			modifier = {
				mobilization_speed = 0.2
			}
		}
		TAI_afrc = {
			picture = general_staff
		
			allowed = { always = no }
			allowed_civil_war = { always = yes }
			removal_cost = -1
			
			modifier = {
			defence = 0.01
			dig_in_speed_factor = 0.05
		}
		}
		TAI_expand_soldiers = {
			picture = reserve_divisions
		
			allowed = { always = no }
			allowed_civil_war = { always = yes }
			removal_cost = -1
			
			modifier = {
				conscription = 0.02
			}
		}
		TAI_post_kmt = {
			picture = democracy
		
			allowed = { always = no }
			allowed_civil_war = { always = yes }
			removal_cost = -1
			
			modifier = {
				stability_weekly = 0.001
				democratic_drift = 0.05
				nationalist_drift = 0.01
		}
		}
		TAI_martial_law = {
			picture = fascism6
		
			allowed = { always = no }
			allowed_civil_war = { always = yes }
			removal_cost = -1
			
			modifier = {
				political_power_factor = -0.05
				stability_weekly = -0.001
		}
		}
		TAI_1st_special_force = {
			picture = infantry_bonus2
		
			allowed = { always = no }
			allowed_civil_war = { always = yes }
			removal_cost = -1
			
			modifier = {
				special_forces_training_time_factor = 0.3
				special_forces_cap = 0.3
			}
		}
		TAI_gastapo = {
			picture = garrison_command
		
			allowed = { always = no }
			allowed_civil_war = { always = yes }
			removal_cost = -1
			
			modifier = {
				fascism_drift = 0.02
				stability_weekly = 0.001
		}
		}
		TAI_early_economy_control = {
			picture = consumer_goods
		
			allowed = { always = no }
			allowed_civil_war = { always = yes }
			removal_cost = -1
			
			modifier = {
			consumer_goods_factor = -0.05
		}
		}
		TAI_total_economy_control = {
			picture = consumer_goods
		
			allowed = { always = no }
			allowed_civil_war = { always = yes }
			removal_cost = -1
			
			modifier = {
			consumer_goods_factor = -0.1
		}
		}
		TAI_political_edu = {
			picture = army_war_college
		
			allowed = { always = no }
			allowed_civil_war = { always = yes }
			removal_cost = -1
			
			modifier = {
				fascism_drift = 0.03
				political_power_factor = 0.05
		}
		}
		TAI_government_controlled_union = {
			picture = democratic_socialism
		
			allowed = { always = no }
			allowed_civil_war = { always = yes }
			removal_cost = -1
			
			modifier = {
				fascism_drift = 0.01
				industrial_capacity_factory = 0.01
				stability_weekly = 0.001
		}
		}
		TAI_enforced_labor = {
			picture = production_bonus
		
			allowed = { always = no }
			allowed_civil_war = { always = yes }
			removal_cost = -1
			
			modifier = {
				industrial_capacity_factory = 0.1
		}
		}
		TAI_aia = {
			picture = spy_political
		
			allowed = { always = no }
			allowed_civil_war = { always = yes }
			removal_cost = -1
			
			modifier = {
				encryption_factor = 0.25
				foreign_influence_defense_modifier = 0.2
			}
		}
		TAI_taiwan_indep = {
			picture = taiwan_coup
		
			allowed = { always = no }
			allowed_civil_war = { always = yes }
			removal_cost = -1
			
			modifier = {
				emerging_outlook_campaign_cost_modifier = -0.05
				nationalist_outlook_campaign_cost_modifier = -0.05
				foreign_influence_defense_modifier = 0.05
				western_outlook_campaign_cost_modifier = 0.05
				propaganda_campaign_cost_modifier = 0.05
			}
		}
		TAI_purge_kmt = {
			picture = purge_kmt
		
			allowed = { always = no }
			allowed_civil_war = { always = yes }
			removal_cost = -1
			
			modifier = {
				stability_weekly = -0.005
				democratic_drift = -0.01
			}
		}
		TAI_red_rising = {

			allowed = {
				original_tag = TAI
				always = no
			}

			allowed_civil_war = {
				always = no
			}

			picture = revolutionary_army
			modifier = {
				communism_drift = 0.05
			}
		}
		TAI_labour_standards_law = {
			picture = industrial_concern
		
			allowed = { always = no }
			allowed_civil_war = { always = yes }
			removal_cost = -1
			
			modifier = {
				line_change_production_efficiency_factor = 0.05
				repair_speed_factor = 0.05
				consumer_goods_factor = 0.1
				health_cost_multiplier_modifier = 0.05
				social_cost_multiplier_modifier = 0.05
			}
		}
		TAI_military_public_educational_pension_reform = {
		
			allowed = {
				original_tag = TAI
			}
			picture = Pension_Reform
		
			#allowed_civil_war = { always = yes }
			removal_cost = -1
			
			available = {

			}
	
			modifier = {
				consumer_goods_factor = -0.1
			}
		}
		TAI_gay_marriage = {
			
			allowed = {
				original_tag = TAI
			}
			picture = lgbt
		
			#allowed_civil_war = { always = yes }
			removal_cost = -1
			
			modifier = {
				consumer_goods_factor = 0.05
				stability_factor = -0.05
			}
		}
		TAI_renewable_energy = {
			
			allowed = {
				original_tag = TAI
			}
			picture = lgbt
		
			#allowed_civil_war = { always = yes }
			removal_cost = -1
			
			modifier = {
				renewable_energy_gain = 0.05
				fossil_fuel_consumption = -0.05
			}
		}
		TAI_long_care_2 = {
			
			allowed = {
				original_tag = TAI
			}
			picture = neutrality
		
			#allowed_civil_war = { always = yes }
			removal_cost = -1
			
			available = {

			}
	
			modifier = {
				consumer_goods_factor = 0.02
				stability_factor = 0.05
			}
		}
		TAI_sustainable_development_strategy = {
		
			allowed = {
				original_tag = TAI
			}
			picture = progressivism
		
			#allowed_civil_war = { always = yes }
			removal_cost = -1
			
			available = {

			}
	
			modifier = {
				industrial_capacity_factory = -0.05
				min_export = -0.05
			}
		}
		TAI_affordable_housing_plan = {
			
			allowed = {
				original_tag = TAI
			}
			picture = political_power_bonus
		
			#allowed_civil_war = { always = yes }
			removal_cost = -1
			
			available = {

			}
	
			modifier = {
				war_support_factor = 0.05
				production_factory_max_efficiency_factor = 0.05
			}
		}
		TAI_walfare_state_goal = {

			allowed = {
				original_tag = TAI
			}
			#picture = political_power_bonus
		
			#allowed_civil_war = { always = yes }
			removal_cost = -1
			
			available = {

			}
	
			modifier = {
				surrender_limit	= 0.25
				defensive_war_stability_factor = 0.1
				political_power_factor = 0.1
				production_speed_buildings_factor = 0.1
				line_change_production_efficiency_factor = 0.05
			}
		}
	}
}