ideas = {
	country = {
		CHI_PLA_Business_Ventures = {
			picture = army_problems
			modifier = {
				political_power_factor = 0.1
				consumer_goods_factor = -0.04
				army_attack_factor = -0.08
				army_defence_factor = -0.10
				max_planning = -0.25
			}
		}
		CHI_PLA_Business_Ventures2 = {
			picture = army_problems
			modifier = {
				political_power_factor = -0.02
				consumer_goods_factor = 0.02
				army_attack_factor = -0.04
				army_defence_factor = -0.05
				max_planning = -0.10
			}
		}
		CHI_Invigorate_Country_Through_STE1 = {
			picture = research_bonus
			modifier = {
				research_speed_factor = 0.02
			}
		}
		CHI_Invigorate_Country_Through_STE2 = {
			picture = research_bonus
			modifier = {
				research_speed_factor = 0.03
				democratic_drift = 0.02
				neutrality_drift = 0.02
				stability_factor = -0.02
			}
		}
		CHI_Invigorate_Country_Through_STE3 = {
			picture = research_bonus
			modifier = {
				research_speed_factor = 0.03
				foreign_subversive_activites = -0.5
			}
		}
		CHI_nuclear_power = {
			name = CHI_nuclear_power_idea
			picture = nuclear_energy
			modifier = {
				stability_factor = 0.05
				research_speed_factor = 0.01
				foreign_influence_defense_modifier = 0.01
			}
		}
		int_investment_china = {
			picture = foreign_capital
			cancel = {
				has_war = yes
			}
			modifier = {
				economic_cycles_cost_factor = -0.1
				production_speed_buildings_factor = 0.05
				receiving_investment_duration_modifier = -0.05
				receiving_investment_cost_modifier = -0.10
			}
		}
		fusion_power_1 = {
			name = fusion_power
			picture = fusion_energy
			modifier = {
				foreign_influence_defense_modifier = 0.025
				stability_factor = 0.1
				research_speed_factor = 0.025
			}
		}
		fusion_power_2 = {
			name = fusion_power
			picture = fusion_energy
			modifier = {
				foreign_influence_defense_modifier = 0.035
				stability_factor = 0.125
				research_speed_factor = 0.035
			}
		}
		fusion_power_3 = {
			name = fusion_power
			picture = fusion_energy
			modifier = {
				foreign_influence_defense_modifier = 0.05
				stability_factor = 0.15
				research_speed_factor = 0.05
			}
		}
		space_combat_support_force = {
			name = space_combat_support_force
			picture = generic_air_bonus
			allowed_civil_war = { always = yes }
			modifier = {
				max_planning = 0.15
				decryption_factor = 0.10
			}
		}
		space_combat_support_force_2 = {
			name = space_combat_support_force
			picture = generic_air_bonus
			allowed_civil_war = { always = yes }
			modifier = {
				max_planning = 0.25
				decryption_factor = 0.20
				army_attack_factor = 0.15
			}
		}
		space_combat_support_force_3 = {
			name = space_combat_support_force
			picture = generic_air_bonus
			allowed_civil_war = { always = yes }
			modifier = {
				max_planning = 0.33
				decryption_factor = 0.25
				army_attack_factor = 0.20
			}
		}
		CHI_space_marines_idea = {
			picture = air_support_focus
			allowed_civil_war = { always = yes }
			equipment_bonus = {
				transport_plane_equipment = {
					air_range = 4
					build_cost_ic = 4
					instant = yes
				}
			}
		}
		beidou_satelite_navigation = {
			picture = idea_wip
			allowed_civil_war = { always = yes }
			modifier = {
				army_org_Factor = 0.10
				army_attack_factor = 0.10
				army_defence_factor = 0.15
				army_speed_factor = 0.05
			}
		}
		space_efforts = {#Bolster the CNSA/Private Endeavors
			name = space_efforts
			picture = generic_research_bonus
			allowed_civil_war = { always = yes }
			modifier = {
				research_speed_factor = 0.02
				political_power_factor = 0.05
			}
		}
		space_efforts1 = {#Bolster the CNSA/Private Endeavors
			name = space_efforts
			picture = generic_research_bonus
			allowed_civil_war = { always = yes }
			modifier = {
				research_speed_factor = 0.03
				political_power_factor = 0.05
			}
		}
		space_efforts2 = {#Bolster the CNSA/Private Endeavors
			name = space_efforts
			picture = generic_research_bonus
			allowed_civil_war = { always = yes }
			modifier = {
				research_speed_factor = 0.05
				political_power_factor = 0.05
			}
		}
		party_before_country = {
			on_add = { log = "[GetDateText]: [Root.GetName]: add idea party_before_country" }

			allowed = {
				original_tag = CHI
			}

			cancel = {
				NOT = { has_government = communism }
			}

			modifier = {
				drift_defence_factor = 1.0
				communism_drift = 0.1
				army_org_factor = -0.03
				experience_gain_factor = -0.20
				conscription = -0.015
			}
		}


		zhonghua = {
			on_add = { log = "[GetDateText]: [Root.GetName]: add idea zhonghua" }
             
			allowed = {
				original_tag = CHI
			}

			modifier = {
				#political_power_gain = 0.5
				stability_factor = 0.05
				foreign_subversive_activites = -0.5
				join_faction_tension = 0.75
				send_volunteers_tension = 0.25
				generate_wargoal_tension = 0.5
			}
		}

		chabuduo = {
			on_add = { log = "[GetDateText]: [Root.GetName]: add idea chabuduo" }

			allowed = {
				original_tag = CHI
			}

			modifier = {
				production_speed_buildings_factor = 0.2
				industry_free_repair_factor = -0.75
				industry_repair_factor = -0.75
				local_resources_factor = -0.10
				corruption_cost_factor = 0.5
			}
		}

		one_child_policy = {

			allowed = { original_tag = CHI }

			picture = one_child_policy

			modifier = {
				MONTHLY_POPULATION = -0.35
			}
		}

		factional_politics_balanced = {

			allowed = { original_tag = CHI }

			picture = national_unity

			modifier = {
			}
		}

		factional_politics_populist = {

			allowed = { original_tag = CHI }

			picture = propaganda

			modifier = {
				political_power_gain = 0.2
				corruption_cost_factor = -0.1
				production_speed_buildings_factor = -0.1
				production_speed_infrastructure_factor = 0.25
				consumer_goods_factor = 0.02
				stability_factor = -0.05
			}
		}

		factional_politics_elitist = {

			allowed = { original_tag = CHI }

			picture = high_society

			modifier = {
				political_power_gain = -0.2
				corruption_cost_factor = 0.1
				production_speed_buildings_factor = 0.1
				consumer_goods_factor = -0.02
				stability_factor = -0.05
			}
		}

		three_represents = {

			allowed = { original_tag = CHI }

			picture = national_unity

			modifier = {
				consumer_goods_factor = -0.05
				industrial_capacity_factory = 0.1
				industrial_capacity_dockyard = 0.1
				political_power_gain = -0.1
			}

		}

		scientific_outlook_on_development = {
			allowed = { original_tag = CHI }
			picture = flexible_foreign_policy2
			modifier = {
				political_power_gain = 0.1
				research_speed_factor = 0.1
				production_factory_efficiency_gain_factor = -0.1
				production_speed_industrial_complex_factor = -0.25
			}
		}

		zeng_qinghong_thought = {
			allowed = { original_tag = CHI }
			picture = disjointed_government
			modifier = {
				political_power_gain = 0.05
				max_command_power = 10
				command_power_gain = 0.5
				consumer_goods_factor = -0.02
			}
		}

		xi_jinping_thought = {
			allowed = { original_tag = CHI }
			picture = army_war_college
			cancel = {
				NOT = { has_government = communism }
			}
			modifier = {
				stability_factor = 0.02
				communism_drift = 0.01
			}
		}

		xi_jinping_thought2 = {
			name = xi_jinping_thought
			allowed = { original_tag = CHI }
			picture = army_war_college
			cancel = {
				NOT = { has_government = communism }
			}
			modifier = {
				political_power_factor = 0.1
				stability_factor = 0.02
				communism_drift = 0.02
				consumer_goods_factor = -0.01
				research_speed_factor = 0.05
				production_factory_max_efficiency_factor = 0.05
			}
		}

		xi_jinping_thought3 = {
			name = xi_jinping_thought
			allowed = { original_tag = CHI }
			picture = army_war_college
			cancel = {
				NOT = { has_government = communism }
			}
			modifier = {
				political_power_factor = 0.15
				stability_factor = 0.05
				communism_drift = 0.01
				consumer_goods_factor = -0.02
				research_speed_factor = 0.05
				industrial_capacity_factory = -0.10
				production_factory_max_efficiency_factor = 0.10
				production_speed_industrial_complex_factor = 0.05
			}
		}

		xi_jinping_thought4 = {
			name = xi_jinping_thought
			allowed = { original_tag = CHI }
			picture = army_war_college
			cancel = {
				NOT = { has_government = communism }
			}
			modifier = {
				political_power_factor = 0.10
				stability_factor = -0.01
				communism_drift = 0.03
				consumer_goods_factor = -0.01
				research_speed_factor = 0.05
				production_factory_max_efficiency_factor = 0.05
				production_speed_arms_factory_factor = 0.05
				justify_war_goal_time = -0.10
				army_morale_factor = 0.01
			}
		}

		chongqing_model = {
			allowed = { original_tag = CHI }
			picture = communism3
			cancel = {
				NOT = { has_government = communism }
			}
			modifier = {
				political_power_factor = 0.15
				communism_drift = 0.05
				stability_factor = -0.1
				consumer_goods_factor = 0.02
				production_speed_buildings_factor = -0.02
			}

		}

		nanjie_model = {
			allowed = { original_tag = CHI }
			picture = communism5
			cancel = {
				NOT = { has_government = communism }
			}
			modifier = {
				political_power_factor = 0.25
				communism_drift = 0.1
				stability_factor = -0.15
				consumer_goods_factor = 0.05
				production_speed_buildings_factor = -0.1
				research_speed_factor = -0.1
				education_budget_cost_factor = -0.5
				health_budget_cost_factor = -0.5
				social_budget_cost_factor = -0.5
			}
		}

		legacy_of_1949 = {

			allowed = { original_tag = TAI }

			picture = chi_warlord_integration6

			modifier = {
				communism_drift = -0.05
			}
		}

		legacy_of_1949_1 = {

			allowed = { original_tag = TAI }

			picture = chi_warlord_integration6

			modifier = {
				communism_drift = -0.02
			}
		}

		Lacks_International_Recognition_Taiwan = {
			on_add = { log = "[GetDateText]: [Root.GetName]: add idea Lacks_International_Recognition_Taiwan" }

			picture = disjointed_government

			modifier = {
				political_power_factor = -0.15
				Foreign_Intervention_Law_cost_factor = 0.25
				trade_opinion_factor = -0.15
			}
		}

		china_travel_ban = {
			allowed = { original_tag = TAI }
			picture = segregation

			modifier = {
				consumer_goods_factor = 0.05
				production_speed_buildings_factor = -0.1
				MONTHLY_POPULATION = -0.01
				custom_modifier_tooltip = china_travel_ban_idea_tt
			}
		}

		legislative_yuan_occupied = {

			allowed = { original_tag = TAI }

			picture = segregation

			modifier = {
				stability_factor = -0.05
				political_power_factor = -0.25
			}
		}

		joint_control_zones = {

			picture = coastal_navy

			modifier = {
				experience_gain_air = 0.05
				experience_gain_navy = 0.05
				convoy_escort_efficiency = 0.1
				naval_coordination = 0.1
				navy_submarine_detection_factor = 0.1
			}
		}

		our_national_enemy = {

			picture = warrior_traditions_idea

			targeted_modifier = {
				tag = JAP
				attack_bonus_against = 0.1
				defense_bonus_against = 0.1
			}
		}
		ceremony_in_khentii = {

			picture = ceremony_khentii
			
			targeted_modifier = {
				tag = MON
				attack_bonus_against = 0.1
				defense_bonus_against = 0.1
			}
		}
		
		khalkha_return = {

			picture = end_of_khalkha
			
            modifier = {
			    stability_factor = 0.01
				war_support_weekly = 0.001
			}
			targeted_modifier = {
				tag = SOV
				attack_bonus_against = 0.1
				defense_bonus_against = 0.1
			}
		}

		island_blockade = {

			picture = coastal_navy

			modifier = {
				convoy_escort_efficiency = -0.25
				naval_coordination = -0.25
				navy_submarine_detection_factor = -0.25
			}
		}

		CHI_war_preparations = {

			picture = volunteer_defenders2

			cancel = { has_war = yes }

			modifier = {
				Military_Spending_cost_factor = -0.5
				war_support_weekly = 0.005
				mobilization_speed = 0.1
				training_time_factor = -0.1
				planning_speed = 0.25
				invasion_preparation = -0.25
			}
		}

		taiwanese_coup = {

			picture = taiwan_coup

			modifier = {
				stability_factor = -0.1
				political_power_factor = -0.25
				max_command_power = -10
			}
		}

		recently_acceded_to_wto = {

			picture = high_society

			modifier = {
				trade_opinion_factor = 0.25
				production_speed_buildings_factor = 0.1
				research_speed_factor = 0.1
			}
		}


		CHI_foreign_investment = {

			picture = foreign_capital

			modifier = {
				production_speed_industrial_complex_factor = 0.25
				production_speed_infrastructure_factor = 0.25
			}
		}

		Socialist_Market_Economy = {

			name = Socialist_Market_Economy

			picture = well_balanced

			modifier = {
				communism_drift = 0.02
				research_speed_factor = -0.02
				production_factory_efficiency_gain_factor = -0.02
				production_speed_industrial_complex_factor = -0.02
				trade_opinion_factor = -0.02
				consumer_goods_factor = -0.02
				production_speed_arms_factory_factor = 0.02
				drift_defence_factor = 0.02
				corruption_cost_factor = -0.02
			}
		}

		Socialist_Market_Economy_free_1 = {

			name = Socialist_Market_Economy

			picture = slightly_reformist

			modifier = {
				research_speed_factor = 0.02
				production_factory_efficiency_gain_factor = 0.02
				production_speed_industrial_complex_factor = 0.02
				trade_opinion_factor = 0.02
				consumer_goods_factor = 0.02
				production_speed_arms_factory_factor = -0.02
				drift_defence_factor = -0.02
				corruption_cost_factor = 0.02
				receiving_investment_duration_modifier = -0.025
				receiving_investment_cost_modifier = -0.025
			}
		}

		Socialist_Market_Economy_free_2 = {

			name = Socialist_Market_Economy

			picture = slightly_reformist

			modifier = {
				communism_drift = -0.02
				research_speed_factor = 0.05
				production_factory_efficiency_gain_factor = 0.05
				production_speed_industrial_complex_factor = 0.05
				trade_opinion_factor = 0.05
				stability_factor = -0.02
				consumer_goods_factor = 0.05
				production_speed_arms_factory_factor = -0.05
				drift_defence_factor = -0.05
				corruption_cost_factor = 0.05
				receiving_investment_duration_modifier = -0.05
				receiving_investment_cost_modifier = -0.05
			}
		}

		Free_Market_Economy = {

			picture = modern_reformist

			modifier = {
				communism_drift = -0.05
				research_speed_factor = 0.1
				production_factory_efficiency_gain_factor = 0.1
				production_speed_industrial_complex_factor = 0.1
				trade_opinion_factor = 0.1
				stability_factor = -0.05
				consumer_goods_factor = 0.1
				production_speed_arms_factory_factor = -0.1
				drift_defence_factor = -0.1
				corruption_cost_factor = 0.1
				receiving_investment_duration_modifier = -0.075
				receiving_investment_cost_modifier = -0.075
			}
		}

		Socialist_Market_Economy_planned_1 = {

			name = Socialist_Market_Economy

			picture = slightly_radical

			modifier = {
				communism_drift = 0.03
				research_speed_factor = -0.05
				production_factory_efficiency_gain_factor = -0.05
				production_speed_industrial_complex_factor = -0.05
				trade_opinion_factor = -0.05
				consumer_goods_factor = -0.05
				production_speed_arms_factory_factor = 0.05
				drift_defence_factor = 0.05
				corruption_cost_factor = -0.05
			}
		}

		Socialist_Market_Economy_planned_2 = {

			name = Socialist_Market_Economy

			picture = slightly_radical

			modifier = {
				communism_drift = 0.04
				research_speed_factor = -0.07
				production_factory_efficiency_gain_factor = -0.07
				production_speed_industrial_complex_factor = -0.07
				trade_opinion_factor = -0.07
				consumer_goods_factor = -0.07
				production_speed_arms_factory_factor = 0.07
				drift_defence_factor = 0.07
				corruption_cost_factor = -0.07
			}
		}

		Planned_Economy = {

			picture = radical_leftist

			modifier = {
				communism_drift = 0.05
				research_speed_factor = -0.1
				production_factory_efficiency_gain_factor = -0.1
				production_speed_industrial_complex_factor = -0.1
				trade_opinion_factor = -0.1
				consumer_goods_factor = -0.1
				production_speed_arms_factory_factor = 0.1
				drift_defence_factor = 0.1
				corruption_cost_factor = -0.1
			}
		}

		factory_of_the_world = {
			picture = consumer_goods
			modifier = {
				production_speed_industrial_complex_factor = 0.25
				production_speed_infrastructure_factor = 0.1
				production_speed_dockyard_factor = 0.1
				research_speed_factor = 0.1
				stability_factor = -0.02
				production_factory_max_efficiency_factor = 0.2
			}
		}

		a_new_leap_forward = {
			picture = production_bonus
			modifier = {
				production_speed_arms_factory_factor = 0.25
				production_speed_infrastructure_factor = 0.1
				stability_factor = -0.2
				consumer_goods_factor = -0.1
				conversion_cost_civ_to_mil_factor = -0.25
				industrial_capacity_factory = 0.2
				production_factory_efficiency_gain_factor = 0.2
			}
		}

		water_shortages_5 = {
			name = water_shortages
			picture = water_conservation
			modifier = {
				political_power_factor = -0.25
				stability_factor = -0.1
				production_speed_buildings_factor = -0.25
				MONTHLY_POPULATION = -0.1
			}
		}

		water_shortages_4 = {
			name = water_shortages
			picture = water_conservation
			modifier = {
				political_power_factor = -0.2
				stability_factor = -0.08
				production_speed_buildings_factor = -0.2
				MONTHLY_POPULATION = -0.08
			}
		}

		water_shortages_3 = {
			name = water_shortages
			picture = water_conservation
			modifier = {
				political_power_factor = -0.15
				stability_factor = -0.05
				production_speed_buildings_factor = -0.15
				MONTHLY_POPULATION = -0.05
			}
		}

		water_shortages_2 = {
			name = water_shortages
			picture = water_conservation
			modifier = {
				political_power_factor = -0.1
				stability_factor = -0.03
				production_speed_buildings_factor = -0.1
				MONTHLY_POPULATION = -0.03
			}
		}

		water_shortages_1 = {
			name = water_shortages
			picture = water_conservation
			modifier = {
				political_power_factor = -0.05
				stability_factor = -0.01
				production_speed_buildings_factor = -0.05
				MONTHLY_POPULATION = -0.01
			}
		}

		CHI_solar_power = {
			picture = solar_energy
			modifier = {
				stability_weekly = 0.005
				production_speed_buildings_factor = -0.05
			}
		}

		CHI_coal = {
			picture = coal
			modifier = {
				stability_factor = -0.05
				political_power_factor = -0.05
				production_speed_buildings_factor = 0.10
				local_resources_factor = 0.05
			}
		}

		CHI_coal2 = {
			name = CHI_coal
			picture = coal
			modifier = {
				stability_factor = -0.075
				political_power_factor = -0.025
				production_speed_buildings_factor = 0.125
				local_resources_factor = 0.075
			}
		}

		CHI_cepc = {
			picture = research_bonus
			modifier = {
				research_speed_factor = 0.05
			}
		}

		CHI_megacity_development = {
			picture = high_society
			modifier = {
				production_speed_industrial_complex_factor = 0.15
				stability_weekly = -0.001
			}
		}

		CHI_western_development = {
			picture = resource_production
			modifier = {
				production_speed_infrastructure_factor = 0.15
				stability_weekly = -0.001
			}
		}
		CHI_new_boundary = {
			picture = national_unity
			modifier = {
				production_speed_industrial_complex_factor = 0.15
				stability_weekly = -0.001
			}
		}

		CHI_Hyundai_Partnership = {
			picture = motorized_focus
			equipment_bonus = {
				util_vehicle_equipment = {
					instant = yes
					maximum_speed = 0.1
				}
			}

			cancel = { has_war_with = KOR }
		}

		CHI_Hyundai_Partnership1 = {
			picture = motorized_focus
			name = CHI_Hyundai_Partnership
			equipment_bonus = {
				util_vehicle_equipment = {
					instant = yes
					maximum_speed = 0.1
				}
				util_vehicle_equipment = {
					instant = yes
					build_cost_ic = -0.1
				}
			}

			cancel = { has_war_with = KOR }
		}

		CHI_Volkswagen_Partnership = {
			picture = motorized_focus
			equipment_bonus = {
				util_vehicle_equipment = {
					instant = yes
					reliability = 0.1
				}
			}

			cancel = { has_war_with = GER }
		}

		CHI_Volkswagen_Partnership1 = {
			picture = motorized_focus
			name = CHI_Volkswagen_Partnership
			equipment_bonus = {
				util_vehicle_equipment = {
					instant = yes
					reliability = 0.1
				}
				util_vehicle_equipment = {
					instant = yes
					build_cost_ic = -0.1
				}
			}

			cancel = { has_war_with = GER }
		}

		CHI_Toyota_Partnership = {
			picture = motorized_focus
			equipment_bonus = {
				util_vehicle_equipment = {
					instant = yes
					build_cost_ic = -0.1
				}
			}

			cancel = { has_war_with = JAP }
		}

		CHI_Toyota_Partnership1 = {
			picture = motorized_focus
			name = CHI_Toyota_Partnership
			equipment_bonus = {
				util_vehicle_equipment = {
					instant = yes
					build_cost_ic = -0.2
				}
			}

			cancel = { has_war_with = JAP }
		}

		CHI_GM_Partnership = {
			picture = motorized_focus
			equipment_bonus = {
				util_vehicle_equipment = {
					instant = yes
					armor_value = 0.1
				}
			}

			cancel = { has_war_with = USA }
		}

		CHI_GM_Partnership1 = {
			picture = motorized_focus
			name = CHI_GM_Partnership
			equipment_bonus = {
				util_vehicle_equipment = {
					instant = yes
					armor_value = 0.1
				}
				util_vehicle_equipment = {
					instant = yes
					build_cost_ic = -0.1
				}
			}

			cancel = { has_war_with = USA }
		}

		Public_Sector_Space_Program = {
			name = Public_Sector_Space_Program
			picture = scientists_defect
			modifier = {
				political_power_factor = 0.05
				research_speed_factor = 0.05
			}
		}

		Public_Sector_Space_Program1 = {
			name = Public_Sector_Space_Program
			picture = scientists_defect
			modifier = {
				political_power_factor = 0.1
				research_speed_factor = 0.1
			}
		}

		Private_Sector_Space_Program = {
			name = Private_Sector_Space_Program
			picture = scientists_defect
			modifier = {
				research_speed_factor = 0.1
			}
		}

		Private_Sector_Space_Program1 = {
			name = Private_Sector_Space_Program
			picture = scientists_defect
			modifier = {
				research_speed_factor = 0.2
			}
		}

		South_China_Sea_Dispute = {
			picture = navy_bonus
			modifier = {
				communism_drift = -0.05
			}

			targeted_modifier = {
				tag = CHI
				defense_bonus_against = 0.1
			}
		}

		Sino_Indian_Tensions = {
			picture = soviet_advisors
			modifier = {
				communism_drift = -0.05
			}

			targeted_modifier = {
				tag = CHI
				defense_bonus_against = 0.1
			}
		}

		Cheap_Labor = {

			picture = prisoners

			modifier = {
				stability_factor = -0.05
				production_speed_buildings_factor = 0.1
			}
		}

		Workers_Rights = {

			picture = democratic_socialism

			modifier = {
				stability_factor = 0.05
				production_speed_buildings_factor = -0.1
			}

		}

		TV_Internet_Access = {

			picture = trade

			modifier = {
				political_power_factor = 0.1
				research_speed_factor = 0.1
				foreign_subversive_activites = 0.1
				stability_factor = 0.025
			}
		}

		America_in_Decline = {

			picture = pro_american

			cancel = {
				OR = {
					CHI = { has_war = yes }
					CHI = { is_puppet = yes }
					CHI = {
						NOT = {
							has_government = communism
							has_government = nationalist
						}
					}
				}
			}

			modifier = {
				political_power_factor = -0.1
				foreign_subversive_activites = 0.1
				production_speed_buildings_factor = -0.1
				army_morale_factor = -0.1
				nationalist_drift = 0.05
				ai_focus_defense_factor = 0.5
			}
		}

		Russia_on_the_Wane = {

			picture = SOV_idea_russian_legacy

			cancel = {
				OR = {
					CHI = { has_war = yes }
					CHI = { is_puppet = yes }
					CHI = {
						NOT = {
							has_government = communism
							has_government = nationalist
						}
					}
				}
			}

			modifier = {
				political_power_factor = -0.1
				foreign_subversive_activites = 0.1
				production_speed_buildings_factor = -0.1
				army_morale_factor = -0.1
				nationalist_drift = 0.05
				ai_focus_defense_factor = 0.5
			}
		}

		CHI_Peacekeepers = {

			picture = GFX_idea_un_intervention2

			cancel = {
				NOT = {
					any_country = {
						is_african_nation = yes
						has_war = yes
					}
				}
			}

			modifier = {
				experience_gain_army = 0.1
				political_power_gain = 0.1
				send_volunteer_size = 1
			}
		}

		SCO_development_assistance = {

			picture = foreign_capital

			modifier = {
				production_speed_buildings_factor = 0.1
			}
		}

		SCO_development_assistance_2 = {

			picture = foreign_capital

			modifier = {
				production_speed_buildings_factor = 0.2
			}
		}

		SCO_joint_drill = {
			picture = volunteer_defenders2
			modifier = {
				experience_gain_army = 1
			}
		}

		SCO_joint_drill_1 = {
			name = SCO_joint_drill
			picture = volunteer_defenders2
			modifier = {
				experience_gain_army = 2
			}
		}

		SCO_joint_drill_specific = {
			name = SCO_joint_drill
			picture = volunteer_defenders2
			modifier = {
				experience_gain_army = 0.5
			}
		}

		CHI_string_of_pearls = {
			picture = escort_effort
			modifier = {
				spotting_chance = 0.2
				naval_coordination = 0.1
				navy_max_range_factor = 0.1
			}
		}

		CHI_cyber_army_idea = {
			picture = spy_political
			name = CHI_PLA_Cyber_Army

			modifier = {
				crypto_strength = 1
				intel_network_gain_factor = 0.25
				decryption_power_factor = 0.15
			}
		}

		CHI_cyber_army_global_propaganda_idea = {
			picture = spy_political
			name = CHI_PLA_Cyber_Army

			modifier = {
				crypto_strength = 1
				intel_network_gain_factor = 0.25
				decryption_power_factor = 0.15
				control_trade_mission_factor = 0.05
				diplomatic_pressure_mission_factor = 0.15
			}
		}

		CHI_cyber_army_industrial_idea = {
			picture = spy_political
			name = CHI_PLA_Cyber_Army

			modifier = {
				crypto_strength = 1
				intel_network_gain_factor = 0.25
				decryption_power_factor = 0.15
				civilian_intel_factor = 0.10
				civilian_intel_decryption_bonus = 0.05
			}
		}

		CHI_promoting_innovation = {
			picture = research_bonus

			modifier = {
				research_speed_factor = 0.08
				stability_factor = 0.05
			}
		}
		CHI_improving_rd = {
			picture = shared_research

			modifier = {
				research_speed_factor = 0.07
				political_power_factor = 0.05
			}
		}
		CHI_dominant_tech_industry = {
			picture = tower_investment

			modifier = {
				stability_factor = 0.05
				research_speed_factor = 0.1
			}
		}
	}
}
