opinion_modifiers = {
	#SOV
	RUS_OIL = {
		trade = yes
		value = 30
	}

	##### TRADE MODIFIERS
	embargo = {
		trade = yes
		value = -500
	}
	embargo_opinion = {
		value = -200
	}
	recently_embargoed = {
		value = -50
		decay = 1
	}
	harsh_sanctions = {
		trade = yes
		value = -100
	}
	sanctions = {
		trade = yes
		value = -80
	}
	minor_sanctions = {
		trade = yes
		value = -50
	}
	arms_embargo = {
		value = -50
	}
	european_union_member_trade = {
		trade = yes
		value = 25
	}
	french_companies = {
		trade = yes
		value = 50
	}
	usa_companies = {
		trade = yes
		value = 50
	}
	na_agreements = {
		trade = yes
		value = 30
	}
	na_agreements2 = {
		trade = yes
		value = 50
	}
	eu_companies = {
		trade = yes
		value = 30
	}

	# Improve Trade Relations
	mutual_trade_agreement = {
		trade = yes
		value = 100
	}
	mutual_trade_opinion = {
		value = 25
	}

	broke_trade_agreement = {
		value = -15
		decay = 1
	}

	mutual_investment_treaty_opinion = {
		value = 30
	}
	mutual_investment_treaty_trade_opinion = {
		value = 30
		trade = yes
	}

	broke_mutual_investment_treaty = {
		value = -15
		decay = 1
	}

	## Major Arab Oil Importer
	major_arab_oil_importer = {
		trade = yes
		value = 50
	}

	american_japanese_imports = {
		trade = yes
		value = 50
	}
}
