# Author(s): AngriestBird, Viruce, Kalkalash
add_namespace = Syria
add_namespace = SyriaNews
add_namespace = SyriaDecisions
add_namespace = SyriaDecisionsNews
add_namespace = SyriaFocus
add_namespace = SyriaFocusNews

#Situation with Tahrir Al-Sham and FSA
country_event = {

	id = Syria.2

	title = Syria.2.t
	desc = Syria.2.desc
	picture = GFX_SYR_tahrir_al_sham

	is_triggered_only = yes

	fire_only_once = yes

	option = {
		name = Syria.2.a
		log = "[GetDateText]: [This.GetName]: Syria.2.a executed"		#Offer them representation
		ai_chance = {
			base = 10
			modifier = {
				factor = 1.5
				fascism > 20
				fascism < 30
			}
			modifier = {
				factor = 2
				fascism > 30
				fascism < 40
			}
			modifier = {
				factor = 3
				fascism > 40
			}
			modifier = {
				factor = 4
				has_government = fascism
			}
		}
		add_political_power = -50
		NUS = { country_event = { days = 3 id = Syria.3 } }
	}
	option = {
		name = Syria.2.b
		log = "[GetDateText]: [This.GetName]: Syria.2.b executed"		#Take them out
		ai_chance = {
			base = 90
			modifier = {
				factor = 0.8
				fascism > 20
				fascism < 30
			}
			modifier = {
				factor = 0.65
				fascism > 30
					fascism < 40
			}
			modifier = {
				factor = 0.35
				fascism > 40
			}
			modifier = {
				factor = 0
				has_government = fascism
			}
		}
		create_wargoal = { type = annex_everything target = NUS }
		hidden_effect = { news_event = { id = SyriaNews.2 hours = 6 } }
	}
}

#FSA offers representation
country_event = {

	id = Syria.3
	title = Syria.3.t
	desc = Syria.3.desc
	picture = GFX_SYR_tahrir_al_sham

	is_triggered_only = yes

	option = {
		name = Syria.3.a
		log = "[GetDateText]: [This.GetName]: Syria.3.a executed"			#Agree
		ai_chance = {
			base = 25
			modifier = {
				factor = 4
				FSA = { same_ideology = yes }
			}
		}
		FSA = { country_event = { days = 3 id = Syria.4 } }
		FSA = { set_country_flag = Promised_Representation_NUS }
		custom_effect_tooltip = GAME_OVER_TT
	}
	option = {
		name = Syria.3.b
		log = "[GetDateText]: [This.GetName]: Syria.3.b executed"			#Refuse
		ai_chance = {
			base = 75
			modifier = {
				factor = 0
				FSA = { same_ideology = yes }
			}
		}
		FSA = { country_event = { days = 3 id = Syria.5 } }
		create_wargoal = { type = annex_everything target = FSA }
	}
}

#NUS agrees
country_event = {

	id = Syria.4
	title = Syria.4.t
	desc = Syria.4.desc
	picture = GFX_SYR_tahrir_al_sham

	is_triggered_only = yes

	option = {
		name = Syria.4.a
		log = "[GetDateText]: [This.GetName]: Syria.4.a executed"
		ai_chance = { base = 100 }
		annex_country = { target = NUS transfer_troops = yes }
		add_popularity = { ideology = fascism popularity = 0.1 }
		hidden_effect = { news_event = { id = SyriaNews.3 hours = 6 } }
	}

}

#NUS refuses
country_event = {

	id = Syria.5
	title = Syria.5.t
	desc = Syria.5.desc
	picture = GFX_SYR_tahrir_al_sham

	is_triggered_only = yes

	option = {
		name = Syria.5.a
		log = "[GetDateText]: [This.GetName]: Syria.5.a executed"
		ai_chance = { base = 100 }
		create_wargoal = { type = annex_everything target = NUS }
		hidden_effect = { news_event = { id = SyriaNews.2 hours = 6 } }
	}

}

#FSA is alive, but Tahrir al Sham is close to defeat
#Makes Tahrir al Sham defect to FSA
country_event = {
	id = Syria.15
	title = Syria.15.t
	desc = Syria.15.d
	picture = GFX_SYR_tahrir_al_sham

	is_triggered_only = yes

	option = {
		name = Syria.15.a
		log = "[GetDateText]: [This.GetName]: Syria.15.a executed"
		ai_chance = { base = 100 }
		annex_country = { target = NUS transfer_troops = yes }
		add_popularity = { ideology = fascism popularity = 0.1 }
		hidden_effect = { news_event = { id = SyriaNews.8 hours = 6 } }
	}
}

#reverse version
country_event = {
	id = Syria.16
	title = Syria.16.t
	desc = Syria.16.d
	picture = GFX_SYR_tahrir_al_sham

	is_triggered_only = yes

	option = {
		name = Syria.16.a
		log = "[GetDateText]: [This.GetName]: Syria.16.a executed"
		ai_chance = { base = 100 }
		annex_country = { target = FSA transfer_troops = yes }
		add_popularity = { ideology = neutrality popularity = 0.1 }
		hidden_effect = { news_event = { id = SyriaNews.9 hours = 6 } }
	}
}

### Syrian News Events ###

#End of civil war
news_event = {

	id = SyriaNews.1
	title = SyriaNews.1.t
	desc = SyriaNews.1.d
	picture = GFX_news_Syria_civil_war_victory

	major = yes

	is_triggered_only = yes

	trigger = {
	}

	option = {
		name = SyriaNews.1.a
		log = "[GetDateText]: [This.GetName]: SyriaNews.1.a executed"
	}

}

#FSA and Al-Nusra hostile towards each other
news_event = {

	id = SyriaNews.2
	title = SyriaNews.2.t
	desc = SyriaNews.2.d
	picture = GFX_news_fsa_and_al_nusra

	major = yes

	is_triggered_only = yes

	option = {
		name = SyriaNews.2.a
		log = "[GetDateText]: [This.GetName]: SyriaNews.2.a executed"
	}
}

#FSA and Al-Nusra friendly towards each other
news_event = {

	id = SyriaNews.3
	title = SyriaNews.3.t
	desc = SyriaNews.3.d
	picture = GFX_news_fsa_and_al_nusra

	major = yes

	is_triggered_only = yes

	option = {
		name = SyriaNews.3.a
		log = "[GetDateText]: [This.GetName]: SyriaNews.3.a executed"
	}
}

#FSA annexes Tahrir al Sham
news_event = {
	id = SyriaNews.8
	title = SyriaNews.8.t
	desc = SyriaNews.8.d
	picture = GFX_news_rise_of_taliban

	major = yes

	is_triggered_only = yes

	option = {
		name = SyriaNews.8.a
		log = "[GetDateText]: [This.GetName]: SyriaNews.8.a executed"
	}
}

#NUS annexes FSA
news_event = {
	id = SyriaNews.9
	title = SyriaNews.9.t
	desc = SyriaNews.9.d
	picture = GFX_news_rise_of_taliban

	major = yes

	is_triggered_only = yes

	option = {
		name = SyriaNews.9.a
		log = "[GetDateText]: [This.GetName]: SyriaNews.9.a executed"
	}
}
