modify_pmc_expenses = {
	if = {
		limit = { check_variable = { ROOT.pmc_expenses = 0 } }
		set_variable = { ROOT.pmc_expenses = temp_expense }
	}
	else = {
		add_to_variable = { ROOT.pmc_expenses = temp_expense }
	}
}

modify_pmc_profits = {
	if = {
		limit = { check_variable = { ROOT.pmc_profits = 0 } }
		set_variable = { ROOT.pmc_profits = temp_profit }
	}
	else = {
		add_to_variable = { ROOT.pmc_profits = temp_profit }
	}
}

## Spawn units
# Blackwater
spawn_light_infantry_blackwater = {
	load_oob = pmc_blackwater_light

	70 = {
		teleport_armies = {
			limit = { tag = ROOT }
		}
	}
}

spawn_mot_infantry_blackwater = {
	if = {
		limit = { has_dlc = "No Step Back" }
		load_oob = pmc_blackwater_mot
		else = {
			load_oob = pmc_blackwater_mot_nonnsb
		}
	}

	70 = {
		teleport_armies = {
			limit = { tag = ROOT }
		}
	}
}

spawn_mech_infantry_blackwater = {
	if = {
		limit = { has_dlc = "No Step Back" }
		load_oob = pmc_blackwater_mech
		else = {
			load_oob = pmc_blackwater_mech_nonnsb
		}
	}

	70 = {
		teleport_armies = {
			limit = { tag = ROOT }
		}
	}
}

spawn_heavy_mech_infantry_blackwater = {
	if = {
		limit = { has_dlc = "No Step Back" }
		load_oob = pmc_blackwater_heavy_mech
		else = {
			load_oob = pmc_blackwater_heavy_mech_nonnsb
		}
	}

	70 = {
		teleport_armies = {
			limit = { tag = ROOT }
		}
	}
}

spawn_special_blackwater = {
	if = {
		limit = { has_dlc = "No Step Back" }
		load_oob = pmc_blackwater_special
		else = {
			load_oob = pmc_blackwater_special_nonnsb
		}
	}

	70 = {
		teleport_armies = {
			limit = { tag = ROOT }
		}
	}
}

spawn_tank_blackwater = {
	if = {
		limit = { has_dlc = "No Step Back" }
		load_oob = pmc_blackwater_tank
		else = {
			load_oob = pmc_blackwater_tank_nonnsb
		}
	}

	70 = {
		teleport_armies = {
			limit = { tag = ROOT }
		}
	}
}

spawn_specops_blackwater = {
	if = {
		limit = { has_dlc = "No Step Back" }
		load_oob = pmc_blackwater_specops
		else = {
			load_oob = pmc_blackwater_specops_nonnsb
		}
	}

	70 = {
		teleport_armies = {
			limit = { tag = ROOT }
		}
	}
}

# Wagner
spawn_light_infantry_wagner = {
	load_oob = pmc_wagner_light

	70 = {
		teleport_armies = {
			limit = { tag = ROOT }
		}
	}
}

spawn_mot_infantry_wagner = {
	if = {
		limit = { has_dlc = "No Step Back" }
		load_oob = pmc_wagner_mot
		else = {
			load_oob = pmc_wagner_mot_nonnsb
		}
	}

	70 = {
		teleport_armies = {
			limit = { tag = ROOT }
		}
	}
}

spawn_mech_infantry_wagner = {
	if = {
		limit = { has_dlc = "No Step Back" }
		load_oob = pmc_wagner_mech
		else = {
			load_oob = pmc_wagner_mech_nonnsb
		}
	}

	70 = {
		teleport_armies = {
			limit = { tag = ROOT }
		}
	}
}

spawn_heavy_mech_infantry_wagner = {
	if = {
		limit = { has_dlc = "No Step Back" }
		load_oob = pmc_wagner_heavy_mech
		else = {
			load_oob = pmc_wagner_heavy_mech_nonnsb
		}
	}

	70 = {
		teleport_armies = {
			limit = { tag = ROOT }
		}
	}
}

spawn_special_wagner = {
	if = {
		limit = { has_dlc = "No Step Back" }
		load_oob = pmc_wagner_special
		else = {
			load_oob = pmc_wagner_special_nonnsb
		}
	}

	70 = {
		teleport_armies = {
			limit = { tag = ROOT }
		}
	}
}

spawn_tank_wagner = {
	if = {
		limit = { has_dlc = "No Step Back" }
		load_oob = pmc_wagner_tank
		else = {
			load_oob = pmc_wagner_tank_nonnsb
		}
	}

	70 = {
		teleport_armies = {
			limit = { tag = ROOT }
		}
	}
}

spawn_specops_wagner = {
	if = {
		limit = { has_dlc = "No Step Back" }
		load_oob = pmc_wagner_specops
		else = {
			load_oob = pmc_wagner_specops_nonnsb
		}
	}

	70 = {
		teleport_armies = {
			limit = { tag = ROOT }
		}
	}
}

# Aegis
spawn_light_infantry_aegis = {
	load_oob = pmc_aegis_light

	70 = {
		teleport_armies = {
			limit = { tag = ROOT }
		}
	}
}

spawn_mot_infantry_aegis = {
	if = {
		limit = { has_dlc = "No Step Back" }
		load_oob = pmc_aegis_mot
		else = {
			load_oob = pmc_aegis_mot_nonnsb
		}
	}

	70 = {
		teleport_armies = {
			limit = { tag = ROOT }
		}
	}
}

spawn_mech_infantry_aegis = {
	if = {
		limit = { has_dlc = "No Step Back" }
		load_oob = pmc_aegis_mech
		else = {
			load_oob = pmc_aegis_mech_nonnsb
		}
	}

	70 = {
		teleport_armies = {
			limit = { tag = ROOT }
		}
	}
}

spawn_heavy_mech_infantry_aegis = {
	if = {
		limit = { has_dlc = "No Step Back" }
		load_oob = pmc_aegis_heavy_mech
		else = {
			load_oob = pmc_aegis_heavy_mech_nonnsb
		}
	}

	70 = {
		teleport_armies = {
			limit = { tag = ROOT }
		}
	}
}

spawn_special_aegis = {
	if = {
		limit = { has_dlc = "No Step Back" }
		load_oob = pmc_aegis_special
		else = {
			load_oob = pmc_aegis_special_nonnsb
		}
	}

	70 = {
		teleport_armies = {
			limit = { tag = ROOT }
		}
	}
}

spawn_tank_aegis = {
	if = {
		limit = { has_dlc = "No Step Back" }
		load_oob = pmc_aegis_tank
		else = {
			load_oob = pmc_aegis_tank_nonnsb
		}
	}

	70 = {
		teleport_armies = {
			limit = { tag = ROOT }
		}
	}
}

spawn_specops_aegis = {
	if = {
		limit = { has_dlc = "No Step Back" }
		load_oob = pmc_aegis_specops
		else = {
			load_oob = pmc_aegis_specops_nonnsb
		}
	}

	70 = {
		teleport_armies = {
			limit = { tag = ROOT }
		}
	}
}

# Constellis
spawn_light_infantry_constellis = {
	load_oob = pmc_constellis_light

	70 = {
		teleport_armies = {
			limit = { tag = ROOT }
		}
	}
}

spawn_mot_infantry_constellis = {
	if = {
		limit = { has_dlc = "No Step Back" }
		load_oob = pmc_constellis_mot
		else = {
			load_oob = pmc_constellis_mot_nonnsb
		}
	}

	70 = {
		teleport_armies = {
			limit = { tag = ROOT }
		}
	}
}

spawn_mech_infantry_constellis = {
	if = {
		limit = { has_dlc = "No Step Back" }
		load_oob = pmc_constellis_mech
		else = {
			load_oob = pmc_constellis_mech_nonnsb
		}
	}

	70 = {
		teleport_armies = {
			limit = { tag = ROOT }
		}
	}
}

spawn_heavy_mech_infantry_constellis = {
	if = {
		limit = { has_dlc = "No Step Back" }
		load_oob = pmc_constellis_heavy_mech
		else = {
			load_oob = pmc_constellis_heavy_mech_nonnsb
		}
	}

	70 = {
		teleport_armies = {
			limit = { tag = ROOT }
		}
	}
}

spawn_special_constellis = {
	if = {
		limit = { has_dlc = "No Step Back" }
		load_oob = pmc_constellis_special
		else = {
			load_oob = pmc_constellis_special_nonnsb
		}
	}

	70 = {
		teleport_armies = {
			limit = { tag = ROOT }
		}
	}
}

spawn_tank_constellis = {
	if = {
		limit = { has_dlc = "No Step Back" }
		load_oob = pmc_constellis_tank
		else = {
			load_oob = pmc_constellis_tank_nonnsb
		}
	}

	70 = {
		teleport_armies = {
			limit = { tag = ROOT }
		}
	}
}

spawn_specops_constellis = {
	if = {
		limit = { has_dlc = "No Step Back" }
		load_oob = pmc_constellis_specops
		else = {
			load_oob = pmc_constellis_specops_nonnsb
		}
	}

	70 = {
		teleport_armies = {
			limit = { tag = ROOT }
		}
	}
}

# MD
spawn_light_infantry_md = {
	load_oob = pmc_md_light

	70 = {
		teleport_armies = {
			limit = { tag = ROOT }
		}
	}
}

spawn_mot_infantry_md = {
	if = {
		limit = { has_dlc = "No Step Back" }
		load_oob = pmc_md_mot
		else = {
			load_oob = pmc_md_mot_nonnsb
		}
	}

	70 = {
		teleport_armies = {
			limit = { tag = ROOT }
		}
	}
}

spawn_mech_infantry_md = {
	if = {
		limit = { has_dlc = "No Step Back" }
		load_oob = pmc_md_mech
		else = {
			load_oob = pmc_md_mech_nonnsb
		}
	}

	70 = {
		teleport_armies = {
			limit = { tag = ROOT }
		}
	}
}

spawn_heavy_mech_infantry_md = {
	if = {
		limit = { has_dlc = "No Step Back" }
		load_oob = pmc_md_heavy_mech
		else = {
			load_oob = pmc_md_heavy_mech_nonnsb
		}
	}

	70 = {
		teleport_armies = {
			limit = { tag = ROOT }
		}
	}
}

spawn_special_md = {
	if = {
		limit = { has_dlc = "No Step Back" }
		load_oob = pmc_md_special
		else = {
			load_oob = pmc_md_special_nonnsb
		}
	}

	70 = {
		teleport_armies = {
			limit = { tag = ROOT }
		}
	}
}

spawn_tank_md = {
	if = {
		limit = { has_dlc = "No Step Back" }
		load_oob = pmc_md_tank
		else = {
			load_oob = pmc_md_tank_nonnsb
		}
	}

	70 = {
		teleport_armies = {
			limit = { tag = ROOT }
		}
	}
}

spawn_specops_md = {
	if = {
		limit = { has_dlc = "No Step Back" }
		load_oob = pmc_md_specops
		else = {
			load_oob = pmc_md_specops_nonnsb
		}
	}

	70 = {
		teleport_armies = {
			limit = { tag = ROOT }
		}
	}
}

## Local ##
spawn_light_infantry_local = {
	load_oob = pmc_local_light

	70 = {
		teleport_armies = {
			limit = { tag = ROOT }
		}
	}
}

spawn_mot_infantry_local = {
	load_oob = pmc_local_mot

	70 = {
		teleport_armies = {
			limit = { tag = ROOT }
		}
	}
}

spawn_mech_infantry_local = {
	load_oob = pmc_local_mech

	70 = {
		teleport_armies = {
			limit = { tag = ROOT }
		}
	}
}

spawn_heavy_mech_infantry_local = {
	load_oob = pmc_local_heavy_mech

	70 = {
		teleport_armies = {
			limit = { tag = ROOT }
		}
	}
}

spawn_special_unit_local = {
	load_oob = pmc_local_special_unit

	70 = {
		teleport_armies = {
			limit = { tag = ROOT }
		}
	}
}

spawn_tank_local = {
	load_oob = pmc_local_tank

	70 = {
		teleport_armies = {
			limit = { tag = ROOT }
		}
	}
}

spawn_specops_local = {
	load_oob = pmc_local_specops

	70 = {
		teleport_armies = {
			limit = { tag = ROOT }
		}
	}
}

## Delete units
# Blackwater
delete_light_infantry_blackwater = {
	set_temp_variable = { temp_expense = global.mercs_weekly_cost^0 }
	multiply_temp_variable = { temp_expense = pmc_blackwater_light_recruited }
	multiply_temp_variable = { temp_expense = -1 }
	if = {
		limit = { tag = USA }
		multiply_temp_variable = { temp_expense = 0.8 }
	}
	modify_pmc_expenses = yes

	# subtract_from_variable = { ROOT.pmc_bought = pmc_blackwater_light_recruited }
	set_temp_variable = { return_points = pmc_blackwater_light_recruited }
	subtract_from_variable = { ROOT.pmc_bought = return_points }
	multiply_temp_variable = { return_points = global.merc_deploy_cost^0 }
	subtract_from_variable = { global.merc_deployed^0 = return_points }
	clear_variable = pmc_blackwater_light_recruited

	clr_country_flag = pmc_recruited_blackwater_light
	delete_unit_template_and_units = {
		division_template = "Blackwater Light Unit"
		disband = no
	}
}

delete_mot_infantry_blackwater = {
	set_temp_variable = { temp_expense = global.mercs_weekly_cost^1 }
	multiply_temp_variable = { temp_expense = pmc_blackwater_mot_recruited }
	multiply_temp_variable = { temp_expense = -1 }
	if = {
		limit = { tag = USA }
		multiply_temp_variable = { temp_expense = 0.8 }
	}
	modify_pmc_expenses = yes

	set_temp_variable = { return_points = pmc_blackwater_mot_recruited }
	subtract_from_variable = { ROOT.pmc_bought = return_points }
	multiply_temp_variable = { return_points = global.merc_deploy_cost^1 }
	subtract_from_variable = { global.merc_deployed^0 = return_points }
	clear_variable = pmc_blackwater_mot_recruited

	clr_country_flag = pmc_blackwater_mot
	delete_unit_template_and_units = {
		division_template = "Blackwater Motorized Unit"
		disband = no
	}
}

delete_mech_infantry_blackwater = {
	set_temp_variable = { temp_expense = global.mercs_weekly_cost^2 }
	multiply_temp_variable = { temp_expense = pmc_blackwater_mech_recruited }
	multiply_temp_variable = { temp_expense = -1 }
	if = {
		limit = { tag = USA }
		multiply_temp_variable = { temp_expense = 0.8 }
	}
	modify_pmc_expenses = yes

	set_temp_variable = { return_points = pmc_blackwater_mech_recruited }
	subtract_from_variable = { ROOT.pmc_bought = return_points }
	multiply_temp_variable = { return_points = global.merc_deploy_cost^2 }
	subtract_from_variable = { global.merc_deployed^0 = return_points }
	clear_variable = pmc_blackwater_mech_recruited

	clr_country_flag = pmc_blackwater_mech
	delete_unit_template_and_units = {
		division_template = "Blackwater Mechanized Unit"
		disband = no
	}
}

delete_heavy_mech_infantry_blackwater = {
	set_temp_variable = { temp_expense = global.mercs_weekly_cost^3 }
	multiply_temp_variable = { temp_expense = pmc_blackwater_heavy_mech_recruited }
	multiply_temp_variable = { temp_expense = -1 }
	if = {
		limit = { tag = USA }
		multiply_temp_variable = { temp_expense = 0.8 }
	}
	modify_pmc_expenses = yes

	set_temp_variable = { return_points = pmc_blackwater_heavy_mech_recruited }
	subtract_from_variable = { ROOT.pmc_bought = return_points }
	multiply_temp_variable = { return_points = global.merc_deploy_cost^3 }
	subtract_from_variable = { global.merc_deployed^0 = return_points }
	clear_variable = pmc_blackwater_heavy_mech_recruited

	clr_country_flag = pmc_blackwater_heavy_mech
	delete_unit_template_and_units = {
		division_template = "Blackwater Heavy Mechanized Unit"
		disband = no
	}
}

delete_special_unit_blackwater = {
	set_temp_variable = { temp_expense = global.mercs_weekly_cost^4 }
	multiply_temp_variable = { temp_expense = pmc_blackwater_special_recruited }
	multiply_temp_variable = { temp_expense = -1 }
	if = {
		limit = { tag = USA }
		multiply_temp_variable = { temp_expense = 0.8 }
	}
	modify_pmc_expenses = yes

	set_temp_variable = { return_points = pmc_blackwater_special_recruited }
	subtract_from_variable = { ROOT.pmc_bought = return_points }
	multiply_temp_variable = { return_points = global.merc_deploy_cost^4 }
	subtract_from_variable = { global.merc_deployed^0 = return_points }
	clear_variable = pmc_blackwater_special_recruited

	clr_country_flag = pmc_blackwater_special_unit
	delete_unit_template_and_units = {
		division_template = "Blackwater Special Assault Unit"
		disband = no
	}
}

delete_tank_unit_blackwater = {
	set_temp_variable = { temp_expense = global.mercs_weekly_cost^5 }
	multiply_temp_variable = { temp_expense = pmc_blackwater_tank_recruited }
	multiply_temp_variable = { temp_expense = -1 }
	if = {
		limit = { tag = USA }
		multiply_temp_variable = { temp_expense = 0.8 }
	}
	modify_pmc_expenses = yes

	set_temp_variable = { return_points = pmc_blackwater_tank_recruited }
	subtract_from_variable = { ROOT.pmc_bought = return_points }
	multiply_temp_variable = { return_points = global.merc_deploy_cost^5 }
	subtract_from_variable = { global.merc_deployed^0 = return_points }
	clear_variable = pmc_blackwater_tank_recruited

	clr_country_flag = pmc_blackwater_tank
	delete_unit_template_and_units = {
		division_template = "Blackwater Tank Unit"
		disband = no
	}
}

delete_specops_unit_blackwater = {
	set_temp_variable = { temp_expense = global.mercs_weekly_cost^6 }
	multiply_temp_variable = { temp_expense = pmc_blackwater_specops_recruited }
	multiply_temp_variable = { temp_expense = -1 }
	if = {
		limit = { tag = USA }
		multiply_temp_variable = { temp_expense = 0.8 }
	}
	modify_pmc_expenses = yes

	set_temp_variable = { return_points = pmc_blackwater_specops_recruited }
	subtract_from_variable = { ROOT.pmc_bought = return_points }
	multiply_temp_variable = { return_points = global.merc_deploy_cost^6 }
	subtract_from_variable = { global.merc_deployed^0 = return_points }
	clear_variable = pmc_blackwater_specops_recruited

	clr_country_flag = pmc_blackwater_specops
	delete_unit_template_and_units = {
		division_template = "Blackwater SpecOps Unit"
		disband = no
	}
}

# Wagner
delete_light_infantry_wagner = {
	set_temp_variable = { temp_expense = global.mercs_weekly_cost^0 }
	multiply_temp_variable = { temp_expense = pmc_wagner_light_recruited }
	multiply_temp_variable = { temp_expense = -1 }
	if = {
		limit = { tag = SOV }
		multiply_temp_variable = { temp_expense = 0.8 }
	}
	else = {
		set_temp_variable = { temp_profit = temp_expense }
		multiply_temp_variable = { temp_profit = -0.2 }
		SOV = {
			modify_pmc_profits = yes
		}
	}

	modify_pmc_expenses = yes

	# subtract_from_variable = { ROOT.pmc_bought = pmc_wagner_light_recruited }
	set_temp_variable = { return_points = pmc_wagner_light_recruited }
	subtract_from_variable = { ROOT.pmc_bought = return_points }
	multiply_temp_variable = { return_points = global.merc_deploy_cost^0 }
	subtract_from_variable = { global.merc_deployed^1 = return_points }
	clear_variable = pmc_wagner_light_recruited

	clr_country_flag = pmc_recruited_wagner_light
	delete_unit_template_and_units = {
		division_template = "Wagner Light Unit"
		disband = no
	}
}

delete_mot_infantry_wagner = {
	set_temp_variable = { temp_expense = global.mercs_weekly_cost^1 }
	multiply_temp_variable = { temp_expense = pmc_wagner_mot_recruited }
	multiply_temp_variable = { temp_expense = -1 }
	if = {
		limit = { tag = SOV }
		multiply_temp_variable = { temp_expense = 0.8 }
	}
	else = {
		set_temp_variable = { temp_profit = temp_expense }
		multiply_temp_variable = { temp_profit = -0.2 }
		SOV = {
			modify_pmc_profits = yes
		}
	}

	modify_pmc_expenses = yes

	set_temp_variable = { return_points = pmc_wagner_mot_recruited }
	subtract_from_variable = { ROOT.pmc_bought = return_points }
	multiply_temp_variable = { return_points = global.merc_deploy_cost^1 }
	subtract_from_variable = { global.merc_deployed^1 = return_points }
	clear_variable = pmc_wagner_mot_recruited

	clr_country_flag = pmc_wagner_mot
	delete_unit_template_and_units = {
		division_template = "Wagner Motorized Unit"
		disband = no
	}
}

delete_mech_infantry_wagner = {
	set_temp_variable = { temp_expense = global.mercs_weekly_cost^2 }
	multiply_temp_variable = { temp_expense = pmc_wagner_mech_recruited }
	multiply_temp_variable = { temp_expense = -1 }
	if = {
		limit = { tag = SOV }
		multiply_temp_variable = { temp_expense = 0.8 }
	}
	else = {
		set_temp_variable = { temp_profit = temp_expense }
		multiply_temp_variable = { temp_profit = -0.2 }
		SOV = {
			modify_pmc_profits = yes
		}
	}

	modify_pmc_expenses = yes

	set_temp_variable = { return_points = pmc_wagner_mech_recruited }
	subtract_from_variable = { ROOT.pmc_bought = return_points }
	multiply_temp_variable = { return_points = global.merc_deploy_cost^2 }
	subtract_from_variable = { global.merc_deployed^1 = return_points }
	clear_variable = pmc_wagner_mech_recruited

	clr_country_flag = pmc_wagner_mech
	delete_unit_template_and_units = {
		division_template = "Wagner Mechanized Unit"
		disband = no
	}
}

delete_heavy_mech_infantry_wagner = {
	set_temp_variable = { temp_expense = global.mercs_weekly_cost^3 }
	multiply_temp_variable = { temp_expense = pmc_wagner_heavy_mech_recruited }
	multiply_temp_variable = { temp_expense = -1 }
	if = {
		limit = { tag = SOV }
		multiply_temp_variable = { temp_expense = 0.8 }
	}
	else = {
		set_temp_variable = { temp_profit = temp_expense }
		multiply_temp_variable = { temp_profit = -0.2 }
		SOV = {
			modify_pmc_profits = yes
		}
	}

	modify_pmc_expenses = yes

	set_temp_variable = { return_points = pmc_wagner_heavy_mech_recruited }
	subtract_from_variable = { ROOT.pmc_bought = return_points }
	multiply_temp_variable = { return_points = global.merc_deploy_cost^3 }
	subtract_from_variable = { global.merc_deployed^1 = return_points }
	clear_variable = pmc_wagner_heavy_mech_recruited

	clr_country_flag = pmc_wagner_heavy_mech
	delete_unit_template_and_units = {
		division_template = "Wagner Heavy Mechanized Unit"
		disband = no
	}
}

delete_special_unit_wagner = {
	set_temp_variable = { temp_expense = global.mercs_weekly_cost^4 }
	multiply_temp_variable = { temp_expense = pmc_wagner_special_recruited }
	multiply_temp_variable = { temp_expense = -1 }
	if = {
		limit = { tag = SOV }
		multiply_temp_variable = { temp_expense = 0.8 }
	}
	else = {
		set_temp_variable = { temp_profit = temp_expense }
		multiply_temp_variable = { temp_profit = -0.2 }
		SOV = {
			modify_pmc_profits = yes
		}
	}

	modify_pmc_expenses = yes

	set_temp_variable = { return_points = pmc_wagner_special_recruited }
	subtract_from_variable = { ROOT.pmc_bought = return_points }
	multiply_temp_variable = { return_points = global.merc_deploy_cost^4 }
	subtract_from_variable = { global.merc_deployed^1 = return_points }
	clear_variable = pmc_wagner_special_recruited

	clr_country_flag = pmc_wagner_special_unit
	delete_unit_template_and_units = {
		division_template = "Wagner Special Assault Unit"
		disband = no
	}
}

delete_tank_unit_wagner = {
	set_temp_variable = { temp_expense = global.mercs_weekly_cost^5 }
	multiply_temp_variable = { temp_expense = pmc_wagner_tank_recruited }
	multiply_temp_variable = { temp_expense = -1 }
	if = {
		limit = { tag = SOV }
		multiply_temp_variable = { temp_expense = 0.8 }
	}
	else = {
		set_temp_variable = { temp_profit = temp_expense }
		multiply_temp_variable = { temp_profit = -0.2 }
		SOV = {
			modify_pmc_profits = yes
		}
	}

	modify_pmc_expenses = yes

	set_temp_variable = { return_points = pmc_wagner_tank_recruited }
	subtract_from_variable = { ROOT.pmc_bought = return_points }
	multiply_temp_variable = { return_points = global.merc_deploy_cost^5 }
	subtract_from_variable = { global.merc_deployed^1 = return_points }
	clear_variable = pmc_wagner_tank_recruited

	clr_country_flag = pmc_wagner_tank
	delete_unit_template_and_units = {
		division_template = "Wagner Tank Unit"
		disband = no
	}
}

delete_specops_unit_wagner = {
	set_temp_variable = { temp_expense = global.mercs_weekly_cost^6 }
	multiply_temp_variable = { temp_expense = pmc_wagner_specops_recruited }
	multiply_temp_variable = { temp_expense = -1 }
	if = {
		limit = { tag = SOV }
		multiply_temp_variable = { temp_expense = 0.8 }
	}
	else = {
		set_temp_variable = { temp_profit = temp_expense }
		multiply_temp_variable = { temp_profit = -0.2 }
		SOV = {
			modify_pmc_profits = yes
		}
	}

	modify_pmc_expenses = yes

	set_temp_variable = { return_points = pmc_wagner_specops_recruited }
	subtract_from_variable = { ROOT.pmc_bought = return_points }
	multiply_temp_variable = { return_points = global.merc_deploy_cost^6 }
	subtract_from_variable = { global.merc_deployed^1 = return_points }
	clear_variable = pmc_wagner_specops_recruited

	clr_country_flag = pmc_wagner_specops
	delete_unit_template_and_units = {
		division_template = "Wagner SpecOps Unit"
		disband = no
	}
}

# Aegis
delete_light_infantry_aegis = {
	set_temp_variable = { temp_expense = global.mercs_weekly_cost^0 }
	multiply_temp_variable = { temp_expense = pmc_aegis_light_recruited }
	multiply_temp_variable = { temp_expense = -1 }
	if = {
		limit = { tag = ENG }
		multiply_temp_variable = { temp_expense = 0.8 }
	}
	modify_pmc_expenses = yes

	# subtract_from_variable = { ROOT.pmc_bought = pmc_aegis_light_recruited }
	set_temp_variable = { return_points = pmc_aegis_light_recruited }
	subtract_from_variable = { ROOT.pmc_bought = return_points }
	multiply_temp_variable = { return_points = global.merc_deploy_cost^0 }
	subtract_from_variable = { global.merc_deployed^2 = return_points }
	clear_variable = pmc_aegis_light_recruited

	clr_country_flag = pmc_recruited_aegis_light
	delete_unit_template_and_units = {
		division_template = "Aegis Light Unit"
		disband = no
	}
}

delete_mot_infantry_aegis = {
	set_temp_variable = { temp_expense = global.mercs_weekly_cost^1 }
	multiply_temp_variable = { temp_expense = pmc_aegis_mot_recruited }
	multiply_temp_variable = { temp_expense = -1 }
	if = {
		limit = { tag = ENG }
		multiply_temp_variable = { temp_expense = 0.8 }
	}
	modify_pmc_expenses = yes

	set_temp_variable = { return_points = pmc_aegis_mot_recruited }
	subtract_from_variable = { ROOT.pmc_bought = return_points }
	multiply_temp_variable = { return_points = global.merc_deploy_cost^1 }
	subtract_from_variable = { global.merc_deployed^2 = return_points }
	clear_variable = pmc_aegis_mot_recruited

	clr_country_flag = pmc_aegis_mot
	delete_unit_template_and_units = {
		division_template = "Aegis Motorized Unit"
		disband = no
	}
}

delete_mech_infantry_aegis = {
	set_temp_variable = { temp_expense = global.mercs_weekly_cost^2 }
	multiply_temp_variable = { temp_expense = pmc_aegis_mech_recruited }
	multiply_temp_variable = { temp_expense = -1 }
	if = {
		limit = { tag = ENG }
		multiply_temp_variable = { temp_expense = 0.8 }
	}
	modify_pmc_expenses = yes

	set_temp_variable = { return_points = pmc_aegis_mech_recruited }
	subtract_from_variable = { ROOT.pmc_bought = return_points }
	multiply_temp_variable = { return_points = global.merc_deploy_cost^2 }
	subtract_from_variable = { global.merc_deployed^2 = return_points }
	clear_variable = pmc_aegis_mech_recruited

	clr_country_flag = pmc_aegis_mech
	delete_unit_template_and_units = {
		division_template = "Aegis Mechanized Unit"
		disband = no
	}
}

delete_heavy_mech_infantry_aegis = {
	set_temp_variable = { temp_expense = global.mercs_weekly_cost^3 }
	multiply_temp_variable = { temp_expense = pmc_aegis_heavy_mech_recruited }
	multiply_temp_variable = { temp_expense = -1 }
	if = {
		limit = { tag = ENG }
		multiply_temp_variable = { temp_expense = 0.8 }
	}
	modify_pmc_expenses = yes

	set_temp_variable = { return_points = pmc_aegis_heavy_mech_recruited }
	subtract_from_variable = { ROOT.pmc_bought = return_points }
	multiply_temp_variable = { return_points = global.merc_deploy_cost^3 }
	subtract_from_variable = { global.merc_deployed^2 = return_points }
	clear_variable = pmc_aegis_heavy_mech_recruited

	clr_country_flag = pmc_aegis_heavy_mech
	delete_unit_template_and_units = {
		division_template = "Aegis Heavy Mechanized Unit"
		disband = no
	}
}

delete_special_unit_aegis = {
	set_temp_variable = { temp_expense = global.mercs_weekly_cost^4 }
	multiply_temp_variable = { temp_expense = pmc_aegis_special_recruited }
	multiply_temp_variable = { temp_expense = -1 }
	if = {
		limit = { tag = ENG }
		multiply_temp_variable = { temp_expense = 0.8 }
	}
	modify_pmc_expenses = yes

	set_temp_variable = { return_points = pmc_aegis_special_recruited }
	subtract_from_variable = { ROOT.pmc_bought = return_points }
	multiply_temp_variable = { return_points = global.merc_deploy_cost^4 }
	subtract_from_variable = { global.merc_deployed^2 = return_points }
	clear_variable = pmc_aegis_special_recruited

	clr_country_flag = pmc_aegis_special_unit
	delete_unit_template_and_units = {
		division_template = "Aegis Special Assault Unit"
		disband = no
	}
}

delete_tank_unit_aegis = {
	set_temp_variable = { temp_expense = global.mercs_weekly_cost^5 }
	multiply_temp_variable = { temp_expense = pmc_aegis_tank_recruited }
	multiply_temp_variable = { temp_expense = -1 }
	if = {
		limit = { tag = ENG }
		multiply_temp_variable = { temp_expense = 0.8 }
	}
	modify_pmc_expenses = yes

	set_temp_variable = { return_points = pmc_aegis_tank_recruited }
	subtract_from_variable = { ROOT.pmc_bought = return_points }
	multiply_temp_variable = { return_points = global.merc_deploy_cost^5 }
	subtract_from_variable = { global.merc_deployed^2 = return_points }
	clear_variable = pmc_aegis_tank_recruited

	clr_country_flag = pmc_aegis_tank
	delete_unit_template_and_units = {
		division_template = "Aegis Tank Unit"
		disband = no
	}
}

delete_specops_unit_aegis = {
	set_temp_variable = { temp_expense = global.mercs_weekly_cost^6 }
	multiply_temp_variable = { temp_expense = pmc_aegis_specops_recruited }
	multiply_temp_variable = { temp_expense = -1 }
	if = {
		limit = { tag = ENG }
		multiply_temp_variable = { temp_expense = 0.8 }
	}
	modify_pmc_expenses = yes

	set_temp_variable = { return_points = pmc_aegis_specops_recruited }
	subtract_from_variable = { ROOT.pmc_bought = return_points }
	multiply_temp_variable = { return_points = global.merc_deploy_cost^6 }
	subtract_from_variable = { global.merc_deployed^2 = return_points }
	clear_variable = pmc_aegis_specops_recruited

	clr_country_flag = pmc_aegis_specops
	delete_unit_template_and_units = {
		division_template = "Aegis SpecOps Unit"
		disband = no
	}
}

# Constellis
delete_light_infantry_constellis = {
	set_temp_variable = { temp_expense = global.mercs_weekly_cost^0 }
	multiply_temp_variable = { temp_expense = pmc_constellis_light_recruited }
	multiply_temp_variable = { temp_expense = -1 }
	modify_pmc_expenses = yes

	set_temp_variable = { return_points = pmc_constellis_light_recruited }
	subtract_from_variable = { ROOT.pmc_bought = return_points }
	multiply_temp_variable = { return_points = global.merc_deploy_cost^0 }
	subtract_from_variable = { global.merc_deployed^3 = return_points }
	clear_variable = pmc_constellis_light_recruited

	clr_country_flag = pmc_recruited_constellis_light
	delete_unit_template_and_units = {
		division_template = "Constellis Light Unit"
		disband = no
	}
}

delete_mot_infantry_constellis = {
	set_temp_variable = { temp_expense = global.mercs_weekly_cost^1 }
	multiply_temp_variable = { temp_expense = pmc_constellis_mot_recruited }
	multiply_temp_variable = { temp_expense = -1 }
	modify_pmc_expenses = yes

	set_temp_variable = { return_points = pmc_constellis_mot_recruited }
	subtract_from_variable = { ROOT.pmc_bought = return_points }
	multiply_temp_variable = { return_points = global.merc_deploy_cost^1 }
	subtract_from_variable = { global.merc_deployed^3 = return_points }
	clear_variable = pmc_constellis_mot_recruited

	clr_country_flag = pmc_constellis_mot
	delete_unit_template_and_units = {
		division_template = "Constellis Motorized Unit"
		disband = no
	}
}

delete_mech_infantry_constellis = {
	set_temp_variable = { temp_expense = global.mercs_weekly_cost^2 }
	multiply_temp_variable = { temp_expense = pmc_constellis_mech_recruited }
	multiply_temp_variable = { temp_expense = -1 }
	modify_pmc_expenses = yes

	set_temp_variable = { return_points = pmc_constellis_mech_recruited }
	subtract_from_variable = { ROOT.pmc_bought = return_points }
	multiply_temp_variable = { return_points = global.merc_deploy_cost^2 }
	subtract_from_variable = { global.merc_deployed^3 = return_points }
	clear_variable = pmc_constellis_mech_recruited

	clr_country_flag = pmc_constellis_mech
	delete_unit_template_and_units = {
		division_template = "Constellis Mechanized Unit"
		disband = no
	}
}

delete_heavy_mech_infantry_constellis = {
	set_temp_variable = { temp_expense = global.mercs_weekly_cost^3 }
	multiply_temp_variable = { temp_expense = pmc_constellis_heavy_mech_recruited }
	multiply_temp_variable = { temp_expense = -1 }
	modify_pmc_expenses = yes

	set_temp_variable = { return_points = pmc_constellis_heavy_mech_recruited }
	subtract_from_variable = { ROOT.pmc_bought = return_points }
	multiply_temp_variable = { return_points = global.merc_deploy_cost^3 }
	subtract_from_variable = { global.merc_deployed^3 = return_points }
	clear_variable = pmc_constellis_heavy_mech_recruited

	clr_country_flag = pmc_constellis_heavy_mech
	delete_unit_template_and_units = {
		division_template = "Constellis Heavy Mechanized Unit"
		disband = no
	}
}

delete_special_unit_constellis = {
	set_temp_variable = { temp_expense = global.mercs_weekly_cost^4 }
	multiply_temp_variable = { temp_expense = pmc_constellis_special_recruited }
	multiply_temp_variable = { temp_expense = -1 }
	modify_pmc_expenses = yes

	set_temp_variable = { return_points = pmc_constellis_special_recruited }
	subtract_from_variable = { ROOT.pmc_bought = return_points }
	multiply_temp_variable = { return_points = global.merc_deploy_cost^4 }
	subtract_from_variable = { global.merc_deployed^3 = return_points }
	clear_variable = pmc_constellis_special_recruited

	clr_country_flag = pmc_constellis_special_unit
	delete_unit_template_and_units = {
		division_template = "Constellis Special Assault Unit"
		disband = no
	}
}

delete_tank_unit_constellis = {
	set_temp_variable = { temp_expense = global.mercs_weekly_cost^5 }
	multiply_temp_variable = { temp_expense = pmc_constellis_tank_recruited }
	multiply_temp_variable = { temp_expense = -1 }
	modify_pmc_expenses = yes

	set_temp_variable = { return_points = pmc_constellis_tank_recruited }
	subtract_from_variable = { ROOT.pmc_bought = return_points }
	multiply_temp_variable = { return_points = global.merc_deploy_cost^5 }
	subtract_from_variable = { global.merc_deployed^3 = return_points }
	clear_variable = pmc_constellis_tank_recruited

	clr_country_flag = pmc_constellis_tank
	delete_unit_template_and_units = {
		division_template = "Constellis Tank Unit"
		disband = no
	}
}

delete_specops_unit_constellis = {
	set_temp_variable = { temp_expense = global.mercs_weekly_cost^6 }
	multiply_temp_variable = { temp_expense = pmc_constellis_specops_recruited }
	multiply_temp_variable = { temp_expense = -1 }
	modify_pmc_expenses = yes

	set_temp_variable = { return_points = pmc_constellis_specops_recruited }
	subtract_from_variable = { ROOT.pmc_bought = return_points }
	multiply_temp_variable = { return_points = global.merc_deploy_cost^6 }
	subtract_from_variable = { global.merc_deployed^3 = return_points }
	clear_variable = pmc_constellis_specops_recruited

	clr_country_flag = pmc_constellis_specops
	delete_unit_template_and_units = {
		division_template = "Constellis SpecOps Unit"
		disband = no
	}
}

# MD
delete_light_infantry_md = {
	set_temp_variable = { temp_expense = global.mercs_weekly_cost^0 }
	multiply_temp_variable = { temp_expense = pmc_md_light_recruited }
	multiply_temp_variable = { temp_expense = -1 }
	modify_pmc_expenses = yes

	set_temp_variable = { return_points = pmc_md_light_recruited }
	subtract_from_variable = { ROOT.pmc_bought = return_points }
	multiply_temp_variable = { return_points = global.merc_deploy_cost^0 }
	subtract_from_variable = { global.merc_deployed^4 = return_points }
	clear_variable = pmc_md_light_recruited

	clr_country_flag = pmc_recruited_md_light
	delete_unit_template_and_units = {
		division_template = "MD Light Unit"
		disband = no
	}
}

delete_mot_infantry_md = {
	set_temp_variable = { temp_expense = global.mercs_weekly_cost^1 }
	multiply_temp_variable = { temp_expense = pmc_md_mot_recruited }
	multiply_temp_variable = { temp_expense = -1 }
	modify_pmc_expenses = yes

	set_temp_variable = { return_points = pmc_md_mot_recruited }
	subtract_from_variable = { ROOT.pmc_bought = return_points }
	multiply_temp_variable = { return_points = global.merc_deploy_cost^1 }
	subtract_from_variable = { global.merc_deployed^4 = return_points }
	clear_variable = pmc_md_mot_recruited

	clr_country_flag = pmc_md_mot
	delete_unit_template_and_units = {
		division_template = "MD Motorized Unit"
		disband = no
	}
}

delete_mech_infantry_md = {
	set_temp_variable = { temp_expense = global.mercs_weekly_cost^2 }
	multiply_temp_variable = { temp_expense = pmc_md_mech_recruited }
	multiply_temp_variable = { temp_expense = -1 }
	modify_pmc_expenses = yes

	set_temp_variable = { return_points = pmc_md_mech_recruited }
	subtract_from_variable = { ROOT.pmc_bought = return_points }
	multiply_temp_variable = { return_points = global.merc_deploy_cost^2 }
	subtract_from_variable = { global.merc_deployed^4 = return_points }
	clear_variable = pmc_md_mech_recruited

	clr_country_flag = pmc_md_mech
	delete_unit_template_and_units = {
		division_template = "MD Mechanized Unit"
		disband = no
	}
}

delete_heavy_mech_infantry_md = {
	set_temp_variable = { temp_expense = global.mercs_weekly_cost^3 }
	multiply_temp_variable = { temp_expense = pmc_md_heavy_mech_recruited }
	multiply_temp_variable = { temp_expense = -1 }
	modify_pmc_expenses = yes

	set_temp_variable = { return_points = pmc_md_heavy_mech_recruited }
	subtract_from_variable = { ROOT.pmc_bought = return_points }
	multiply_temp_variable = { return_points = global.merc_deploy_cost^3 }
	subtract_from_variable = { global.merc_deployed^4 = return_points }
	clear_variable = pmc_md_heavy_mech_recruited

	clr_country_flag = pmc_md_heavy_mech
	delete_unit_template_and_units = {
		division_template = "MD Heavy Mechanized Unit"
		disband = no
	}
}

delete_special_unit_md = {
	set_temp_variable = { temp_expense = global.mercs_weekly_cost^4 }
	multiply_temp_variable = { temp_expense = pmc_md_special_recruited }
	multiply_temp_variable = { temp_expense = -1 }
	modify_pmc_expenses = yes

	set_temp_variable = { return_points = pmc_md_special_recruited }
	subtract_from_variable = { ROOT.pmc_bought = return_points }
	multiply_temp_variable = { return_points = global.merc_deploy_cost^4 }
	subtract_from_variable = { global.merc_deployed^4 = return_points }
	clear_variable = pmc_md_special_recruited

	clr_country_flag = pmc_md_special_unit
	delete_unit_template_and_units = {
		division_template = "MD Special Assault Unit"
		disband = no
	}
}

delete_tank_unit_md = {
	set_temp_variable = { temp_expense = global.mercs_weekly_cost^5 }
	multiply_temp_variable = { temp_expense = pmc_md_tank_recruited }
	multiply_temp_variable = { temp_expense = -1 }
	modify_pmc_expenses = yes

	set_temp_variable = { return_points = pmc_md_tank_recruited }
	subtract_from_variable = { ROOT.pmc_bought = return_points }
	multiply_temp_variable = { return_points = global.merc_deploy_cost^5 }
	subtract_from_variable = { global.merc_deployed^4 = return_points }
	clear_variable = pmc_md_tank_recruited

	clr_country_flag = pmc_md_tank
	delete_unit_template_and_units = {
		division_template = "MD Tank Unit"
		disband = no
	}
}

delete_specops_unit_md = {
	set_temp_variable = { temp_expense = global.mercs_weekly_cost^6 }
	multiply_temp_variable = { temp_expense = pmc_md_specops_recruited }
	multiply_temp_variable = { temp_expense = -1 }
	modify_pmc_expenses = yes

	set_temp_variable = { return_points = pmc_md_specops_recruited }
	subtract_from_variable = { ROOT.pmc_bought = return_points }
	multiply_temp_variable = { return_points = global.merc_deploy_cost^6 }
	subtract_from_variable = { global.merc_deployed^4 = return_points }
	clear_variable = pmc_md_specops_recruited

	clr_country_flag = pmc_md_specops
	delete_unit_template_and_units = {
		division_template = "MD SpecOps Unit"
		disband = no
	}
}

# Local
delete_light_infantry_local = {
	set_temp_variable = { temp_expense = global.mercs_weekly_cost^0 }
	multiply_temp_variable = { temp_expense = pmc_local_light_recruited }
	multiply_temp_variable = { temp_expense = -0.8 }
	modify_pmc_expenses = yes

	set_temp_variable = { return_points = pmc_local_light_recruited }
	subtract_from_variable = { ROOT.pmc_bought = return_points }
	multiply_temp_variable = { return_points = global.merc_deploy_cost^0 }
	subtract_from_variable = { ROOT.merc_deployed = return_points }
	clear_variable = pmc_local_light_recruited

	clr_country_flag = pmc_local_light
	delete_unit_template_and_units = {
		division_template = "Mercenary Light Unit"
		disband = no
	}
}

delete_mot_infantry_local = {
	set_temp_variable = { temp_expense = global.mercs_weekly_cost^1 }
	multiply_temp_variable = { temp_expense = pmc_local_mot_recruited }
	multiply_temp_variable = { temp_expense = -0.8 }
	modify_pmc_expenses = yes

	set_temp_variable = { return_points = pmc_local_mot_recruited }
	subtract_from_variable = { ROOT.pmc_bought = return_points }
	multiply_temp_variable = { return_points = global.merc_deploy_cost^1 }
	subtract_from_variable = { ROOT.merc_deployed = return_points }
	clear_variable = pmc_local_mot_recruited

	clr_country_flag = pmc_local_mot
	delete_unit_template_and_units = {
		division_template = "Mercenary Motorized Unit"
		disband = no
	}
}

delete_mech_infantry_local = {
	set_temp_variable = { temp_expense = global.mercs_weekly_cost^2 }
	multiply_temp_variable = { temp_expense = pmc_local_mech_recruited }
	multiply_temp_variable = { temp_expense = -0.8 }
	modify_pmc_expenses = yes

	set_temp_variable = { return_points = pmc_local_mech_recruited }
	subtract_from_variable = { ROOT.pmc_bought = return_points }
	multiply_temp_variable = { return_points = global.merc_deploy_cost^2 }
	subtract_from_variable = { ROOT.merc_deployed = return_points }
	clear_variable = pmc_local_mech_recruited

	clr_country_flag = pmc_local_mech
	delete_unit_template_and_units = {
		division_template = "Mercenary Mechanized Unit"
		disband = no
	}
}

delete_heavy_mech_infantry_local = {
	set_temp_variable = { temp_expense = global.mercs_weekly_cost^3 }
	multiply_temp_variable = { temp_expense = pmc_local_heavy_mech_recruited }
	multiply_temp_variable = { temp_expense = -0.8 }
	modify_pmc_expenses = yes

	set_temp_variable = { return_points = pmc_local_heavy_mech_recruited }
	subtract_from_variable = { ROOT.pmc_bought = return_points }
	multiply_temp_variable = { return_points = global.merc_deploy_cost^3 }
	subtract_from_variable = { ROOT.merc_deployed = return_points }
	clear_variable = pmc_local_heavy_mech_recruited

	clr_country_flag = pmc_local_heavy_mech
	delete_unit_template_and_units = {
		division_template = "Mercenary Heavy Mechanized Unit"
		disband = no
	}
}

delete_special_unit_local = {
	set_temp_variable = { temp_expense = global.mercs_weekly_cost^4 }
	multiply_temp_variable = { temp_expense = pmc_local_special_unit_recruited }
	multiply_temp_variable = { temp_expense = -0.8 }
	modify_pmc_expenses = yes

	set_temp_variable = { return_points = pmc_local_special_unit_recruited }
	subtract_from_variable = { ROOT.pmc_bought = return_points }
	multiply_temp_variable = { return_points = global.merc_deploy_cost^4 }
	subtract_from_variable = { ROOT.merc_deployed = return_points }
	clear_variable = pmc_local_special_unit_recruited

	clr_country_flag = pmc_local_special_unit
	delete_unit_template_and_units = {
		division_template = "Mercenary Special Assault Unit"
		disband = no
	}
}

delete_tank_unit_local = {
	set_temp_variable = { temp_expense = global.mercs_weekly_cost^5 }
	multiply_temp_variable = { temp_expense = pmc_local_tank_unit_recruited }
	multiply_temp_variable = { temp_expense = -0.8 }
	modify_pmc_expenses = yes

	set_temp_variable = { return_points = pmc_local_tank_unit_recruited }
	subtract_from_variable = { ROOT.pmc_bought = return_points }
	multiply_temp_variable = { return_points = global.merc_deploy_cost^5 }
	subtract_from_variable = { ROOT.merc_deployed = return_points }
	clear_variable = pmc_local_tank_unit_recruited

	clr_country_flag = pmc_local_tank_unit
	delete_unit_template_and_units = {
		division_template = "Mercenary Tank Unit"
		disband = no
	}
}

delete_specops_unit_local = {
	set_temp_variable = { temp_expense = global.mercs_weekly_cost^6 }
	multiply_temp_variable = { temp_expense = pmc_local_specops_unit_recruited }
	multiply_temp_variable = { temp_expense = -0.8 }
	modify_pmc_expenses = yes

	set_temp_variable = { return_points = pmc_local_specops_unit_recruited }
	subtract_from_variable = { ROOT.pmc_bought = return_points }
	multiply_temp_variable = { return_points = global.merc_deploy_cost^6 }
	subtract_from_variable = { ROOT.merc_deployed = return_points }
	clear_variable = pmc_local_specops_unit_recruited

	clr_country_flag = pmc_local_specops_unit
	delete_unit_template_and_units = {
		division_template = "Mercenary SpecOps Unit"
		disband = no
	}
}

pmc_variables_setup = {
	# NOTES:
	# Blackwater - founded, 1 expansion, 2 upgrades
	# Wagner - not founded
	# Aegis - founded, 1 expansion, 0 upgrades
	# Constellis - founded, 0 expansion, 1 upgrade
	# MD - not founded
	set_variable = { SOV.pmc_index = 1 }

	## costs
	add_to_array = { array = global.mercs_cost value = 3 index = 0 }
	add_to_array = { array = global.mercs_cost value = 5 index = 1 }
	add_to_array = { array = global.mercs_cost value = 7 index = 2 }
	add_to_array = { array = global.mercs_cost value = 9 index = 3 }
	add_to_array = { array = global.mercs_cost value = 15 index = 4 }
	add_to_array = { array = global.mercs_cost value = 12 index = 5 }
	add_to_array = { array = global.mercs_cost value = 9 index = 6 }

	## upgrades
	add_to_array = { array = global.merc_upgrade value = 2 index = 0 }
	add_to_array = { array = global.merc_upgrade value = -1 index = 1 }
	add_to_array = { array = global.merc_upgrade value = 0 index = 2 }
	add_to_array = { array = global.merc_upgrade value = 1 index = 3 }
	add_to_array = { array = global.merc_upgrade value = -1 index = 4 }

	## weekly costs
	add_to_array = { array = global.mercs_weekly_cost value = 0.1 index = 0 }
	add_to_array = { array = global.mercs_weekly_cost value = 0.15 index = 1 }
	add_to_array = { array = global.mercs_weekly_cost value = 0.20 index = 2 }
	add_to_array = { array = global.mercs_weekly_cost value = 0.25 index = 3 }
	add_to_array = { array = global.mercs_weekly_cost value = 0.45 index = 4 }
	add_to_array = { array = global.mercs_weekly_cost value = 0.35 index = 5 }
	add_to_array = { array = global.mercs_weekly_cost value = 0.25 index = 6 }


	## costs - points
	add_to_array = { array = global.merc_deploy_cost value = 1 index = 0 }
	add_to_array = { array = global.merc_deploy_cost value = 2 index = 1 }
	add_to_array = { array = global.merc_deploy_cost value = 2 index = 2 }
	add_to_array = { array = global.merc_deploy_cost value = 3 index = 3 }
	add_to_array = { array = global.merc_deploy_cost value = 4 index = 4 }
	add_to_array = { array = global.merc_deploy_cost value = 3 index = 5 }
	add_to_array = { array = global.merc_deploy_cost value = 2 index = 6 }

	## initial deployment
	add_to_array = { array = global.merc_deployed value = 0 index = 0 }
	add_to_array = { array = global.merc_deployed value = 0 index = 1 }
	add_to_array = { array = global.merc_deployed value = 0 index = 2 }
	add_to_array = { array = global.merc_deployed value = 0 index = 3 }
	add_to_array = { array = global.merc_deployed value = 0 index = 4 }

	## expansion states
	add_to_array = { array = global.merc_capacity value = 5 index = 0 }
	add_to_array = { array = global.merc_capacity value = 3 index = 1 }
	add_to_array = { array = global.merc_capacity value = 5 index = 2 }
	add_to_array = { array = global.merc_capacity value = 3 index = 3 }
	add_to_array = { array = global.merc_capacity value = 3 index = 4 }
}
