﻿division_template = {
	name = "Armoured Operations Command"
	regiments = {
		Mech_Inf_Bat = { x = 0 y = 0 }
		armor_Bat = { x = 0 y = 1 }
		armor_Bat = { x = 0 y = 2 }
		L_arm_Bat = { x = 0 y = 2 }
		SP_Arty_Bat = { x = 0 y = 2 }

		Mot_Inf_Bat = { x = 1 y = 0 }
		armor_Bat = { x = 1 y = 1 }
		armor_Bat = { x = 1 y = 2 }
		L_arm_Bat = { x = 1 y = 2 }
		SP_Arty_Bat = { x = 1 y = 2 }

		Mot_Inf_Bat = { x = 2 y = 0 }
		armor_Bat = { x = 2 y = 1 }
		armor_Bat = { x = 2 y = 2 }
		L_arm_Bat = { x = 2 y = 2 }
		SP_Arty_Bat = { x = 2 y = 2 }
	}
	support = {
		H_Engi_Comp = { x = 0 y = 0 }
		SP_Arty_Battery = { x = 0 y = 1 }
	}
}

division_template = {
	name = "Light Infantry Division"
	regiments = {
		L_Inf_Bat = { x = 0 y = 0 }
		L_Inf_Bat = { x = 0 y = 1 }
		L_Inf_Bat = { x = 0 y = 2 }

		L_Inf_Bat = { x = 1 y = 0 }
		L_Inf_Bat = { x = 1 y = 1 }
		L_Inf_Bat = { x = 1 y = 2 }

		L_Inf_Bat = { x = 2 y = 0 }
		L_Inf_Bat = { x = 2 y = 1 }
		L_Inf_Bat = { x = 2 y = 2 }

		L_Inf_Bat = { x = 3 y = 0 }
		Arty_Bat = { x = 3 y = 1 }
		L_arm_Bat = { x = 3 y = 2 }
	}
	support = {
		L_Engi_Comp = { x = 0 y = 0 }
	}
}

division_template = {
	name = "Military Operations Command"
	regiments = {
		Mech_Inf_Bat = { x = 0 y = 0 }
		Mech_Inf_Bat = { x = 0 y = 1 }
		Mech_Inf_Bat = { x = 0 y = 2 }
		Mech_Inf_Bat = { x = 0 y = 3 }

		Mot_Inf_Bat = { x = 1 y = 0 }
		Mot_Inf_Bat = { x = 1 y = 1 }
		Mot_Inf_Bat = { x = 1 y = 2 }

		Mot_Inf_Bat = { x = 2 y = 0 }
		Mot_Inf_Bat = { x = 2 y = 1 }
		Mot_Inf_Bat = { x = 2 y = 2 }
	}
	support = {
		L_Engi_Comp = { x = 0 y = 0 }
		Arty_Battery = { x = 0 y = 1 }
	}
}

division_template = {
	name = "Regional Operations Command"
	regiments = {
		Mot_Inf_Bat = { x = 0 y = 0 }
		Mot_Inf_Bat = { x = 0 y = 1 }
		L_Inf_Bat = { x = 0 y = 2 }
		L_Inf_Bat = { x = 0 y = 3 }
	}
	support = {
		L_Engi_Comp = { x = 0 y = 0 }
		Arty_Battery = { x = 0 y = 1 }
	}
}

units = {

	#Armoured Operations Command (AROC)
	division = {
		name = "71st Armoured Operations Command"
		location = 12449 	#Pyawbwe
		division_template = "Armoured Operations Command"
		start_experience_factor = 0.2
		start_equipment_factor = 0.01
	}
	division = {
		name = "72nd Armoured Operations Command"
		location = 12127 	#Bago
		division_template = "Armoured Operations Command"
		start_experience_factor = 0.2
		start_equipment_factor = 0.01
	}
	division = {
		name = "73rd Armoured Operations Command"
		location = 1492 	#Mandalay
		division_template = "Armoured Operations Command"
		start_experience_factor = 0.2
		start_equipment_factor = 0.01
	}
	division = {
		name = "74th Armoured Operations Command"
		location = 10486 	#Ah Hlaw
		division_template = "Armoured Operations Command"
		start_experience_factor = 0.2
		start_equipment_factor = 0.01
	}
	division = {
		name = "75th Armoured Operations Command"
		location = 10344 	#Thar Ga Ya
		division_template = "Armoured Operations Command"
		start_experience_factor = 0.2
		start_equipment_factor = 0.01
	}

	#Light Infantry Divisions
	division = {
		name = "11th Light Infantry Division"
		location = 4626 	#Inndine
		division_template = "Light Infantry Division"
		start_experience_factor = 0.2
		start_equipment_factor = 0.01
	}
	division = {
		name = "22nd Light Infantry Division"
		location = 4336	#Hpa-An
		division_template = "Light Infantry Division"
		start_experience_factor = 0.2
		start_equipment_factor = 0.01
	}
	division = {
		name = "33rd Light Infantry Division"
		location = 10386 	#Sagaing
		division_template = "Light Infantry Division"
		start_experience_factor = 0.2
		start_equipment_factor = 0.01
	}
	division = {
		name = "44th Light Infantry Division"
		location = 4336 	#Thaton
		division_template = "Light Infantry Division"
		start_experience_factor = 0.2
		start_equipment_factor = 0.01
	}
	division = {
		name = "55th Light Infantry Division"
		location = 4585 	#Kalaw
		division_template = "Light Infantry Division"
		start_experience_factor = 0.2
		start_equipment_factor = 0.01
	}
	division = {
		name = "66th Light Infantry Division"
		location = 1333 	#Pyay
		division_template = "Light Infantry Division"
		start_experience_factor = 0.2
		start_equipment_factor = 0.01
	}
	division = {
		name = "77th Light Infantry Division"
		location = 12127 	#Bago
		division_template = "Light Infantry Division"
		start_experience_factor = 0.2
		start_equipment_factor = 0.01
	}
	division = {
		name = "88th Light Infantry Division"
		location = 7034 	#Magway
		division_template = "Light Infantry Division"
		start_experience_factor = 0.2
		start_equipment_factor = 0.01
	}
	division = {
		name = "99th Light Infantry Division"
		location = 12449 	#Meiktila
		division_template = "Light Infantry Division"
		start_experience_factor = 0.2
		start_equipment_factor = 0.01
	}
	division = {
		name = "101st Light Infantry Division"
		location = 4541 	#Pakokku
		division_template = "Light Infantry Division"
		start_experience_factor = 0.2
		start_equipment_factor = 0.01
	}

	#Military Operations Commands (MOC)
	division = {
		name = "1st Military Operations Command"
		location = 139 	#Mandalay
		division_template = "Military Operations Command"
		start_experience_factor = 0.2
		start_equipment_factor = 0.01
	}
	division = {
		name = "2nd Military Operations Command"
		location = 1330  #Yangon
		division_template = "Military Operations Command"
		start_experience_factor = 0.2
		start_equipment_factor = 0.01
	}
	division = {
		name = "3rd Military Operations Command"
		location = 12464	#Mogaung
		division_template = "Military Operations Command"
		start_experience_factor = 0.2
		start_equipment_factor = 0.01
	}
	division = {
		name = "4th Military Operations Command"
		location = 7254 	#Hpugyi
		division_template = "Military Operations Command"
		start_experience_factor = 0.2
		start_equipment_factor = 0.01
	}
	division = {
		name = "5th Military Operations Command"
		location = 3651 	#Taungup
		division_template = "Military Operations Command"
		start_experience_factor = 0.2
		start_equipment_factor = 0.01
	}
	division = {
		name = "6th Military Operations Command"
		location = 4626 	#Pyinmana
		division_template = "Military Operations Command"
		start_experience_factor = 0.2
		start_equipment_factor = 0.01
	}
	division = {
		name = "7th Military Operations Command"
		location = 141 	#Hpegon
		division_template = "Military Operations Command"
		start_experience_factor = 0.2
		start_equipment_factor = 0.01
	}
	division = {
		name = "8th Military Operations Command"
		location = 1315 	#Dawei
		division_template = "Military Operations Command"
		start_experience_factor = 0.2
		start_equipment_factor = 0.01
	}
	division = {
		name = "9th Military Operations Command"
		location = 12090 	#Kyauktaw
		division_template = "Military Operations Command"
		start_experience_factor = 0.2
		start_equipment_factor = 0.01
	}
	division = {
		name = "10th Military Operations Command"
		location = 7534 	#Kyigon
		division_template = "Military Operations Command"
		start_experience_factor = 0.2
		start_equipment_factor = 0.01
	}
	division = {
		name = "12th Military Operations Command"
		location = 1403 	#Kawkareik
		division_template = "Military Operations Command"
		start_experience_factor = 0.2
		start_equipment_factor = 0.01
	}
	division = {
		name = "13th Military Operations Command"
		location = 4275 	#Bokpyin
		division_template = "Military Operations Command"
		start_experience_factor = 0.2
		start_equipment_factor = 0.01
	}
	division = {
		name = "14th Military Operations Command"
		location = 4175 	#Mong Hsat
		division_template = "Military Operations Command"
		start_experience_factor = 0.2
		start_equipment_factor = 0.01
	}
	division = {
		name = "15th Military Operations Command"
		location = 12090 	#Buthidaung
		division_template = "Military Operations Command"
		start_experience_factor = 0.2
		start_equipment_factor = 0.01
	}
	division = {
		name = "16th Military Operations Command"
		location = 139 	#Mandalay
		division_template = "Military Operations Command"
		start_experience_factor = 0.2
		start_equipment_factor = 0.01
	}
	division = {
		name = "17th Military Operations Command"
		location = 4175 	#Mong Pan
		division_template = "Military Operations Command"
		start_experience_factor = 0.2
		start_equipment_factor = 0.01
	}
	division = {
		name = "18th Military Operations Command"
		location = 132 	#Mong Hpayak
		division_template = "Military Operations Command"
		start_experience_factor = 0.2
		start_equipment_factor = 0.01
	}
	division = {
		name = "19th Military Operations Command"
		location = 12125 	#Ye
		division_template = "Military Operations Command"
		start_experience_factor = 0.2
		start_equipment_factor = 0.01
	}
	division = {
		name = "20th Military Operations Command"
		location = 10217 	#Kawthaung
		division_template = "Military Operations Command"
		start_experience_factor = 0.2
		start_equipment_factor = 0.01
	}
	division = {
		name = "21st Military Operations Command"
		location = 7469 	#Bhamo
		division_template = "Military Operations Command"
		start_experience_factor = 0.2
		start_equipment_factor = 0.01
	}

	#Regional Operations Commands
	division = {
		name = "Loikaw Regional Operations Command"
		location = 12256 	#Loikaw
		division_template = "Regional Operations Command"
		start_experience_factor = 0.2
		start_equipment_factor = 0.01
	}
	division = {
		name = "Mandalay Regional Operations Command"
		location = 139 	#Mandalay
		division_template = "Regional Operations Command"
		start_experience_factor = 0.2
		start_equipment_factor = 0.01
	}
	division = {
		name = "Kalay Regional Operations Command"
		location = 4454 	#Kalay
		division_template = "Regional Operations Command"
		start_experience_factor = 0.2
		start_equipment_factor = 0.01
	}
	division = {
		name = "Sittwe Regional Operations Command"
		location = 12090 	#Sittwe
		division_template = "Regional Operations Command"
		start_experience_factor = 0.2
		start_equipment_factor = 0.01
	}
	division = {
		name = "Pyay Regional Operations Command"
		location = 1333 	#Pyay
		division_template = "Regional Operations Command"
		start_experience_factor = 0.2
		start_equipment_factor = 0.01
	}
	division = {
		name = "Tanaing Regional Operations Command"
		location = 4588 	#Tanaing
		division_template = "Regional Operations Command"
		start_experience_factor = 0.2
		start_equipment_factor = 0.01
	}
	division = {
		name = "Wanhseng Regional Operations Command"
		location = 132 	#Wanhseng
		division_template = "Regional Operations Command"
		start_experience_factor = 0.2
		start_equipment_factor = 0.01
	}
}

instant_effect = {
	add_equipment_to_stockpile = {
		type = infantry_weapons		#G3
		amount = 34000
		producer = BRM
	}

	add_equipment_to_stockpile = {
		type = infantry_weapons		#FN FAL
		amount = 2400
		producer = BEL
	}

	add_equipment_to_stockpile = {
		type = infantry_weapons1		#Type 81
		amount = 24000
		producer = CHI
	}

	add_equipment_to_stockpile = {
		type = infantry_weapons2		#MA-1
		amount = 12000
		producer = BRM
	}

	add_equipment_to_stockpile = {
		type = infantry_weapons3		#MA-1 Mk.3
		amount = 5000
		producer = BRM
	}

	add_equipment_to_stockpile = {
		type = command_control_equipment
		amount = 8000
		producer = SOV
	}

	add_equipment_to_stockpile = {
		type = MBT_3			#Al Khalid
		amount = 148
		producer = PAK
	}

	add_equipment_to_stockpile = {
		type = MBT_2			#T-72B
		#version_name = "T-72B"
		amount = 139
		producer = SOV
	}

	add_equipment_to_stockpile = {
		type = MBT_1			#Type 69
		#version_name = "Type 69"
		amount = 100
		producer = CHI
	}

	add_equipment_to_stockpile = {
		type = MBT_1			#Type 59D
		#version_name = "Type-59D"
		amount = 25
		producer = CHI
	}

	add_equipment_to_stockpile = {
		type = MBT_1			#T-55
		amount = 10
		producer = SOV
	}

	add_equipment_to_stockpile = {
		type = Rec_tank_0			#Type 62
		#version_name = "Type 62"
		amount = 105
		producer = CHI
	}

	add_equipment_to_stockpile = {
		type = Rec_tank_0			#Type 63
		amount = 105
		producer = CHI
	}

	add_equipment_to_stockpile = {
		type = Rec_tank_0			#Ferret
		amount = 45
		producer = ENG
	}

	add_equipment_to_stockpile = {
		type = Rec_tank_0			#Panhard AML
		#version_name = "Panhard AML"
		amount = 50
		producer = FRA
	}

	add_equipment_to_stockpile = {
		type = Rec_tank_0			#EE-9 Cascavel
		amount = 150
		producer = BRA
	}

	add_equipment_to_stockpile = {
		type = APC_4			#BTR-3
		amount = 368
		producer = UKR
	}

	add_equipment_to_stockpile = {
		type = APC_2			#Type 85
		#version_name = "Type 85"
		amount = 305
		producer = CHI
	}

	add_equipment_to_stockpile = {
		type = APC_2			#MT-LB
		amount = 98
		producer = SOV
	}

	add_equipment_to_stockpile = {
		type = APC_1			#BAAC-83
		amount = 11
		producer = BRM
	}

	add_equipment_to_stockpile = {
		type = APC_2			#BAAC-87
		amount = 25
		producer = BRM
	}

	add_equipment_to_stockpile = {
		type = APC_1			#Panhard M3
		amount = 10
		producer = FRA
	}

	add_equipment_to_stockpile = {
		type = APC_3			#ZSL-92
		amount = 50
		producer = CHI
	}

	add_equipment_to_stockpile = {
		type = IFV_3			#Type 91
		amount = 55
		producer = CHI
	}

	add_equipment_to_stockpile = {
		type = util_vehicle_5			#Mahindra MPV
		amount = 10
		producer = RAJ
	}

	add_equipment_to_stockpile = {
		type = util_vehicle_2			#MAV-1
		amount = 44
		producer = BRM
	}

	add_equipment_to_stockpile = {
		type = util_vehicle_1			#Naung Yoe
		amount = 5000
		producer = BRM
	}

	add_equipment_to_stockpile = {
		type = SP_arty_2			#SH1
		#version_name = "SH1"
		amount = 78
		producer = CHI
	}

	add_equipment_to_stockpile = {
		type = SP_arty_1			#Nora B-52
		amount = 30
		producer = SER
	}

	add_equipment_to_stockpile = {
		type = SP_R_arty_0			#type-63
		amount = 84
		producer = CHI
	}

	add_equipment_to_stockpile = {
		type = artillery_0			#D-30
		amount = 560
		producer = SOV
	}

	add_equipment_to_stockpile = {
		type = artillery_0			#M101
		#version_name = "M101"
		amount = 242
		producer = USA
	}

	add_equipment_to_stockpile = {
		type = artillery_1			#KH-179
		amount = 100
		producer = KOR
	}

	add_equipment_to_stockpile = {
		type = artillery_1			#Soltam M-845P
		amount = 72
		producer = ISR
	}

	add_equipment_to_stockpile = {
		type = SP_Anti_Air_0			#SA-6
		#version_name = "2K12 Kub"
		amount = 24
		producer = SOV
	}

	add_equipment_to_stockpile = {
		type = SP_Anti_Air_2			#Tunguska
		amount = 24
		producer = SOV
	}

	add_equipment_to_stockpile = {
		type = Anti_Air_1			#Igla
		amount = 3200
		producer = SOV
	}

	add_equipment_to_stockpile = {
		type = Anti_tank_0			#Carl Gustaf
		amount = 1200
		producer = SWE
	}

	add_equipment_to_stockpile = {
		type = Anti_tank_0
		amount = 2000
		producer = BRM
	}

	add_equipment_to_stockpile = {
		type = MR_Fighter2			#MiG-29
		amount = 31
		producer = SOV
	}

	add_equipment_to_stockpile = {
		type = MR_Fighter1			#J-7
		amount = 24
		producer = CHI
	}

	add_equipment_to_stockpile = {
		type = Strike_fighter1			#Q-5
		amount = 21
		producer = CHI
	}

	add_equipment_to_stockpile = {
		type = transport_helicopter1			#Mi-17
		amount = 12
		producer = SOV
	}

	add_equipment_to_stockpile = {
		type = transport_helicopter1			#UH-1
		amount = 14
		producer = USA
	}

	add_equipment_to_stockpile = {
		type = attack_helicopter1			#Mi-24
		amount = 50
		producer = SOV
	}
}