﻿instant_effect = {
	add_equipment_to_stockpile = {
		type = MR_Fighter2 #F-16A
		amount = 137
		producer = USA
	}
	add_equipment_to_stockpile = {
		type = naval_plane2 #P-3C
		amount = 10
		producer = USA
	}
	add_equipment_to_stockpile = {
		type = transport_plane3 #C-130J Super Hercules
		amount = 4
		producer = USA
	}

	if = {
		limit = {
			has_dlc = "Gotterdammerung"
		}
		add_equipment_to_stockpile = {
			type = sam_missile_equipment_1
			amount = 150
		}
		add_equipment_to_stockpile = {
			type = sam_missile_equipment_2
			amount = 100
		}
	}
}