﻿division_template = {
	name = "Mobile Brigade"
	regiments = {
		Mot_Militia_Bat = { x = 0 y = 0 }
		Mot_Militia_Bat = { x = 0 y = 1 }
		Mot_Militia_Bat = { x = 0 y = 2 }
	}
}

division_template = {
	name = "Militia Brigade"
	regiments = {
		Militia_Bat = { x = 0 y = 0 }
		Militia_Bat = { x = 0 y = 1 }
		Militia_Bat = { x = 0 y = 2 }
	}
}

units = {
	division = {
		name = "1st Hezbollah Khasab Brigade"
		location = 3573 #Musandam
		division_template = "Mobile Brigade"
		start_experience_factor = 0.3
		start_equipment_factor = 0.75
		force_equipment_variants = { infantry_weapons1 = { owner = "PER" } }
		force_equipment_variants = { util_vehicle_1 = { owner = "PER" } }
		force_equipment_variants = { Anti_tank_1 = { owner = "PER" } }
		force_equipment_variants = { Heavy_Anti_tank_1 = { owner = "PER" } }
		force_equipment_variants = { Anti_Air_0 = { owner = "PER" } }
	}
	division = {
		name = "1st Hezbollah Bukha Brigade"
		location = 3573 #Musandam
		division_template = "Mobile Brigade"
		start_experience_factor = 0.3
		start_equipment_factor = 0.75
		force_equipment_variants = { infantry_weapons1 = { owner = "PER" } }
		force_equipment_variants = { util_vehicle_1 = { owner = "PER" } }
		force_equipment_variants = { Anti_tank_1 = { owner = "PER" } }
		force_equipment_variants = { Heavy_Anti_tank_1 = { owner = "PER" } }
		force_equipment_variants = { Anti_Air_0 = { owner = "PER" } }
	}
}