﻿units = {

	### Naval OOB ###
	fleet = {
		name = "Fregattvåpenet"
		naval_base = 122
		task_force = {
			name = "Fregattvåpenet"
			location = 122

			ship = { name = "KNM Bergen (F301)" definition = frigate start_experience_factor = 0.65 equipment = { frigate_hull_1 = { amount = 1 owner = NOR version_name = "Oslo Class" } }  }
			ship = { name = "KNM Trondheim (F302)" definition = frigate start_experience_factor = 0.65 equipment = { frigate_hull_1 = { amount = 1 owner = NOR version_name = "Oslo Class" } }  }
			ship = { name = "KNM Narvik (F304)" definition = frigate start_experience_factor = 0.65 equipment = { frigate_hull_1 = { amount = 1 owner = NOR version_name = "Oslo Class" } }  }
		}
	}
	fleet = {
		name = "MTB-våpenet"
		naval_base = 122
		task_force = {
			name = "21. MTB-Skvadron"
			location = 122

			ship = { name = "KNM Tjeld (P989)" definition = corvette start_experience_factor = 0.65 equipment = { corvette_hull_2 = { amount = 1 owner = NOR version_name = "Hauk Class" } }  }
			ship = { name = "KNM Stegg (P994)" definition = corvette start_experience_factor = 0.65 equipment = { corvette_hull_2 = { amount = 1 owner = NOR version_name = "Hauk Class" } }  }
			ship = { name = "KNM Ravn (P996)" definition = corvette start_experience_factor = 0.65 equipment = { corvette_hull_2 = { amount = 1 owner = NOR version_name = "Hauk Class" } }  }
			ship = { name = "KNM Geir (P998)" definition = corvette start_experience_factor = 0.65 equipment = { corvette_hull_2 = { amount = 1 owner = NOR version_name = "Hauk Class" } }  }
			ship = { name = "KNM Hauk (P986)" definition = corvette start_experience_factor = 0.65 equipment = { corvette_hull_2 = { amount = 1 owner = NOR version_name = "Hauk Class" } }  }
			ship = { name = "KNM Teist (P991)" definition = corvette start_experience_factor = 0.65 equipment = { corvette_hull_2 = { amount = 1 owner = NOR version_name = "Hauk Class" } }  }
			ship = { name = "KNM Lom (P993)" definition = corvette start_experience_factor = 0.65 equipment = { corvette_hull_2 = { amount = 1 owner = NOR version_name = "Hauk Class" } }  }
		}
		task_force = {
			name = "22. MTB-Skvadron"
			location = 11050

			ship = { name = "KNM Skarv (P990)" definition = corvette start_experience_factor = 0.65 equipment = { corvette_hull_2 = { amount = 1 owner = NOR version_name = "Hauk Class" } }  }
			ship = { name = "KNM Jo (P992)" definition = corvette start_experience_factor = 0.65 equipment = { corvette_hull_2 = { amount = 1 owner = NOR version_name = "Hauk Class" } }  }
			ship = { name = "KNM Falk (P995)" definition = corvette start_experience_factor = 0.65 equipment = { corvette_hull_2 = { amount = 1 owner = NOR version_name = "Hauk Class" } }  }
			ship = { name = "KNM Gribb (P997)" definition = corvette start_experience_factor = 0.65 equipment = { corvette_hull_2 = { amount = 1 owner = NOR version_name = "Hauk Class" } }  }
			ship = { name = "KNM Erle (P999)" definition = corvette start_experience_factor = 0.65 equipment = { corvette_hull_2 = { amount = 1 owner = NOR version_name = "Hauk Class" } }  }
			ship = { name = "KNM Ørn (P987)" definition = corvette start_experience_factor = 0.65 equipment = { corvette_hull_2 = { amount = 1 owner = NOR version_name = "Hauk Class" } }  }
			ship = { name = "KNM Terne (P988)" definition = corvette start_experience_factor = 0.65 equipment = { corvette_hull_2 = { amount = 1 owner = NOR version_name = "Hauk Class" } }  }
		}
	}
	fleet = {
		name = "Minevåpenet"
		naval_base = 122
		task_force = {
			name = "Minevåpenet"
			location = 122

			ship = { name = "KNM Oksøy (M340)" definition = corvette start_experience_factor = 0.65 equipment = { corvette_hull_3 = { amount = 1 owner = NOR version_name = "Oksøy/Alta Class" } }  }
			ship = { name = "KNM Karmøy (M341)" definition = corvette start_experience_factor = 0.65 equipment = { corvette_hull_3 = { amount = 1 owner = NOR version_name = "Oksøy/Alta Class" } }  }
			ship = { name = "KNM Måløy (M342)" definition = corvette start_experience_factor = 0.65 equipment = { corvette_hull_3 = { amount = 1 owner = NOR version_name = "Oksøy/Alta Class" } }  }
			ship = { name = "KNM Hinnøy (M343)" definition = corvette start_experience_factor = 0.65 equipment = { corvette_hull_3 = { amount = 1 owner = NOR version_name = "Oksøy/Alta Class" } }  }
			ship = { name = "KNM Alta (M350)" definition = corvette start_experience_factor = 0.65 equipment = { corvette_hull_3 = { amount = 1 owner = NOR version_name = "Oksøy/Alta Class" } }  }
			ship = { name = "KNM Otra (M351)" definition = corvette start_experience_factor = 0.65 equipment = { corvette_hull_3 = { amount = 1 owner = NOR version_name = "Oksøy/Alta Class" } }  }
			ship = { name = "KNM Rauma (M352)" definition = corvette start_experience_factor = 0.65 equipment = { corvette_hull_3 = { amount = 1 owner = NOR version_name = "Oksøy/Alta Class" } }  }
			ship = { name = "KNM Orkla (M353)" definition = corvette start_experience_factor = 0.65 equipment = { corvette_hull_3 = { amount = 1 owner = NOR version_name = "Oksøy/Alta Class" } }  }
			ship = { name = "KNM Glomma (M354)" definition = corvette start_experience_factor = 0.65 equipment = { corvette_hull_3 = { amount = 1 owner = NOR version_name = "Oksøy/Alta Class" } }  }
		}
	}
	fleet = {
		name = "Undervannsbåtvåpenet"
		naval_base = 122
		task_force = {
			name = "Undervannsbåtvåpenet"
			location = 122

			ship = { name = "KNM Ula (S300)" definition = attack_submarine start_experience_factor = 0.65 equipment = { attack_submarine_hull_3 = { amount = 1 owner = NOR version_name = "Ula Class" } }  }
			ship = { name = "KNM Utsira (S301)" definition = attack_submarine start_experience_factor = 0.65 equipment = { attack_submarine_hull_3 = { amount = 1 owner = NOR version_name = "Ula Class" } }  }
			ship = { name = "KNM Utstein (S302)" definition = attack_submarine start_experience_factor = 0.65 equipment = { attack_submarine_hull_3 = { amount = 1 owner = NOR version_name = "Ula Class" } }  }
			ship = { name = "KNM Utvær (S303)" definition = attack_submarine start_experience_factor = 0.65 equipment = { attack_submarine_hull_3 = { amount = 1 owner = NOR version_name = "Ula Class" } }  }
			ship = { name = "KNM Uthaug (S304)" definition = attack_submarine start_experience_factor = 0.65 equipment = { attack_submarine_hull_3 = { amount = 1 owner = NOR version_name = "Ula Class" } }  }
			ship = { name = "KNM Uredd (S305)" definition = attack_submarine start_experience_factor = 0.65 equipment = { attack_submarine_hull_3 = { amount = 1 owner = NOR version_name = "Ula Class" } }  }
			ship = { name = "KNM Skolpen (S306)" definition = attack_submarine start_experience_factor = 0.65 equipment = { attack_submarine_hull_1 = { amount = 1 owner = NOR version_name = "Kobben Class" } }  }
			ship = { name = "KNM Stord (S308)" definition = attack_submarine start_experience_factor = 0.65 equipment = { attack_submarine_hull_1 = { amount = 1 owner = NOR version_name = "Kobben Class" } }  }
			ship = { name = "KNM Svenner (S309)" definition = attack_submarine start_experience_factor = 0.65 equipment = { attack_submarine_hull_1 = { amount = 1 owner = NOR version_name = "Kobben Class" } }  }
			ship = { name = "KNM Kunna (S319)" definition = attack_submarine start_experience_factor = 0.65 equipment = { attack_submarine_hull_1 = { amount = 1 owner = NOR version_name = "Kobben Class" } }  }
		}
	}
}
