﻿#"Professional" Taliban troops
division_template = {
	name = "Taliban Veterans"

	regiments = {
		Mot_Militia_Bat = { x = 0 y = 0 }
		Mot_Militia_Bat = { x = 0 y = 1 }

		armor_Bat = { x = 1 y = 0 }
		SP_Arty_Bat = { x = 1 y = 1 }
	}

	support = {
		Mech_Recce_Comp = { x = 0 y = 0 }
		Arm_Recce_Comp = { x = 0 y = 1 }
		L_Engi_Comp = { x = 0 y = 2 }
	}

	priority = 1
}

#Regular Taliban Fighters
division_template = {
	name = "Taliban Brigade"

	regiments = {
		Militia_Bat = { x = 0 y = 0 }
		Militia_Bat = { x = 0 y = 1 }
		Militia_Bat = { x = 0 y = 2 }
	}

	support = {
		L_Recce_Comp = { x = 0 y = 0 }
		Arty_Battery = { x = 0 y = 1 }
	}

	priority = 0
}
division_template = {
	name = "Taliban Regular Brigade"

	regiments = {
		L_Inf_Bat = { x = 0 y = 0 }
		L_Inf_Bat = { x = 0 y = 1 }
		L_Inf_Bat = { x = 0 y = 2 }
	}

	support = {
		L_Recce_Comp = { x = 0 y = 0 }
		Arty_Battery = { x = 0 y = 1 }
	}

	priority = 0
}

#055 Brigade
division_template = {
	name = "Al-Qaeda Elite Guerrillas"

	is_locked = yes

	regiments = {
		Special_Forces = { x = 0 y = 0 }
		Special_Forces = { x = 0 y = 1 }
	}
	support = {
		L_Recce_Comp = { x = 0 y = 0 }
	}
	priority = 2
}

units = {
	division = {
		name = "055 Brigade"
		location = 12248 #In Bamiyan in 1999 and assaulted Taleqan in Sept. 2000
		division_template = "Al-Qaeda Elite Guerrillas"
		start_experience_factor = 0.5
		start_equipment_factor = 0.01
	}

	#Strength should be around 45 000 fighters: https://en.wikipedia.org/wiki/Taliban -> 18 brigades, let's make 4 of them "elite"
	division = {
		name = "1st Taliban Brigade"
		location = 14697
		division_template = "Taliban Veterans"
		start_experience_factor = 0.3
		start_equipment_factor = 0.01
	}
	division = {
		name = "2nd Taliban Brigade"
		location = 6186
		division_template = "Taliban Veterans"
		start_experience_factor = 0.3
		start_equipment_factor = 0.01
	}
	division = {
		name = "3rd Taliban Brigade"
		location = 12831
		division_template = "Taliban Veterans"
		start_experience_factor = 0.3
		start_equipment_factor = 0.01
	}
	division = {
		name = "6th Taliban Brigade"
		location = 6158
		division_template = "Taliban Regular Brigade"
		start_experience_factor = 0.1
		start_equipment_factor = 0.01
	}
	division = {
		name = "7th Taliban Brigade"
		location = 12769
		division_template = "Taliban Regular Brigade"
		start_experience_factor = 0.1
		start_equipment_factor = 0.01
	}
	division = {
		name = "8th Taliban Brigade"
		location = 10737
		division_template = "Taliban Regular Brigade"
		start_experience_factor = 0.1
		start_equipment_factor = 0.01
	}
	division = {
		name = "10th Taliban Brigade"
		location = 14686
		division_template = "Taliban Regular Brigade"
		start_experience_factor = 0.1
		start_equipment_factor = 0.01
	}
	division = {
		name = "11th Taliban Brigade"
		location = 14695
		division_template = "Taliban Regular Brigade"
		start_experience_factor = 0.1
		start_equipment_factor = 0.01
	}
	division = {
		name = "12th Taliban Brigade"
		location = 7448
		division_template = "Taliban Brigade"
		start_experience_factor = 0.1
		start_equipment_factor = 0.01
	}
	division = {
		name = "13th Taliban Brigade"
		location = 4893
		division_template = "Taliban Brigade"
		start_experience_factor = 0.1
		start_equipment_factor = 0.01
	}
	division = {
		name = "14th Taliban Brigade"
		location = 10852
		division_template = "Taliban Brigade"
		start_experience_factor = 0.1
		start_equipment_factor = 0.01
	}
	division = {
		name = "15th Taliban Brigade"
		location = 8090
		division_template = "Taliban Brigade"
		start_experience_factor = 0.1
		start_equipment_factor = 0.01
	}
	division = {
		name = "16th Taliban Brigade"
		location = 14696
		division_template = "Taliban Brigade"
		start_experience_factor = 0.1
		start_equipment_factor = 0.01
	}
	division = {
		name = "17th Taliban Brigade"
		location = 2017
		division_template = "Taliban Brigade"
		start_experience_factor = 0.1
		start_equipment_factor = 0.01
	}
	division = {
		name = "9th Taliban Brigade"
		location = 1948
		division_template = "Taliban Brigade"
		start_experience_factor = 0.1
		start_equipment_factor = 0.01
	}
}
instant_effect = {
	add_equipment_to_stockpile = {
		type = mbt_hull_0
		variant_name = "T-62"
		amount = 200
		producer = SOV
	}
	add_equipment_to_stockpile = {
		type = mbt_hull_0
		variant_name = "T-55"
		amount = 200
		producer = SOV
	}
	add_equipment_to_stockpile = {
		type = ifv_hull_0
		variant_name = "BMP-1"
		amount = 60
		producer = SOV
	}
	add_equipment_to_stockpile = {
		type = ifv_hull_1
		variant_name = "BMP-2"
		amount = 25
		producer = SOV
	}
	add_equipment_to_stockpile = {
		type = apc_hull_0
		variant_name = "BTR-60"
		amount = 145
		producer = SOV
	}
	add_equipment_to_stockpile = {
		type = apc_hull_0
		variant_name = "BTR-70"
		amount = 45
		producer = SOV
	}
	add_equipment_to_stockpile = {
		type = apc_hull_1
		variant_name = "BTR-80"
		amount = 20
		producer = SOV
	}
	add_equipment_to_stockpile = {
		type = util_vehicle_1		#Toyota Hilux
		amount = 440
	}
	add_equipment_to_stockpile = {
		type = util_vehicle_0	#ZIL-131
		amount = 80
		producer = SOV
	}
	add_equipment_to_stockpile = {
		type = artillery_0	#D30
		amount = 130
		producer = SOV
	}
	add_equipment_to_stockpile = {
		type = spart_hull_0
		variant_name = "BM-21 Grad"
		amount = 65
		producer = SOV
	}
	add_equipment_to_stockpile = {
		type = spart_hull_0
		variant_name = "BM-27 Uragan"
		amount = 25
		producer = SOV
	}
	add_equipment_to_stockpile = {
		type = command_control_equipment
		amount = 300
		producer = SOV
	}

	add_equipment_to_stockpile = {
		type = Anti_Air_0
		amount = 190
		producer = SOV
	}
	add_equipment_to_stockpile = {
		type = Anti_Air_1	#FIM-92 Stinger
		amount = 60
		producer = USA
	}

	add_equipment_to_stockpile = {
		type = Anti_tank_0
		amount = 300
		producer = SOV
	}
	add_equipment_to_stockpile = {
		type = Heavy_Anti_tank_0
		amount = 40
		producer = SOV
	}

	add_equipment_to_stockpile = {
		type = infantry_weapons1 	#AK-74
		amount = 1000
		producer = SOV
	}
	add_equipment_to_stockpile = {
		type = infantry_weapons		#Type 56
		amount = 4000
		producer = CHI
	}
	add_equipment_to_stockpile = {
		type = infantry_weapons
		variant_name = "Mosin"
		producer = SOV
		amount = 500
	}
	add_equipment_to_stockpile = {
		type = infantry_weapons
		variant_name = "PPSH"
		producer = SOV
		amount = 300
	}
	add_equipment_to_stockpile = {
		type = infantry_weapons		#AKM
		amount = 6000
		producer = SOV
	}
	add_equipment_to_stockpile = {
		type = infantry_weapons
		variant_name = "SKS"
		producer = SOV
		amount = 2000
	}
	add_equipment_to_stockpile = {
		type = transport_helicopter1		#Mi-8
		amount = 6
		producer = SOV
	}
	add_equipment_to_stockpile = {
		type = attack_helicopter_hull_0
		amount = 5
		producer = SOV
		variant_name = "Mi-24V"
	}
}